200, 5.000000e-01, 1.000000e+03
1, 5.497500e+00, 2.384186e-07, 5.960464e-08, 5.000000e-01
2, 1.049500e+01, 4.768372e-07, 5.960464e-08, 5.000000e-01
3, 1.549250e+01, 9.536743e-07, 5.960464e-08, 5.000000e-01
4, 2.049000e+01, 9.536743e-07, 5.782472e-08, 5.000000e-01
5, 2.548750e+01, 0.000000e+00, 0.000000e+00, 0.000000e+00
6, 3.048500e+01, 0.000000e+00, 0.000000e+00, 0.000000e+00
7, 3.548250e+01, 1.907349e-06, 5.960464e-08, 5.000000e-01
8, 4.048000e+01, 0.000000e+00, 0.000000e+00, 0.000000e+00
9, 4.547750e+01, 0.000000e+00, 0.000000e+00, 0.000000e+00
10, 5.047500e+01, 0.000000e+00, 0.000000e+00, 0.000000e+00
11, 5.547250e+01, 0.000000e+00, 0.000000e+00, 0.000000e+00
12, 6.047000e+01, 0.000000e+00, 0.000000e+00, 0.000000e+00
13, 6.546750e+01, 3.814697e-06, 5.960464e-08, 5.000000e-01
14, 7.046500e+01, 0.000000e+00, 0.000000e+00, 0.000000e+00
15, 7.546250e+01, 0.000000e+00, 0.000000e+00, 0.000000e+00
16, 8.046000e+01, 0.000000e+00, 0.000000e+00, 0.000000e+00
17, 8.545750e+01, 0.000000e+00, 0.000000e+00, 0.000000e+00
18, 9.045500e+01, 0.000000e+00, 0.000000e+00, 0.000000e+00
19, 9.545250e+01, 0.000000e+00, 0.000000e+00, 0.000000e+00
20, 1.004500e+02, 0.000000e+00, 0.000000e+00, 0.000000e+00
21, 1.054475e+02, 0.000000e+00, 0.000000e+00, 0.000000e+00
22, 1.104450e+02, 0.000000e+00, 0.000000e+00, 0.000000e+00
23, 1.154425e+02, 0.000000e+00, 0.000000e+00, 0.000000e+00
24, 1.204400e+02, 0.000000e+00, 0.000000e+00, 0.000000e+00
25, 1.254375e+02, 0.000000e+00, 0.000000e+00, 0.000000e+00
26, 1.304350e+02, 7.629395e-06, 5.960464e-08, 5.000000e-01
27, 1.354325e+02, 0.000000e+00, 0.000000e+00, 0.000000e+00
28, 1.404300e+02, 0.000000e+00, 0.000000e+00, 0.000000e+00
29, 1.454275e+02, 0.000000e+00, 0.000000e+00, 0.000000e+00
30, 1.504250e+02, 0.000000e+00, 0.000000e+00, 0.000000e+00
31, 1.554225e+02, 0.000000e+00, 0.000000e+00, 0.000000e+00
32, 1.604200e+02, 0.000000e+00, 0.000000e+00, 0.000000e+00
33, 1.654175e+02, 0.000000e+00, 0.000000e+00, 0.000000e+00
34, 1.704150e+02, 0.000000e+00, 0.000000e+00, 0.000000e+00
35, 1.754125e+02, 0.000000e+00, 0.000000e+00, 0.000000e+00
36, 1.804100e+02, 0.000000e+00, 0.000000e+00, 0.000000e+00
37, 1.854075e+02, 0.000000e+00, 0.000000e+00, 0.000000e+00
38, 1.904050e+02, 0.000000e+00, 0.000000e+00, 0.000000e+00
39, 1.954025e+02, 0.000000e+00, 0.000000e+00, 0.000000e+00
40, 2.004000e+02, 0.000000e+00, 0.000000e+00, 0.000000e+00
41, 2.053975e+02, 0.000000e+00, 0.000000e+00, 0.000000e+00
42, 2.103950e+02, 0.000000e+00, 0.000000e+00, 0.000000e+00
43, 2.153925e+02, 0.000000e+00, 0.000000e+00, 0.000000e+00
44, 2.203900e+02, 0.000000e+00, 0.000000e+00, 0.000000e+00
45, 2.253875e+02, 0.000000e+00, 0.000000e+00, 0.000000e+00
46, 2.303850e+02, 0.000000e+00, 0.000000e+00, 0.000000e+00
47, 2.353825e+02, 0.000000e+00, 0.000000e+00, 0.000000e+00
48, 2.403800e+02, 0.000000e+00, 0.000000e+00, 0.000000e+00
49, 2.453775e+02, 0.000000e+00, 0.000000e+00, 0.000000e+00
50, 2.503750e+02, 0.000000e+00, 0.000000e+00, 0.000000e+00
51, 2.553725e+02, 1.525879e-05, 5.960464e-08, 5.000000e-01
52, 2.603700e+02, 1.525879e-05, 5.951804e-08, 5.000000e-01
53, 2.653675e+02, 0.000000e+00, 0.000000e+00, 0.000000e+00
54, 2.703650e+02, 0.000000e+00, 0.000000e+00, 0.000000e+00
55, 2.753625e+02, 0.000000e+00, 0.000000e+00, 0.000000e+00
56, 2.803600e+02, 0.000000e+00, 0.000000e+00, 0.000000e+00
57, 2.853575e+02, 0.000000e+00, 0.000000e+00, 0.000000e+00
58, 2.903550e+02, 0.000000e+00, 0.000000e+00, 0.000000e+00
59, 2.953525e+02, 0.000000e+00, 0.000000e+00, 0.000000e+00
60, 3.003500e+02, 0.000000e+00, 0.000000e+00, 0.000000e+00
61, 3.053475e+02, 0.000000e+00, 0.000000e+00, 0.000000e+00
62, 3.103450e+02, 0.000000e+00, 0.000000e+00, 0.000000e+00
63, 3.153425e+02, 0.000000e+00, 0.000000e+00, 0.000000e+00
64, 3.203400e+02, 0.000000e+00, 0.000000e+00, 0.000000e+00
65, 3.253375e+02, 0.000000e+00, 0.000000e+00, 0.000000e+00
66, 3.303350e+02, 0.000000e+00, 0.000000e+00, 0.000000e+00
67, 3.353325e+02, 0.000000e+00, 0.000000e+00, 0.000000e+00
68, 3.403300e+02, 0.000000e+00, 0.000000e+00, 0.000000e+00
69, 3.453275e+02, 0.000000e+00, 0.000000e+00, 0.000000e+00
70, 3.503250e+02, 0.000000e+00, 0.000000e+00, 0.000000e+00
71, 3.553225e+02, 0.000000e+00, 0.000000e+00, 0.000000e+00
72, 3.603200e+02, 0.000000e+00, 0.000000e+00, 0.000000e+00
73, 3.653175e+02, 0.000000e+00, 0.000000e+00, 0.000000e+00
74, 3.703150e+02, 0.000000e+00, 0.000000e+00, 0.000000e+00
75, 3.753125e+02, 0.000000e+00, 0.000000e+00, 0.000000e+00
76, 3.803100e+02, 0.000000e+00, 0.000000e+00, 0.000000e+00
77, 3.853075e+02, 0.000000e+00, 0.000000e+00, 0.000000e+00
78, 3.903050e+02, 0.000000e+00, 0.000000e+00, 0.000000e+00
79, 3.953025e+02, 0.000000e+00, 0.000000e+00, 0.000000e+00
80, 4.003000e+02, 0.000000e+00, 0.000000e+00, 0.000000e+00
81, 4.052975e+02, 0.000000e+00, 0.000000e+00, 0.000000e+00
82, 4.102950e+02, 0.000000e+00, 0.000000e+00, 0.000000e+00
83, 4.152925e+02, 0.000000e+00, 0.000000e+00, 0.000000e+00
84, 4.202900e+02, 0.000000e+00, 0.000000e+00, 0.000000e+00
85, 4.252875e+02, 0.000000e+00, 0.000000e+00, 0.000000e+00
86, 4.302850e+02, 0.000000e+00, 0.000000e+00, 0.000000e+00
87, 4.352825e+02, 0.000000e+00, 0.000000e+00, 0.000000e+00
88, 4.402800e+02, 0.000000e+00, 0.000000e+00, 0.000000e+00
89, 4.452775e+02, 0.000000e+00, 0.000000e+00, 0.000000e+00
90, 4.502750e+02, 0.000000e+00, 0.000000e+00, 0.000000e+00
91, 4.552725e+02, 0.000000e+00, 0.000000e+00, 0.000000e+00
92, 4.602700e+02, 0.000000e+00, 0.000000e+00, 0.000000e+00
93, 4.652675e+02, 0.000000e+00, 0.000000e+00, 0.000000e+00
94, 4.702650e+02, 0.000000e+00, 0.000000e+00, 0.000000e+00
95, 4.752625e+02, 0.000000e+00, 0.000000e+00, 0.000000e+00
96, 4.802600e+02, 0.000000e+00, 0.000000e+00, 0.000000e+00
97, 4.852575e+02, 0.000000e+00, 0.000000e+00, 0.000000e+00
98, 4.902550e+02, 0.000000e+00, 0.000000e+00, 0.000000e+00
99, 4.952525e+02, 0.000000e+00, 0.000000e+00, 0.000000e+00
100, 5.002500e+02, 0.000000e+00, 0.000000e+00, 0.000000e+00
101, 5.052475e+02, 0.000000e+00, 0.000000e+00, 0.000000e+00
102, 5.102450e+02, 0.000000e+00, 0.000000e+00, 0.000000e+00
103, 5.152425e+02, 3.051758e-05, 5.960464e-08, 5.000000e-01
104, 5.202400e+02, 0.000000e+00, 0.000000e+00, 0.000000e+00
105, 5.252375e+02, 0.000000e+00, 0.000000e+00, 0.000000e+00
106, 5.302350e+02, 0.000000e+00, 0.000000e+00, 0.000000e+00
107, 5.352325e+02, 0.000000e+00, 0.000000e+00, 0.000000e+00
108, 5.402300e+02, 0.000000e+00, 0.000000e+00, 0.000000e+00
109, 5.452275e+02, 0.000000e+00, 0.000000e+00, 0.000000e+00
110, 5.502250e+02, 0.000000e+00, 0.000000e+00, 0.000000e+00
111, 5.552225e+02, 0.000000e+00, 0.000000e+00, 0.000000e+00
112, 5.602200e+02, 0.000000e+00, 0.000000e+00, 0.000000e+00
113, 5.652175e+02, 0.000000e+00, 0.000000e+00, 0.000000e+00
114, 5.702150e+02, 0.000000e+00, 0.000000e+00, 0.000000e+00
115, 5.752125e+02, 0.000000e+00, 0.000000e+00, 0.000000e+00
116, 5.802100e+02, 0.000000e+00, 0.000000e+00, 0.000000e+00
117, 5.852075e+02, 0.000000e+00, 0.000000e+00, 0.000000e+00
118, 5.902050e+02, 0.000000e+00, 0.000000e+00, 0.000000e+00
119, 5.952025e+02, 0.000000e+00, 0.000000e+00, 0.000000e+00
120, 6.002000e+02, 0.000000e+00, 0.000000e+00, 0.000000e+00
121, 6.051975e+02, 0.000000e+00, 0.000000e+00, 0.000000e+00
122, 6.101950e+02, 0.000000e+00, 0.000000e+00, 0.000000e+00
123, 6.151925e+02, 0.000000e+00, 0.000000e+00, 0.000000e+00
124, 6.201900e+02, 0.000000e+00, 0.000000e+00, 0.000000e+00
125, 6.251875e+02, 0.000000e+00, 0.000000e+00, 0.000000e+00
126, 6.301850e+02, 0.000000e+00, 0.000000e+00, 0.000000e+00
127, 6.351825e+02, 0.000000e+00, 0.000000e+00, 0.000000e+00
128, 6.401800e+02, 0.000000e+00, 0.000000e+00, 0.000000e+00
129, 6.451775e+02, 0.000000e+00, 0.000000e+00, 0.000000e+00
130, 6.501750e+02, 0.000000e+00, 0.000000e+00, 0.000000e+00
131, 6.551725e+02, 0.000000e+00, 0.000000e+00, 0.000000e+00
132, 6.601700e+02, 0.000000e+00, 0.000000e+00, 0.000000e+00
133, 6.651675e+02, 0.000000e+00, 0.000000e+00, 0.000000e+00
134, 6.701650e+02, 0.000000e+00, 0.000000e+00, 0.000000e+00
135, 6.751625e+02, 0.000000e+00, 0.000000e+00, 0.000000e+00
136, 6.801600e+02, 0.000000e+00, 0.000000e+00, 0.000000e+00
137, 6.851575e+02, 0.000000e+00, 0.000000e+00, 0.000000e+00
138, 6.901550e+02, 0.000000e+00, 0.000000e+00, 0.000000e+00
139, 6.951525e+02, 0.000000e+00, 0.000000e+00, 0.000000e+00
140, 7.001500e+02, 0.000000e+00, 0.000000e+00, 0.000000e+00
141, 7.051475e+02, 0.000000e+00, 0.000000e+00, 0.000000e+00
142, 7.101450e+02, 0.000000e+00, 0.000000e+00, 0.000000e+00
143, 7.151425e+02, 0.000000e+00, 0.000000e+00, 0.000000e+00
144, 7.201400e+02, 0.000000e+00, 0.000000e+00, 0.000000e+00
145, 7.251375e+02, 0.000000e+00, 0.000000e+00, 0.000000e+00
146, 7.301350e+02, 0.000000e+00, 0.000000e+00, 0.000000e+00
147, 7.351325e+02, 0.000000e+00, 0.000000e+00, 0.000000e+00
148, 7.401300e+02, 0.000000e+00, 0.000000e+00, 0.000000e+00
149, 7.451275e+02, 0.000000e+00, 0.000000e+00, 0.000000e+00
150, 7.501250e+02, 0.000000e+00, 0.000000e+00, 0.000000e+00
151, 7.551225e+02, 0.000000e+00, 0.000000e+00, 0.000000e+00
152, 7.601200e+02, 0.000000e+00, 0.000000e+00, 0.000000e+00
153, 7.651175e+02, 0.000000e+00, 0.000000e+00, 0.000000e+00
154, 7.701150e+02, 0.000000e+00, 0.000000e+00, 0.000000e+00
155, 7.751125e+02, 0.000000e+00, 0.000000e+00, 0.000000e+00
156, 7.801100e+02, 0.000000e+00, 0.000000e+00, 0.000000e+00
157, 7.851075e+02, 0.000000e+00, 0.000000e+00, 0.000000e+00
158, 7.901050e+02, 0.000000e+00, 0.000000e+00, 0.000000e+00
159, 7.951025e+02, 0.000000e+00, 0.000000e+00, 0.000000e+00
160, 8.001000e+02, 0.000000e+00, 0.000000e+00, 0.000000e+00
161, 8.050975e+02, 0.000000e+00, 0.000000e+00, 0.000000e+00
162, 8.100950e+02, 0.000000e+00, 0.000000e+00, 0.000000e+00
163, 8.150925e+02, 0.000000e+00, 0.000000e+00, 0.000000e+00
164, 8.200900e+02, 0.000000e+00, 0.000000e+00, 0.000000e+00
165, 8.250875e+02, 0.000000e+00, 0.000000e+00, 0.000000e+00
166, 8.300850e+02, 0.000000e+00, 0.000000e+00, 0.000000e+00
167, 8.350825e+02, 0.000000e+00, 0.000000e+00, 0.000000e+00
168, 8.400800e+02, 0.000000e+00, 0.000000e+00, 0.000000e+00
169, 8.450775e+02, 0.000000e+00, 0.000000e+00, 0.000000e+00
170, 8.500750e+02, 0.000000e+00, 0.000000e+00, 0.000000e+00
171, 8.550725e+02, 0.000000e+00, 0.000000e+00, 0.000000e+00
172, 8.600700e+02, 0.000000e+00, 0.000000e+00, 0.000000e+00
173, 8.650675e+02, 0.000000e+00, 0.000000e+00, 0.000000e+00
174, 8.700650e+02, 0.000000e+00, 0.000000e+00, 0.000000e+00
175, 8.750625e+02, 0.000000e+00, 0.000000e+00, 0.000000e+00
176, 8.800600e+02, 0.000000e+00, 0.000000e+00, 0.000000e+00
177, 8.850575e+02, 0.000000e+00, 0.000000e+00, 0.000000e+00
178, 8.900550e+02, 0.000000e+00, 0.000000e+00, 0.000000e+00
179, 8.950525e+02, 0.000000e+00, 0.000000e+00, 0.000000e+00
180, 9.000500e+02, 0.000000e+00, 0.000000e+00, 0.000000e+00
181, 9.050475e+02, 0.000000e+00, 0.000000e+00, 0.000000e+00
182, 9.100450e+02, 0.000000e+00, 0.000000e+00, 0.000000e+00
183, 9.150425e+02, 0.000000e+00, 0.000000e+00, 0.000000e+00
184, 9.200400e+02, 0.000000e+00, 0.000000e+00, 0.000000e+00
185, 9.250375e+02, 0.000000e+00, 0.000000e+00, 0.000000e+00
186, 9.300350e+02, 0.000000e+00, 0.000000e+00, 0.000000e+00
187, 9.350325e+02, 0.000000e+00, 0.000000e+00, 0.000000e+00
188, 9.400300e+02, 0.000000e+00, 0.000000e+00, 0.000000e+00
189, 9.450275e+02, 0.000000e+00, 0.000000e+00, 0.000000e+00
190, 9.500250e+02, 0.000000e+00, 0.000000e+00, 0.000000e+00
191, 9.550225e+02, 0.000000e+00, 0.000000e+00, 0.000000e+00
192, 9.600200e+02, 0.000000e+00, 0.000000e+00, 0.000000e+00
193, 9.650175e+02, 0.000000e+00, 0.000000e+00, 0.000000e+00
194, 9.700150e+02, 0.000000e+00, 0.000000e+00, 0.000000e+00
195, 9.750125e+02, 0.000000e+00, 0.000000e+00, 0.000000e+00
196, 9.800100e+02, 0.000000e+00, 0.000000e+00, 0.000000e+00
197, 9.850075e+02, 0.000000e+00, 0.000000e+00, 0.000000e+00
198, 9.900050e+02, 0.000000e+00, 0.000000e+00, 0.000000e+00
199, 9.950025e+02, 0.000000e+00, 0.000000e+00, 0.000000e+00
200, 1.000000e+03, 0.000000e+00, 0.000000e+00, 0.000000e+00
