200, 0.000000e+00, 2.000000e+00
1, 1.000000e-02, 1.110110e-16, 1.109938e-16, 4.999493e-01
2, 2.000000e-02, 1.110218e-16, 1.099022e-16, 4.999976e-01
3, 3.000000e-02, 1.110221e-16, 1.087408e-16, 4.999993e-01
4, 4.000000e-02, 1.110219e-16, 1.077064e-16, 4.999984e-01
5, 5.000000e-02, 1.110220e-16, 1.066367e-16, 4.999984e-01
6, 6.000000e-02, 1.110223e-16, 1.055834e-16, 5.000000e-01
7, 7.000000e-02, 1.110209e-16, 1.045213e-16, 4.999935e-01
8, 8.000000e-02, 1.110210e-16, 1.034769e-16, 4.999942e-01
9, 9.000000e-02, 1.110198e-16, 1.024490e-16, 4.999888e-01
10, 1.000000e-01, 1.110216e-16, 1.014161e-16, 4.999969e-01
11, 1.100000e-01, 1.110187e-16, 1.003672e-16, 4.999840e-01
12, 1.200000e-01, 1.110204e-16, 9.942195e-17, 4.999915e-01
13, 1.300000e-01, 1.110211e-16, 9.841827e-17, 4.999946e-01
14, 1.400000e-01, 1.110182e-16, 9.746430e-17, 4.999815e-01
15, 1.500000e-01, 1.110213e-16, 9.645385e-17, 4.999953e-01
16, 1.600000e-01, 1.110215e-16, 9.548207e-17, 4.999966e-01
17, 1.700000e-01, 1.110192e-16, 9.455096e-17, 4.999859e-01
18, 1.800000e-01, 1.110203e-16, 9.362464e-17, 4.999909e-01
19, 1.900000e-01, 1.110206e-16, 9.270957e-17, 4.999925e-01
20, 2.000000e-01, 1.110215e-16, 9.177554e-17, 4.999962e-01
21, 2.100000e-01, 1.110214e-16, 9.084277e-17, 4.999960e-01
22, 2.200000e-01, 1.110177e-16, 8.995446e-17, 4.999793e-01
23, 2.300000e-01, 1.110217e-16, 8.902676e-17, 4.999975e-01
24, 2.400000e-01, 1.110185e-16, 8.816908e-17, 4.999828e-01
25, 2.500000e-01, 1.110219e-16, 8.725187e-17, 4.999982e-01
26, 2.600000e-01, 1.110206e-16, 8.644806e-17, 4.999922e-01
27, 2.700000e-01, 1.110192e-16, 8.559451e-17, 4.999862e-01
28, 2.800000e-01, 1.110203e-16, 8.471406e-17, 4.999909e-01
29, 2.900000e-01, 1.110218e-16, 8.387722e-17, 4.999978e-01
30, 3.000000e-01, 1.110216e-16, 8.303964e-17, 4.999970e-01
31, 3.100000e-01, 1.110221e-16, 8.218086e-17, 4.999989e-01
32, 3.200000e-01, 1.110209e-16, 8.137923e-17, 4.999937e-01
33, 3.300000e-01, 1.110219e-16, 8.057746e-17, 4.999984e-01
34, 3.400000e-01, 1.110219e-16, 7.977165e-17, 4.999981e-01
35, 3.500000e-01, 1.110222e-16, 7.898347e-17, 4.999995e-01
36, 3.600000e-01, 1.110220e-16, 7.822991e-17, 4.999988e-01
37, 3.700000e-01, 1.110220e-16, 7.742321e-17, 4.999986e-01
38, 3.800000e-01, 1.110222e-16, 7.666433e-17, 4.999997e-01
39, 3.900000e-01, 1.110216e-16, 7.585831e-17, 4.999969e-01
40, 4.000000e-01, 1.110215e-16, 7.513234e-17, 4.999965e-01
41, 4.100000e-01, 1.110216e-16, 7.439737e-17, 4.999968e-01
42, 4.200000e-01, 1.110210e-16, 7.362943e-17, 4.999943e-01
43, 4.300000e-01, 1.110205e-16, 7.291250e-17, 4.999917e-01
44, 4.400000e-01, 1.110189e-16, 7.219384e-17, 4.999848e-01
45, 4.500000e-01, 1.110200e-16, 7.147117e-17, 4.999898e-01
46, 4.600000e-01, 1.110206e-16, 7.074491e-17, 4.999923e-01
47, 4.700000e-01, 1.110222e-16, 7.006550e-17, 4.999996e-01
48, 4.800000e-01, 1.110216e-16, 6.936472e-17, 4.999967e-01
49, 4.900000e-01, 1.110213e-16, 6.869176e-17, 4.999953e-01
50, 5.000000e-01, 1.110213e-16, 6.799948e-17, 4.999955e-01
51, 5.100000e-01, 1.110213e-16, 6.730876e-17, 4.999954e-01
52, 5.200000e-01, 1.110216e-16, 6.661913e-17, 4.999970e-01
53, 5.300000e-01, 1.110220e-16, 6.600339e-17, 4.999985e-01
54, 5.400000e-01, 1.110213e-16, 6.532245e-17, 4.999955e-01
55, 5.500000e-01, 1.110219e-16, 6.467303e-17, 4.999984e-01
56, 5.600000e-01, 1.110222e-16, 6.403269e-17, 4.999997e-01
57, 5.700000e-01, 1.110219e-16, 6.340667e-17, 4.999981e-01
58, 5.800000e-01, 1.110219e-16, 6.273217e-17, 4.999981e-01
59, 5.900000e-01, 1.110216e-16, 6.212755e-17, 4.999967e-01
60, 6.000000e-01, 1.110223e-16, 6.153832e-17, 5.000000e-01
61, 6.100000e-01, 1.110206e-16, 6.089905e-17, 4.999923e-01
62, 6.200000e-01, 1.110212e-16, 6.031298e-17, 4.999949e-01
63, 6.300000e-01, 1.110191e-16, 5.970311e-17, 4.999855e-01
64, 6.400000e-01, 1.110220e-16, 5.908797e-17, 4.999985e-01
65, 6.500000e-01, 1.110217e-16, 5.852866e-17, 4.999973e-01
66, 6.600000e-01, 1.110209e-16, 5.794355e-17, 4.999938e-01
67, 6.700000e-01, 1.110196e-16, 5.735895e-17, 4.999879e-01
68, 6.800000e-01, 1.110221e-16, 5.678300e-17, 4.999992e-01
69, 6.900000e-01, 1.110217e-16, 5.622220e-17, 4.999973e-01
70, 7.000000e-01, 2.220438e-16, 1.110071e-16, 4.999982e-01
71, 7.100000e-01, 2.220404e-16, 1.102296e-16, 4.999905e-01
72, 7.200000e-01, 2.220400e-16, 1.091493e-16, 4.999896e-01
73, 7.300000e-01, 2.220431e-16, 1.080129e-16, 4.999966e-01
74, 7.400000e-01, 2.220428e-16, 1.069081e-16, 4.999959e-01
75, 7.500000e-01, 2.220418e-16, 1.059015e-16, 4.999938e-01
76, 7.600000e-01, 2.220442e-16, 1.048589e-16, 4.999991e-01
77, 7.700000e-01, 2.220416e-16, 1.038165e-16, 4.999933e-01
78, 7.800000e-01, 2.220394e-16, 1.027671e-16, 4.999883e-01
79, 7.900000e-01, 2.220435e-16, 1.017453e-16, 4.999975e-01
80, 8.000000e-01, 2.220425e-16, 1.007486e-16, 4.999953e-01
81, 8.100000e-01, 2.220431e-16, 9.973235e-17, 4.999966e-01
82, 8.200000e-01, 2.220436e-16, 9.875724e-17, 4.999976e-01
83, 8.300000e-01, 2.220434e-16, 9.778328e-17, 4.999973e-01
84, 8.400000e-01, 2.220437e-16, 9.679164e-17, 4.999979e-01
85, 8.500000e-01, 2.220420e-16, 9.583156e-17, 4.999941e-01
86, 8.600000e-01, 2.220443e-16, 9.488945e-17, 4.999992e-01
87, 8.700000e-01, 2.220440e-16, 9.392528e-17, 4.999986e-01
88, 8.800000e-01, 2.220445e-16, 9.297130e-17, 4.999997e-01
89, 8.900000e-01, 2.220385e-16, 9.204077e-17, 4.999863e-01
90, 9.000000e-01, 2.220413e-16, 9.108637e-17, 4.999926e-01
91, 9.100000e-01, 2.220437e-16, 9.022738e-17, 4.999980e-01
92, 9.200000e-01, 2.220359e-16, 8.934951e-17, 4.999805e-01
93, 9.300000e-01, 2.220439e-16, 8.844650e-17, 4.999985e-01
94, 9.400000e-01, 2.220431e-16, 8.759886e-17, 4.999965e-01
95, 9.500000e-01, 2.220422e-16, 8.670364e-17, 4.999947e-01
96, 9.600000e-01, 2.220403e-16, 8.585814e-17, 4.999904e-01
97, 9.700000e-01, 2.220316e-16, 8.499075e-17, 4.999707e-01
98, 9.800000e-01, 2.220405e-16, 8.416242e-17, 4.999907e-01
99, 9.900000e-01, 2.220390e-16, 8.331416e-17, 4.999875e-01
100, 1.000000e+00, 2.220444e-16, 8.246694e-17, 4.999996e-01
101, 1.010000e+00, 2.220445e-16, 8.167662e-17, 4.999998e-01
102, 1.020000e+00, 2.220419e-16, 8.085743e-17, 4.999938e-01
103, 1.030000e+00, 2.220423e-16, 8.003194e-17, 4.999947e-01
104, 1.040000e+00, 2.220445e-16, 7.924276e-17, 4.999998e-01
105, 1.050000e+00, 2.220437e-16, 7.847595e-17, 4.999980e-01
106, 1.060000e+00, 2.220420e-16, 7.767497e-17, 4.999941e-01
107, 1.070000e+00, 2.220397e-16, 7.691316e-17, 4.999890e-01
108, 1.080000e+00, 2.220420e-16, 7.611014e-17, 4.999942e-01
109, 1.090000e+00, 2.220421e-16, 7.538049e-17, 4.999944e-01
110, 1.100000e+00, 2.220376e-16, 7.461897e-17, 4.999843e-01
111, 1.110000e+00, 2.220436e-16, 7.389602e-17, 4.999978e-01
112, 1.120000e+00, 2.220360e-16, 7.315701e-17, 4.999806e-01
113, 1.130000e+00, 2.220430e-16, 7.243135e-17, 4.999964e-01
114, 1.140000e+00, 2.220433e-16, 7.170033e-17, 4.999970e-01
115, 1.150000e+00, 2.220438e-16, 7.097375e-17, 4.999982e-01
116, 1.160000e+00, 2.220437e-16, 7.028168e-17, 4.999980e-01
117, 1.170000e+00, 2.220400e-16, 6.956328e-17, 4.999897e-01
118, 1.180000e+00, 2.220413e-16, 6.887546e-17, 4.999925e-01
119, 1.190000e+00, 2.220441e-16, 6.820976e-17, 4.999988e-01
120, 1.200000e+00, 2.220446e-16, 6.752676e-17, 5.000000e-01
121, 1.210000e+00, 2.220438e-16, 6.687264e-17, 4.999983e-01
122, 1.220000e+00, 2.220400e-16, 6.619556e-17, 4.999896e-01
123, 1.230000e+00, 2.220417e-16, 6.550086e-17, 4.999935e-01
124, 1.240000e+00, 2.220436e-16, 6.487149e-17, 4.999978e-01
125, 1.250000e+00, 2.220438e-16, 6.425292e-17, 4.999982e-01
126, 1.260000e+00, 2.220442e-16, 6.361497e-17, 4.999990e-01
127, 1.270000e+00, 2.220441e-16, 6.295102e-17, 4.999988e-01
128, 1.280000e+00, 2.220446e-16, 6.234576e-17, 4.999999e-01
129, 1.290000e+00, 2.220390e-16, 6.169389e-17, 4.999875e-01
130, 1.300000e+00, 2.220417e-16, 6.110532e-17, 4.999934e-01
131, 1.310000e+00, 2.220442e-16, 6.049840e-17, 4.999991e-01
132, 1.320000e+00, 2.220440e-16, 5.988823e-17, 4.999985e-01
133, 1.330000e+00, 2.220411e-16, 5.928368e-17, 4.999920e-01
134, 1.340000e+00, 2.220387e-16, 5.869275e-17, 4.999866e-01
135, 1.350000e+00, 2.220425e-16, 5.809742e-17, 4.999952e-01
136, 1.360000e+00, 2.220439e-16, 5.753076e-17, 4.999985e-01
137, 1.370000e+00, 2.220360e-16, 5.697372e-17, 4.999806e-01
138, 1.380000e+00, 2.220435e-16, 5.641046e-17, 4.999976e-01
139, 1.390000e+00, 4.440887e-16, 1.109538e-16, 4.999994e-01
140, 1.400000e+00, 4.440784e-16, 1.105832e-16, 4.999879e-01
141, 1.410000e+00, 4.440885e-16, 1.094655e-16, 4.999992e-01
142, 1.420000e+00, 4.440878e-16, 1.083840e-16, 4.999984e-01
143, 1.430000e+00, 4.440799e-16, 1.072692e-16, 4.999895e-01
144, 1.440000e+00, 4.440804e-16, 1.062339e-16, 4.999901e-01
145, 1.450000e+00, 4.440883e-16, 1.051954e-16, 4.999989e-01
146, 1.460000e+00, 4.440846e-16, 1.041233e-16, 4.999948e-01
147, 1.470000e+00, 4.440788e-16, 1.031086e-16, 4.999882e-01
148, 1.480000e+00, 4.440876e-16, 1.020771e-16, 4.999981e-01
149, 1.490000e+00, 4.440862e-16, 1.010686e-16, 4.999967e-01
150, 1.500000e+00, 4.440875e-16, 1.000390e-16, 4.999980e-01
151, 1.510000e+00, 4.440795e-16, 9.902578e-17, 4.999890e-01
152, 1.520000e+00, 4.440624e-16, 9.804790e-17, 4.999698e-01
153, 1.530000e+00, 4.440875e-16, 9.710219e-17, 4.999981e-01
154, 1.540000e+00, 4.440871e-16, 9.613262e-17, 4.999976e-01
155, 1.550000e+00, 4.440887e-16, 9.514852e-17, 4.999995e-01
156, 1.560000e+00, 4.440839e-16, 9.423417e-17, 4.999941e-01
157, 1.570000e+00, 4.440830e-16, 9.329686e-17, 4.999930e-01
158, 1.580000e+00, 4.440827e-16, 9.236787e-17, 4.999927e-01
159, 1.590000e+00, 4.440796e-16, 9.146215e-17, 4.999892e-01
160, 1.600000e+00, 4.440871e-16, 9.049514e-17, 4.999976e-01
161, 1.610000e+00, 4.440887e-16, 8.963053e-17, 4.999995e-01
162, 1.620000e+00, 4.440862e-16, 8.874196e-17, 4.999966e-01
163, 1.630000e+00, 4.440828e-16, 8.783736e-17, 4.999928e-01
164, 1.640000e+00, 4.440861e-16, 8.696849e-17, 4.999965e-01
165, 1.650000e+00, 4.440802e-16, 8.610522e-17, 4.999899e-01
166, 1.660000e+00, 4.440879e-16, 8.526592e-17, 4.999986e-01
167, 1.670000e+00, 4.440827e-16, 8.441321e-17, 4.999927e-01
168, 1.680000e+00, 4.440873e-16, 8.355837e-17, 4.999979e-01
169, 1.690000e+00, 4.440850e-16, 8.272145e-17, 4.999953e-01
170, 1.700000e+00, 4.440880e-16, 8.192798e-17, 4.999987e-01
171, 1.710000e+00, 4.440844e-16, 8.111153e-17, 4.999946e-01
172, 1.720000e+00, 4.440892e-16, 8.029364e-17, 5.000000e-01
173, 1.730000e+00, 4.440821e-16, 7.950184e-17, 4.999920e-01
174, 1.740000e+00, 4.440823e-16, 7.871158e-17, 4.999922e-01
175, 1.750000e+00, 4.440780e-16, 7.791526e-17, 4.999874e-01
176, 1.760000e+00, 4.440876e-16, 7.713642e-17, 4.999981e-01
177, 1.770000e+00, 4.440816e-16, 7.636789e-17, 4.999915e-01
178, 1.780000e+00, 4.440882e-16, 7.559863e-17, 4.999988e-01
179, 1.790000e+00, 4.440822e-16, 7.486163e-17, 4.999921e-01
180, 1.800000e+00, 4.440890e-16, 7.413510e-17, 4.999997e-01
181, 1.810000e+00, 4.440778e-16, 7.338912e-17, 4.999872e-01
182, 1.820000e+00, 4.440871e-16, 7.263945e-17, 4.999977e-01
183, 1.830000e+00, 4.440836e-16, 7.190220e-17, 4.999936e-01
184, 1.840000e+00, 4.440871e-16, 7.121044e-17, 4.999976e-01
185, 1.850000e+00, 4.440860e-16, 7.051305e-17, 4.999964e-01
186, 1.860000e+00, 4.440799e-16, 6.979954e-17, 4.999895e-01
187, 1.870000e+00, 4.440887e-16, 6.912471e-17, 4.999995e-01
188, 1.880000e+00, 4.440852e-16, 6.841708e-17, 4.999955e-01
189, 1.890000e+00, 4.440884e-16, 6.774507e-17, 4.999991e-01
190, 1.900000e+00, 4.440853e-16, 6.706502e-17, 4.999956e-01
191, 1.910000e+00, 4.440853e-16, 6.640269e-17, 4.999956e-01
192, 1.920000e+00, 4.440850e-16, 6.573720e-17, 4.999953e-01
193, 1.930000e+00, 4.440892e-16, 6.508696e-17, 5.000000e-01
194, 1.940000e+00, 4.440775e-16, 6.443218e-17, 4.999868e-01
195, 1.950000e+00, 4.440866e-16, 6.378333e-17, 4.999971e-01
196, 1.960000e+00, 4.440885e-16, 6.315665e-17, 4.999992e-01
197, 1.970000e+00, 4.440876e-16, 6.254720e-17, 4.999982e-01
198, 1.980000e+00, 4.440817e-16, 6.191592e-17, 4.999916e-01
199, 1.990000e+00, 4.440846e-16, 6.130603e-17, 4.999948e-01
200, 2.000000e+00, 4.440859e-16, 6.066920e-17, 4.999963e-01
