200, 1.000000e-02, 5.000000e-01
1, 1.245000e-02, 2.453979e-16, 2.441422e-16, 1.105174e+00
2, 1.490000e-02, 2.302637e-16, 2.287960e-16, 1.037016e+00
3, 1.735000e-02, 2.661121e-16, 2.639395e-16, 1.198462e+00
4, 1.980000e-02, 2.563224e-16, 2.540724e-16, 1.154373e+00
5, 2.225000e-02, 2.471124e-16, 2.446025e-16, 1.112895e+00
6, 2.470000e-02, 2.354040e-16, 2.326886e-16, 1.060165e+00
7, 2.715000e-02, 2.312251e-16, 2.282113e-16, 1.041345e+00
8, 2.960000e-02, 2.278359e-16, 2.247266e-16, 1.026082e+00
9, 3.205000e-02, 2.671939e-16, 2.630403e-16, 1.203334e+00
10, 3.450000e-02, 2.709109e-16, 2.665500e-16, 1.220074e+00
11, 3.695000e-02, 2.585671e-16, 2.541282e-16, 1.164483e+00
12, 3.940000e-02, 2.529284e-16, 2.482785e-16, 1.139088e+00
13, 4.185000e-02, 2.459576e-16, 2.409526e-16, 1.107695e+00
14, 4.430000e-02, 2.395986e-16, 2.344061e-16, 1.079056e+00
15, 4.675000e-02, 2.417484e-16, 2.364235e-16, 1.088738e+00
16, 4.920000e-02, 2.374885e-16, 2.318988e-16, 1.069553e+00
17, 5.165000e-02, 2.320235e-16, 2.263253e-16, 1.044941e+00
18, 5.410000e-02, 2.300176e-16, 2.241031e-16, 1.035907e+00
19, 5.655000e-02, 2.261268e-16, 2.199213e-16, 1.018384e+00
20, 5.900000e-02, 2.234291e-16, 2.169930e-16, 1.006235e+00
21, 6.145000e-02, 2.189766e-16, 2.125706e-16, 9.861828e-01
22, 6.390000e-02, 2.760363e-16, 2.674282e-16, 1.243157e+00
23, 6.635000e-02, 2.729721e-16, 2.642232e-16, 1.229357e+00
24, 6.880000e-02, 2.659264e-16, 2.571868e-16, 1.197626e+00
25, 7.125000e-02, 2.599556e-16, 2.510419e-16, 1.170736e+00
26, 7.370000e-02, 2.542653e-16, 2.450771e-16, 1.145109e+00
27, 7.615000e-02, 2.535749e-16, 2.441938e-16, 1.142000e+00
28, 7.860000e-02, 2.506121e-16, 2.411479e-16, 1.128656e+00
29, 8.105000e-02, 2.474695e-16, 2.376628e-16, 1.114503e+00
30, 8.350000e-02, 2.466436e-16, 2.367665e-16, 1.110784e+00
31, 8.595000e-02, 2.424029e-16, 2.323634e-16, 1.091685e+00
32, 8.840000e-02, 2.408045e-16, 2.303947e-16, 1.084487e+00
33, 9.085000e-02, 2.386374e-16, 2.281162e-16, 1.074727e+00
34, 9.330000e-02, 2.342066e-16, 2.236514e-16, 1.054773e+00
35, 9.575000e-02, 2.344104e-16, 2.234143e-16, 1.055691e+00
36, 9.820000e-02, 2.329855e-16, 2.219090e-16, 1.049273e+00
37, 1.006500e-01, 2.319649e-16, 2.207143e-16, 1.044677e+00
38, 1.031000e-01, 2.287235e-16, 2.173537e-16, 1.030079e+00
39, 1.055500e-01, 2.271003e-16, 2.154150e-16, 1.022769e+00
40, 1.080000e-01, 2.258936e-16, 2.140818e-16, 1.017335e+00
41, 1.104500e-01, 2.257133e-16, 2.137326e-16, 1.016522e+00
42, 1.129000e-01, 2.195839e-16, 2.075874e-16, 9.889181e-01
43, 1.153500e-01, 2.227005e-16, 2.103398e-16, 1.002954e+00
44, 1.178000e-01, 2.224727e-16, 2.097889e-16, 1.001928e+00
45, 1.202500e-01, 2.190027e-16, 2.063285e-16, 9.863004e-01
46, 1.227000e-01, 2.186065e-16, 2.055529e-16, 9.845161e-01
47, 1.251500e-01, 2.739306e-16, 2.571470e-16, 1.233674e+00
48, 1.276000e-01, 2.791858e-16, 2.618903e-16, 1.257341e+00
49, 1.300500e-01, 2.787396e-16, 2.612575e-16, 1.255332e+00
50, 1.325000e-01, 2.762410e-16, 2.586462e-16, 1.244079e+00
51, 1.349500e-01, 2.740213e-16, 2.562216e-16, 1.234082e+00
52, 1.374000e-01, 2.686518e-16, 2.507482e-16, 1.209900e+00
53, 1.398500e-01, 2.650355e-16, 2.470189e-16, 1.193614e+00
54, 1.423000e-01, 2.627188e-16, 2.447593e-16, 1.183180e+00
55, 1.447500e-01, 2.581180e-16, 2.400196e-16, 1.162460e+00
56, 1.472000e-01, 2.561690e-16, 2.380387e-16, 1.153683e+00
57, 1.496500e-01, 2.535766e-16, 2.352693e-16, 1.142008e+00
58, 1.521000e-01, 2.491725e-16, 2.307725e-16, 1.122173e+00
59, 1.545500e-01, 2.470237e-16, 2.286681e-16, 1.112496e+00
60, 1.570000e-01, 2.442793e-16, 2.258812e-16, 1.100136e+00
61, 1.594500e-01, 2.422893e-16, 2.235618e-16, 1.091174e+00
62, 1.619000e-01, 2.433890e-16, 2.244734e-16, 1.096127e+00
63, 1.643500e-01, 2.408982e-16, 2.219047e-16, 1.084909e+00
64, 1.668000e-01, 2.387898e-16, 2.196583e-16, 1.075414e+00
65, 1.692500e-01, 2.392450e-16, 2.198235e-16, 1.077464e+00
66, 1.717000e-01, 2.359522e-16, 2.165011e-16, 1.062634e+00
67, 1.741500e-01, 2.353108e-16, 2.154839e-16, 1.059746e+00
68, 1.766000e-01, 2.353047e-16, 2.153358e-16, 1.059718e+00
69, 1.790500e-01, 2.341817e-16, 2.139923e-16, 1.054660e+00
70, 1.815000e-01, 2.316421e-16, 2.114504e-16, 1.043223e+00
71, 1.839500e-01, 2.310800e-16, 2.106624e-16, 1.040692e+00
72, 1.864000e-01, 2.320825e-16, 2.113590e-16, 1.045207e+00
73, 1.888500e-01, 2.306184e-16, 2.096815e-16, 1.038613e+00
74, 1.913000e-01, 2.304976e-16, 2.093280e-16, 1.038069e+00
75, 1.937500e-01, 2.262418e-16, 2.050775e-16, 1.018903e+00
76, 1.962000e-01, 2.284023e-16, 2.069696e-16, 1.028633e+00
77, 1.986500e-01, 2.263390e-16, 2.048116e-16, 1.019340e+00
78, 2.011000e-01, 2.237421e-16, 2.021624e-16, 1.007645e+00
79, 2.035500e-01, 2.258028e-16, 2.037769e-16, 1.016925e+00
80, 2.060000e-01, 2.244401e-16, 2.023419e-16, 1.010789e+00
81, 2.084500e-01, 2.235308e-16, 2.012739e-16, 1.006693e+00
82, 2.109000e-01, 2.228326e-16, 2.003751e-16, 1.003549e+00
83, 2.133500e-01, 2.225535e-16, 1.996781e-16, 1.002292e+00
84, 2.158000e-01, 2.213677e-16, 1.985151e-16, 9.969513e-01
85, 2.182500e-01, 2.196926e-16, 1.968222e-16, 9.894074e-01
86, 2.207000e-01, 2.209543e-16, 1.976043e-16, 9.950896e-01
87, 2.231500e-01, 2.202295e-16, 1.967452e-16, 9.918255e-01
88, 2.256000e-01, 2.205369e-16, 1.968067e-16, 9.932099e-01
89, 2.280500e-01, 2.192525e-16, 1.953914e-16, 9.874257e-01
90, 2.305000e-01, 2.186587e-16, 1.945537e-16, 9.847512e-01
91, 2.329500e-01, 2.164800e-16, 1.924675e-16, 9.749391e-01
92, 2.354000e-01, 2.161822e-16, 1.919336e-16, 9.735979e-01
93, 2.378500e-01, 2.167277e-16, 1.921863e-16, 9.760548e-01
94, 2.403000e-01, 2.159104e-16, 1.910976e-16, 9.723740e-01
95, 2.427500e-01, 2.156495e-16, 1.905987e-16, 9.711992e-01
96, 2.452000e-01, 2.146310e-16, 1.895390e-16, 9.666121e-01
97, 2.476500e-01, 2.144486e-16, 1.891129e-16, 9.657908e-01
98, 2.501000e-01, 2.840307e-16, 2.499929e-16, 1.279160e+00
99, 2.525500e-01, 2.857389e-16, 2.513216e-16, 1.286854e+00
100, 2.550000e-01, 2.833668e-16, 2.489679e-16, 1.276171e+00
101, 2.574500e-01, 2.830844e-16, 2.482380e-16, 1.274899e+00
102, 2.599000e-01, 2.823015e-16, 2.474820e-16, 1.271373e+00
103, 2.623500e-01, 2.814963e-16, 2.463206e-16, 1.267746e+00
104, 2.648000e-01, 2.802954e-16, 2.450343e-16, 1.262338e+00
105, 2.672500e-01, 2.802964e-16, 2.448107e-16, 1.262343e+00
106, 2.697000e-01, 2.788658e-16, 2.430848e-16, 1.255900e+00
107, 2.721500e-01, 2.774912e-16, 2.417365e-16, 1.249709e+00
108, 2.746000e-01, 2.769715e-16, 2.409474e-16, 1.247369e+00
109, 2.770500e-01, 2.760245e-16, 2.396987e-16, 1.243104e+00
110, 2.795000e-01, 2.755479e-16, 2.390743e-16, 1.240957e+00
111, 2.819500e-01, 2.749363e-16, 2.382342e-16, 1.238203e+00
112, 2.844000e-01, 2.739085e-16, 2.370227e-16, 1.233574e+00
113, 2.868500e-01, 2.723632e-16, 2.353344e-16, 1.226615e+00
114, 2.893000e-01, 2.711625e-16, 2.340208e-16, 1.221207e+00
115, 2.917500e-01, 2.712007e-16, 2.338141e-16, 1.221380e+00
116, 2.942000e-01, 2.691708e-16, 2.316605e-16, 1.212238e+00
117, 2.966500e-01, 2.676694e-16, 2.301601e-16, 1.205476e+00
118, 2.991000e-01, 2.657758e-16, 2.281842e-16, 1.196948e+00
119, 3.015500e-01, 2.651163e-16, 2.273926e-16, 1.193978e+00
120, 3.040000e-01, 2.629498e-16, 2.252158e-16, 1.184221e+00
121, 3.064500e-01, 2.604703e-16, 2.228219e-16, 1.173054e+00
122, 3.089000e-01, 2.586931e-16, 2.210066e-16, 1.165050e+00
123, 3.113500e-01, 2.587170e-16, 2.207622e-16, 1.165158e+00
124, 3.138000e-01, 2.563100e-16, 2.184493e-16, 1.154318e+00
125, 3.162500e-01, 2.557455e-16, 2.175993e-16, 1.151776e+00
126, 3.187000e-01, 2.550063e-16, 2.167403e-16, 1.148446e+00
127, 3.211500e-01, 2.515035e-16, 2.134106e-16, 1.132671e+00
128, 3.236000e-01, 2.515932e-16, 2.133449e-16, 1.133075e+00
129, 3.260500e-01, 2.483607e-16, 2.101918e-16, 1.118517e+00
130, 3.285000e-01, 2.481170e-16, 2.098010e-16, 1.117420e+00
131, 3.309500e-01, 2.479256e-16, 2.093057e-16, 1.116558e+00
132, 3.334000e-01, 2.463340e-16, 2.077098e-16, 1.109390e+00
133, 3.358500e-01, 2.450649e-16, 2.063378e-16, 1.103674e+00
134, 3.383000e-01, 2.435892e-16, 2.048243e-16, 1.097028e+00
135, 3.407500e-01, 2.409119e-16, 2.023271e-16, 1.084971e+00
136, 3.432000e-01, 2.406248e-16, 2.019441e-16, 1.083678e+00
137, 3.456500e-01, 2.395860e-16, 2.006538e-16, 1.078999e+00
138, 3.481000e-01, 2.382406e-16, 1.992075e-16, 1.072940e+00
139, 3.505500e-01, 2.374991e-16, 1.984958e-16, 1.069601e+00
140, 3.530000e-01, 2.366273e-16, 1.975506e-16, 1.065674e+00
141, 3.554500e-01, 2.354733e-16, 1.963450e-16, 1.060478e+00
142, 3.579000e-01, 2.339828e-16, 1.948080e-16, 1.053765e+00
143, 3.603500e-01, 2.333974e-16, 1.941088e-16, 1.051128e+00
144, 3.628000e-01, 2.322093e-16, 1.928732e-16, 1.045778e+00
145, 3.652500e-01, 2.307895e-16, 1.912927e-16, 1.039383e+00
146, 3.677000e-01, 2.299657e-16, 1.904465e-16, 1.035674e+00
147, 3.701500e-01, 2.295754e-16, 1.898495e-16, 1.033916e+00
148, 3.726000e-01, 2.265537e-16, 1.871160e-16, 1.020307e+00
149, 3.750500e-01, 2.273391e-16, 1.875444e-16, 1.023844e+00
150, 3.775000e-01, 2.264165e-16, 1.865029e-16, 1.019689e+00
151, 3.799500e-01, 2.250183e-16, 1.852025e-16, 1.013392e+00
152, 3.824000e-01, 2.241246e-16, 1.840048e-16, 1.009367e+00
153, 3.848500e-01, 2.237103e-16, 1.836353e-16, 1.007501e+00
154, 3.873000e-01, 2.219386e-16, 1.819335e-16, 9.995225e-01
155, 3.897500e-01, 2.208887e-16, 1.808357e-16, 9.947943e-01
156, 3.922000e-01, 2.206164e-16, 1.803383e-16, 9.935679e-01
157, 3.946500e-01, 2.191361e-16, 1.788174e-16, 9.869011e-01
158, 3.971000e-01, 2.185818e-16, 1.781042e-16, 9.844047e-01
159, 3.995500e-01, 2.178237e-16, 1.773113e-16, 9.809909e-01
160, 4.020000e-01, 2.162568e-16, 1.758606e-16, 9.739340e-01
161, 4.044500e-01, 2.158425e-16, 1.753549e-16, 9.720680e-01
162, 4.069000e-01, 2.148436e-16, 1.741359e-16, 9.675697e-01
163, 4.093500e-01, 2.145103e-16, 1.736676e-16, 9.660687e-01
164, 4.118000e-01, 2.126845e-16, 1.720233e-16, 9.578458e-01
165, 4.142500e-01, 2.126744e-16, 1.718271e-16, 9.578002e-01
166, 4.167000e-01, 2.113908e-16, 1.705469e-16, 9.520197e-01
167, 4.191500e-01, 2.110800e-16, 1.699522e-16, 9.506200e-01
168, 4.216000e-01, 2.101217e-16, 1.690455e-16, 9.463040e-01
169, 4.240500e-01, 2.109685e-16, 1.695481e-16, 9.501174e-01
170, 4.265000e-01, 2.093347e-16, 1.678921e-16, 9.427595e-01
171, 4.289500e-01, 2.093365e-16, 1.677110e-16, 9.427677e-01
172, 4.314000e-01, 2.093622e-16, 1.676265e-16, 9.428834e-01
173, 4.338500e-01, 2.090129e-16, 1.669715e-16, 9.413103e-01
174, 4.363000e-01, 2.083919e-16, 1.664037e-16, 9.385137e-01
175, 4.387500e-01, 2.081695e-16, 1.660282e-16, 9.375119e-01
176, 4.412000e-01, 2.077690e-16, 1.653600e-16, 9.357083e-01
177, 4.436500e-01, 2.065875e-16, 1.641466e-16, 9.303875e-01
178, 4.461000e-01, 2.071897e-16, 1.644162e-16, 9.330995e-01
179, 4.485500e-01, 2.075374e-16, 1.645761e-16, 9.346654e-01
180, 4.510000e-01, 2.071376e-16, 1.640946e-16, 9.328648e-01
181, 4.534500e-01, 2.054450e-16, 1.624569e-16, 9.252420e-01
182, 4.559000e-01, 2.060055e-16, 1.628042e-16, 9.277663e-01
183, 4.583500e-01, 2.061899e-16, 1.625956e-16, 9.285969e-01
184, 4.608000e-01, 2.055150e-16, 1.619268e-16, 9.255574e-01
185, 4.632500e-01, 2.050874e-16, 1.613199e-16, 9.236314e-01
186, 4.657000e-01, 2.056196e-16, 1.616197e-16, 9.260284e-01
187, 4.681500e-01, 2.050869e-16, 1.608524e-16, 9.236292e-01
188, 4.706000e-01, 2.046231e-16, 1.602925e-16, 9.215407e-01
189, 4.730500e-01, 2.044254e-16, 1.599948e-16, 9.206500e-01
190, 4.755000e-01, 2.042268e-16, 1.596447e-16, 9.197558e-01
191, 4.779500e-01, 2.033641e-16, 1.587670e-16, 9.158704e-01
192, 4.804000e-01, 2.021691e-16, 1.575968e-16, 9.104887e-01
193, 4.828500e-01, 2.035076e-16, 1.584656e-16, 9.165168e-01
194, 4.853000e-01, 2.031486e-16, 1.579826e-16, 9.149000e-01
195, 4.877500e-01, 2.024282e-16, 1.571696e-16, 9.116555e-01
196, 4.902000e-01, 2.029461e-16, 1.572759e-16, 9.139878e-01
197, 4.926500e-01, 2.032091e-16, 1.574266e-16, 9.151723e-01
198, 4.951000e-01, 2.017822e-16, 1.560405e-16, 9.087463e-01
199, 4.975500e-01, 2.027849e-16, 1.565914e-16, 9.132619e-01
200, 5.000000e-01, 2.010387e-16, 1.550810e-16, 9.053976e-01
