200, 1.000000e-02, 2.000000e+00
1, 1.995000e-02, 2.629651e-07, 6.177811e-08, 5.540641e-01
2, 2.990000e-02, 1.435936e-07, 3.801593e-08, 6.022753e-01
3, 3.985000e-02, 1.333712e-07, 4.136782e-08, 5.593993e-01
4, 4.980000e-02, 1.441630e-07, 4.623293e-08, 6.046636e-01
5, 5.975000e-02, 1.299778e-07, 4.413191e-08, 5.451666e-01
6, 6.970000e-02, 1.238084e-07, 4.645931e-08, 5.192900e-01
7, 7.965000e-02, 1.320871e-07, 5.217301e-08, 5.540135e-01
8, 8.960000e-02, 1.432760e-07, 5.910795e-08, 6.009431e-01
9, 9.954999e-02, 1.432869e-07, 6.019360e-08, 6.009887e-01
10, 1.095000e-01, 1.295192e-07, 5.779433e-08, 5.432428e-01
11, 1.194500e-01, 1.279492e-07, 5.788640e-08, 5.366576e-01
12, 1.294000e-01, 1.211409e-07, 5.920453e-08, 5.081017e-01
13, 1.393500e-01, 1.234790e-07, 6.171078e-08, 5.382117e-01
14, 1.493000e-01, 7.000575e-08, 3.679592e-08, 5.872508e-01
15, 1.592500e-01, 7.352654e-08, 3.997518e-08, 6.167853e-01
16, 1.692000e-01, 8.387087e-08, 4.699859e-08, 7.035599e-01
17, 1.791500e-01, 8.474163e-08, 4.859177e-08, 7.108643e-01
18, 1.891000e-01, 8.254631e-08, 4.858534e-08, 6.924486e-01
19, 1.990500e-01, 8.135580e-08, 4.904257e-08, 6.824619e-01
20, 2.090000e-01, 7.025605e-08, 4.431944e-08, 5.893505e-01
21, 2.189500e-01, 6.902040e-08, 4.508563e-08, 5.789850e-01
22, 2.289000e-01, 6.857459e-08, 4.520004e-08, 5.752454e-01
23, 2.388500e-01, 6.388148e-08, 4.395271e-08, 5.358767e-01
24, 2.488000e-01, 6.159663e-08, 4.337812e-08, 5.167100e-01
25, 2.587500e-01, 6.155609e-08, 4.551775e-08, 5.163699e-01
26, 2.687000e-01, 6.380606e-08, 4.843291e-08, 5.352440e-01
27, 2.786500e-01, 6.420058e-08, 5.011474e-08, 5.385535e-01
28, 2.886000e-01, 6.875135e-08, 5.510148e-08, 5.767281e-01
29, 2.985500e-01, 6.964784e-08, 5.741360e-08, 5.842484e-01
30, 3.085000e-01, 7.031318e-08, 5.957176e-08, 5.898297e-01
31, 3.184500e-01, 7.210975e-08, 6.298884e-08, 6.049004e-01
32, 3.284000e-01, 8.160430e-08, 7.305655e-08, 6.845465e-01
33, 3.383500e-01, 8.251118e-08, 7.598971e-08, 6.921540e-01
34, 3.483000e-01, 8.296108e-08, 7.779413e-08, 6.959280e-01
35, 3.582500e-01, 8.388387e-08, 8.110331e-08, 7.036689e-01
36, 3.682000e-01, 8.445096e-08, 8.321264e-08, 8.113420e-01
37, 3.781500e-01, 5.006488e-08, 5.061208e-08, 8.399492e-01
38, 3.881000e-01, 4.951241e-08, 5.115871e-08, 8.306805e-01
39, 3.980500e-01, 4.721889e-08, 4.994458e-08, 7.922015e-01
40, 4.080000e-01, 4.038428e-08, 4.479795e-08, 6.775358e-01
41, 4.179500e-01, 4.007827e-08, 4.571347e-08, 6.724018e-01
42, 4.279000e-01, 3.931389e-08, 4.585034e-08, 6.595777e-01
43, 4.378500e-01, 3.912432e-08, 4.686756e-08, 6.563971e-01
44, 4.478000e-01, 3.860936e-08, 4.681566e-08, 6.477575e-01
45, 4.577500e-01, 3.431399e-08, 4.345317e-08, 5.756932e-01
46, 4.677000e-01, 3.401460e-08, 4.452052e-08, 5.706702e-01
47, 4.776500e-01, 3.385273e-08, 4.468515e-08, 5.679545e-01
48, 4.876000e-01, 3.177704e-08, 4.373978e-08, 5.331303e-01
49, 4.975500e-01, 3.076101e-08, 4.333836e-08, 5.160841e-01
50, 5.075000e-01, 3.027648e-08, 4.459819e-08, 5.079550e-01
51, 5.174500e-01, 3.173511e-08, 4.810414e-08, 5.324267e-01
52, 5.274000e-01, 3.191033e-08, 4.973433e-08, 5.353665e-01
53, 5.373500e-01, 3.396510e-08, 5.456522e-08, 5.698398e-01
54, 5.473000e-01, 3.413550e-08, 5.645283e-08, 5.726986e-01
55, 5.572500e-01, 3.439412e-08, 5.856631e-08, 5.770375e-01
56, 5.672000e-01, 3.853547e-08, 6.791959e-08, 6.465178e-01
57, 5.771500e-01, 3.913486e-08, 7.086013e-08, 6.565739e-01
58, 5.871000e-01, 3.930180e-08, 7.331556e-08, 6.593749e-01
59, 5.970500e-01, 4.017806e-08, 7.779164e-08, 6.740760e-01
60, 6.070000e-01, 4.029457e-08, 8.034746e-08, 7.840154e-01
61, 6.169500e-01, 2.383288e-08, 4.903580e-08, 7.996986e-01
62, 6.269000e-01, 2.420126e-08, 5.172263e-08, 8.120594e-01
63, 6.368500e-01, 2.613983e-08, 5.791652e-08, 8.771072e-01
64, 6.468000e-01, 2.643602e-08, 5.898747e-08, 8.870457e-01
65, 6.567500e-01, 2.396405e-08, 5.685554e-08, 8.041001e-01
66, 6.667000e-01, 2.511392e-08, 6.186002e-08, 8.426834e-01
67, 6.766500e-01, 2.481119e-08, 6.236626e-08, 8.325254e-01
68, 6.866000e-01, 2.512588e-08, 6.626951e-08, 8.430848e-01
69, 6.965500e-01, 2.538395e-08, 6.814982e-08, 8.517440e-01
70, 7.065000e-01, 2.470059e-08, 7.006819e-08, 8.288143e-01
71, 7.164500e-01, 2.454583e-08, 7.076821e-08, 8.236214e-01
72, 7.264000e-01, 2.316875e-08, 7.224635e-08, 7.774141e-01
73, 7.363500e-01, 2.285451e-08, 7.285741e-08, 7.668700e-01
74, 7.463000e-01, 2.231656e-08, 7.614867e-08, 7.488195e-01
75, 7.562500e-01, 2.252465e-08, 7.820223e-08, 7.558018e-01
76, 7.662000e-01, 2.204491e-08, 7.935968e-08, 7.397045e-01
77, 7.761500e-01, 2.054920e-08, 7.828914e-08, 6.895168e-01
78, 7.861000e-01, 1.966563e-08, 7.817449e-08, 7.431289e-01
79, 7.960500e-01, 1.098091e-08, 4.730709e-08, 7.369165e-01
80, 8.060000e-01, 1.082327e-08, 4.947118e-08, 7.263374e-01
81, 8.159500e-01, 1.047088e-08, 5.007420e-08, 7.026888e-01
82, 8.259000e-01, 1.027184e-08, 5.243962e-08, 6.893313e-01
83, 8.358500e-01, 1.019723e-08, 5.533578e-08, 6.843247e-01
84, 8.458000e-01, 9.593468e-09, 5.635261e-08, 6.438068e-01
85, 8.557500e-01, 9.519128e-09, 5.843359e-08, 6.388179e-01
86, 8.657000e-01, 9.332836e-09, 6.231056e-08, 6.263160e-01
87, 8.756500e-01, 9.203516e-09, 6.739662e-08, 6.176375e-01
88, 8.856000e-01, 8.892113e-09, 6.771750e-08, 6.125623e-01
89, 8.955500e-01, 4.515764e-09, 4.036549e-08, 6.060956e-01
90, 9.055000e-01, 4.490043e-09, 4.418992e-08, 6.026434e-01
91, 9.154500e-01, 4.411192e-09, 4.795204e-08, 5.920602e-01
92, 9.254000e-01, 4.269658e-09, 5.284741e-08, 5.730639e-01
93, 9.353500e-01, 4.165816e-09, 6.088243e-08, 5.591264e-01
94, 9.453000e-01, 4.083481e-09, 6.284449e-08, 5.556389e-01
95, 9.552500e-01, 2.039355e-09, 4.319232e-08, 5.474352e-01
96, 9.651999e-01, 2.016799e-09, 5.470749e-08, 5.413805e-01
97, 9.751500e-01, 1.951450e-09, 6.180828e-08, 5.275249e-01
98, 9.851000e-01, 9.713236e-10, 6.018663e-08, 5.214754e-01
99, 9.950500e-01, 4.770933e-10, 5.959169e-08, 5.122751e-01
100, 1.005000e+00, 2.345311e-10, 5.960464e-08, 5.036518e-01
101, 1.014950e+00, 4.792715e-10, 5.943148e-08, 5.146138e-01
102, 1.024900e+00, 9.710224e-10, 6.102407e-08, 5.213137e-01
103, 1.034850e+00, 1.972483e-09, 6.215705e-08, 5.444069e-01
104, 1.044800e+00, 2.008176e-09, 5.655754e-08, 5.390656e-01
105, 1.054750e+00, 2.064827e-09, 4.557332e-08, 5.542728e-01
106, 1.064700e+00, 3.986790e-09, 6.378312e-08, 5.981747e-01
107, 1.074650e+00, 4.207294e-09, 6.449054e-08, 5.646934e-01
108, 1.084600e+00, 4.248808e-09, 5.786855e-08, 5.702654e-01
109, 1.094550e+00, 4.462421e-09, 5.167169e-08, 5.989360e-01
110, 1.104500e+00, 4.533702e-09, 4.874890e-08, 6.085031e-01
111, 1.114450e+00, 4.610267e-09, 4.544526e-08, 6.187795e-01
112, 1.124400e+00, 4.667806e-09, 4.188604e-08, 6.265023e-01
113, 1.134350e+00, 8.830943e-09, 7.046555e-08, 6.989665e-01
114, 1.144300e+00, 9.201598e-09, 7.074552e-08, 6.175088e-01
115, 1.154250e+00, 9.314650e-09, 6.829101e-08, 6.250956e-01
116, 1.164200e+00, 9.460889e-09, 6.421651e-08, 6.349095e-01
117, 1.174150e+00, 9.766604e-09, 6.147518e-08, 6.554257e-01
118, 1.184100e+00, 9.704736e-09, 5.965047e-08, 6.512738e-01
119, 1.194050e+00, 1.022983e-08, 5.937280e-08, 6.865120e-01
120, 1.204000e+00, 1.044409e-08, 5.886288e-08, 7.008913e-01
121, 1.213950e+00, 1.061920e-08, 5.717679e-08, 7.126424e-01
122, 1.223900e+00, 1.071163e-08, 5.398733e-08, 7.188451e-01
123, 1.233850e+00, 1.105797e-08, 5.294244e-08, 7.420881e-01
124, 1.243800e+00, 1.113232e-08, 5.120698e-08, 7.470773e-01
125, 1.253750e+00, 1.099114e-08, 5.018684e-08, 7.376027e-01
126, 1.263700e+00, 1.201401e-08, 5.191421e-08, 8.062463e-01
127, 1.273650e+00, 1.306722e-08, 5.414898e-08, 8.769265e-01
128, 1.283600e+00, 1.323141e-08, 5.392777e-08, 8.879451e-01
129, 1.293550e+00, 2.170838e-08, 8.501543e-08, 8.494518e-01
130, 1.303500e+00, 2.190368e-08, 8.458704e-08, 7.349655e-01
131, 1.313450e+00, 2.221831e-08, 8.239882e-08, 7.455229e-01
132, 1.323400e+00, 2.269243e-08, 8.293813e-08, 7.614316e-01
133, 1.333350e+00, 2.300008e-08, 8.000907e-08, 7.717546e-01
134, 1.343300e+00, 2.282331e-08, 7.825620e-08, 7.658231e-01
135, 1.353250e+00, 2.316004e-08, 7.704570e-08, 7.771219e-01
136, 1.363200e+00, 2.348250e-08, 7.586851e-08, 7.879418e-01
137, 1.373150e+00, 2.323130e-08, 7.415655e-08, 7.795131e-01
138, 1.383100e+00, 2.336766e-08, 7.351746e-08, 7.840887e-01
139, 1.393050e+00, 2.185488e-08, 6.619500e-08, 7.333280e-01
140, 1.403000e+00, 2.469431e-08, 7.318984e-08, 8.286035e-01
141, 1.412950e+00, 2.452690e-08, 7.194348e-08, 8.229863e-01
142, 1.422900e+00, 2.503089e-08, 7.235607e-08, 8.398974e-01
143, 1.432850e+00, 2.482114e-08, 7.019446e-08, 8.328591e-01
144, 1.442800e+00, 2.485661e-08, 6.800174e-08, 8.340493e-01
145, 1.452750e+00, 2.460181e-08, 6.707436e-08, 8.254997e-01
146, 1.462700e+00, 2.464780e-08, 6.541769e-08, 8.270428e-01
147, 1.472650e+00, 2.451572e-08, 6.433437e-08, 8.226109e-01
148, 1.482600e+00, 2.464467e-08, 6.273248e-08, 8.269381e-01
149, 1.492550e+00, 2.364979e-08, 5.963260e-08, 7.935554e-01
150, 1.502500e+00, 2.367890e-08, 5.901589e-08, 7.945321e-01
151, 1.512450e+00, 2.378204e-08, 5.836418e-08, 7.979930e-01
152, 1.522400e+00, 2.350901e-08, 5.668742e-08, 7.888314e-01
153, 1.532350e+00, 2.323246e-08, 5.521518e-08, 7.795519e-01
154, 1.542300e+00, 2.218468e-08, 5.177586e-08, 7.443943e-01
155, 1.552250e+00, 1.986083e-08, 4.578373e-08, 6.664188e-01
156, 1.562200e+00, 2.411936e-08, 5.441792e-08, 8.093115e-01
157, 1.572150e+00, 2.411671e-08, 5.355121e-08, 8.092225e-01
158, 1.582100e+00, 2.379662e-08, 5.245879e-08, 7.984821e-01
159, 1.592050e+00, 2.374970e-08, 5.141788e-08, 7.969078e-01
160, 1.602000e+00, 2.375744e-08, 5.076249e-08, 7.971675e-01
161, 1.611950e+00, 2.355235e-08, 4.972421e-08, 7.902858e-01
162, 1.621900e+00, 2.334541e-08, 4.863394e-08, 7.833419e-01
163, 1.631850e+00, 2.355777e-08, 4.825567e-08, 7.904675e-01
164, 1.641800e+00, 2.339431e-08, 4.751063e-08, 7.849829e-01
165, 1.651750e+00, 3.989528e-08, 7.951774e-08, 7.786002e-01
166, 1.661700e+00, 3.975859e-08, 7.911397e-08, 6.670384e-01
167, 1.671650e+00, 3.969796e-08, 7.796241e-08, 6.660213e-01
168, 1.681600e+00, 3.925616e-08, 7.629130e-08, 6.586090e-01
169, 1.691550e+00, 3.904160e-08, 7.499964e-08, 6.550094e-01
170, 1.701500e+00, 3.931364e-08, 7.444263e-08, 6.595734e-01
171, 1.711450e+00, 3.901439e-08, 7.326444e-08, 6.545529e-01
172, 1.721400e+00, 3.896047e-08, 7.219155e-08, 6.536483e-01
173, 1.731350e+00, 3.888906e-08, 7.152946e-08, 6.524501e-01
174, 1.741300e+00, 3.888953e-08, 7.038247e-08, 6.524580e-01
175, 1.751250e+00, 3.892983e-08, 6.987768e-08, 6.531342e-01
176, 1.761200e+00, 3.850605e-08, 6.848043e-08, 6.460244e-01
177, 1.771150e+00, 3.834197e-08, 6.773492e-08, 6.432716e-01
178, 1.781100e+00, 3.435224e-08, 5.988849e-08, 5.763350e-01
179, 1.791050e+00, 3.420101e-08, 5.907847e-08, 5.737977e-01
180, 1.801000e+00, 3.428895e-08, 5.880715e-08, 5.752731e-01
181, 1.810950e+00, 3.419201e-08, 5.783291e-08, 5.736467e-01
182, 1.820900e+00, 3.423593e-08, 5.748857e-08, 5.743836e-01
183, 1.830850e+00, 3.409774e-08, 5.674725e-08, 5.720651e-01
184, 1.840800e+00, 3.396103e-08, 5.600095e-08, 5.697715e-01
185, 1.850750e+00, 3.391315e-08, 5.554015e-08, 5.689682e-01
186, 1.860700e+00, 3.391017e-08, 5.496778e-08, 5.689182e-01
187, 1.870650e+00, 3.388460e-08, 5.446175e-08, 5.684892e-01
188, 1.880600e+00, 3.388034e-08, 5.407419e-08, 5.684178e-01
189, 1.890550e+00, 3.186508e-08, 5.042186e-08, 5.346073e-01
190, 1.900500e+00, 3.184053e-08, 4.996022e-08, 5.341954e-01
191, 1.910450e+00, 3.184844e-08, 4.953333e-08, 5.343282e-01
192, 1.920400e+00, 3.180125e-08, 4.908465e-08, 5.335364e-01
193, 1.930350e+00, 3.176784e-08, 4.859319e-08, 5.329759e-01
194, 1.940300e+00, 3.172338e-08, 4.820107e-08, 5.322299e-01
195, 1.950250e+00, 3.076382e-08, 4.635203e-08, 5.161313e-01
196, 1.960200e+00, 3.077938e-08, 4.604090e-08, 5.163922e-01
197, 1.970150e+00, 3.074516e-08, 4.564905e-08, 5.158182e-01
198, 1.980100e+00, 3.027162e-08, 4.462087e-08, 5.078736e-01
199, 1.990050e+00, 3.026880e-08, 4.429284e-08, 5.078262e-01
200, 2.000000e+00, 3.003653e-08, 4.363118e-08, 5.039294e-01
