1000, -3.276800e+04, 3.276700e+04
1, -3.270246e+04, 5.694996e-08, 9.287605e-08, 9.554617e-01
2, -3.263693e+04, 5.422683e-08, 8.872495e-08, 9.097752e-01
3, -3.257139e+04, 5.716195e-08, 9.357321e-08, 9.590183e-01
4, -3.250586e+04, 5.443881e-08, 8.940870e-08, 9.133318e-01
5, -3.244032e+04, 6.030905e-08, 9.914737e-08, 1.011818e+00
6, -3.237479e+04, 5.758592e-08, 9.498340e-08, 9.661315e-01
7, -3.230926e+04, 6.052104e-08, 9.987400e-08, 1.015375e+00
8, -3.224372e+04, 5.779791e-08, 9.569657e-08, 9.696881e-01
9, -3.217819e+04, 6.073303e-08, 1.006062e-07, 1.018931e+00
10, -3.211265e+04, 6.094502e-08, 1.013440e-07, 1.022488e+00
11, -3.204712e+04, 6.388014e-08, 1.062776e-07, 1.071731e+00
12, -3.198158e+04, 4.809030e-08, 8.030067e-08, 8.068213e-01
13, -3.191604e+04, 5.689566e-08, 9.514655e-08, 9.545507e-01
14, -3.185051e+04, 4.969918e-08, 8.322134e-08, 8.338140e-01
15, -3.178497e+04, 5.710765e-08, 9.587028e-08, 9.581073e-01
16, -3.171944e+04, 5.144940e-08, 8.661916e-08, 8.631776e-01
17, -3.165390e+04, 6.025475e-08, 1.015974e-07, 1.010907e+00
18, -3.158837e+04, 5.166139e-08, 8.731460e-08, 8.667342e-01
19, -3.152284e+04, 6.046674e-08, 1.023523e-07, 1.014464e+00
20, -3.145730e+04, 5.480849e-08, 9.304289e-08, 9.195339e-01
21, -3.139177e+04, 6.067873e-08, 1.031131e-07, 1.018020e+00
22, -3.132623e+04, 5.348226e-08, 9.100552e-08, 8.972834e-01
23, -3.126070e+04, 6.382584e-08, 1.089429e-07, 1.070820e+00
24, -3.119516e+04, 5.662937e-08, 9.678928e-08, 9.500832e-01
25, -3.112962e+04, 5.390624e-08, 9.245155e-08, 9.043966e-01
26, -3.106409e+04, 5.684136e-08, 9.753551e-08, 9.536397e-01
27, -3.099855e+04, 5.705335e-08, 9.828767e-08, 9.571963e-01
28, -3.093302e+04, 4.985687e-08, 8.600659e-08, 8.364595e-01
29, -3.086748e+04, 5.726534e-08, 9.904582e-08, 9.607529e-01
30, -3.080195e+04, 6.020046e-08, 1.041764e-07, 1.009996e+00
31, -3.073641e+04, 6.041244e-08, 1.049615e-07, 1.013553e+00
32, -3.067088e+04, 5.321597e-08, 9.258474e-08, 8.928159e-01
33, -3.060535e+04, 6.062443e-08, 1.057530e-07, 1.017109e+00
34, -3.053981e+04, 5.342796e-08, 9.332749e-08, 8.963724e-01
35, -3.047428e+04, 6.377154e-08, 1.117501e-07, 1.069909e+00
36, -3.040874e+04, 5.657507e-08, 9.927614e-08, 9.491722e-01
37, -3.034321e+04, 5.091682e-08, 8.961516e-08, 8.542425e-01
38, -3.027767e+04, 5.678706e-08, 1.000525e-07, 9.527287e-01
39, -3.021213e+04, 5.112881e-08, 9.035449e-08, 8.577991e-01
40, -3.014660e+04, 5.699905e-08, 1.008351e-07, 9.562853e-01
41, -3.008106e+04, 5.427592e-08, 9.635921e-08, 9.105988e-01
42, -3.001553e+04, 6.014616e-08, 1.068947e-07, 1.009085e+00
43, -2.994999e+04, 5.448791e-08, 9.713270e-08, 9.141554e-01
44, -2.988446e+04, 6.035815e-08, 1.077123e-07, 1.012642e+00
45, -2.981893e+04, 5.763501e-08, 1.032218e-07, 9.669551e-01
46, -2.975339e+04, 6.057013e-08, 1.085367e-07, 1.016198e+00
47, -2.968786e+04, 4.617719e-08, 8.297956e-08, 7.747247e-01
48, -2.962232e+04, 6.371724e-08, 1.147110e-07, 1.068998e+00
49, -2.955679e+04, 4.638918e-08, 8.370691e-08, 7.782813e-01
50, -2.949125e+04, 5.673276e-08, 1.027080e-07, 9.518178e-01
51, -2.942571e+04, 4.953629e-08, 8.980745e-08, 8.310810e-01
52, -2.936018e+04, 5.694475e-08, 1.035234e-07, 9.553743e-01
53, -2.929464e+04, 4.974828e-08, 9.056992e-08, 8.346376e-01
54, -2.922911e+04, 6.009186e-08, 1.097640e-07, 1.008174e+00
55, -2.916357e+04, 5.149849e-08, 9.430922e-08, 8.640013e-01
56, -2.909804e+04, 6.030385e-08, 1.106165e-07, 1.011731e+00
57, -2.903250e+04, 5.310737e-08, 9.755662e-08, 8.909939e-01
58, -2.896697e+04, 6.051584e-08, 1.114763e-07, 1.015287e+00
59, -2.890144e+04, 5.331936e-08, 9.836215e-08, 8.945505e-01
60, -2.883590e+04, 6.366294e-08, 1.178385e-07, 1.068087e+00
61, -2.877037e+04, 5.646647e-08, 1.046704e-07, 9.473502e-01
62, -2.870483e+04, 5.374334e-08, 9.999393e-08, 9.016636e-01
63, -2.863929e+04, 5.667846e-08, 1.055138e-07, 9.509068e-01
64, -2.857376e+04, 5.395533e-08, 1.008203e-07, 9.052202e-01
65, -2.850822e+04, 5.689045e-08, 1.063644e-07, 9.544634e-01
66, -2.844269e+04, 5.710244e-08, 1.072224e-07, 9.580199e-01
67, -2.837715e+04, 6.003756e-08, 1.127972e-07, 1.007263e+00
68, -2.831162e+04, 5.731443e-08, 1.080879e-07, 9.615765e-01
69, -2.824609e+04, 6.024955e-08, 1.136874e-07, 1.010820e+00
70, -2.818055e+04, 6.046154e-08, 1.145853e-07, 1.014376e+00
71, -2.811502e+04, 5.326506e-08, 1.010974e-07, 8.936395e-01
72, -2.804948e+04, 4.760681e-08, 9.065116e-08, 7.987098e-01
73, -2.798395e+04, 6.360864e-08, 1.211472e-07, 1.067176e+00
74, -2.791841e+04, 4.781880e-08, 9.145588e-08, 8.022664e-01
75, -2.785288e+04, 5.662416e-08, 1.084830e-07, 9.499958e-01
76, -2.778734e+04, 5.096591e-08, 9.796248e-08, 8.550661e-01
77, -2.772180e+04, 5.683615e-08, 1.093717e-07, 9.535524e-01
78, -2.765627e+04, 5.117790e-08, 9.880732e-08, 8.586227e-01
79, -2.759073e+04, 5.998326e-08, 1.160088e-07, 1.006352e+00
80, -2.752520e+04, 5.432501e-08, 1.054130e-07, 9.114224e-01
81, -2.745966e+04, 6.019525e-08, 1.169396e-07, 1.009909e+00
82, -2.739413e+04, 5.453700e-08, 1.062994e-07, 9.149790e-01
83, -2.732859e+04, 6.040724e-08, 1.178788e-07, 1.013465e+00
84, -2.726306e+04, 5.321076e-08, 1.039952e-07, 8.927285e-01
85, -2.719753e+04, 6.355435e-08, 1.246532e-07, 1.066265e+00
86, -2.713199e+04, 5.635787e-08, 1.107090e-07, 9.455282e-01
87, -2.706646e+04, 5.656986e-08, 1.116305e-07, 9.490848e-01
88, -2.700092e+04, 5.656986e-08, 1.116305e-07, 9.490848e-01
89, -2.693538e+04, 5.678185e-08, 1.125603e-07, 9.526414e-01
90, -2.686985e+04, 4.958538e-08, 9.844799e-08, 8.319046e-01
91, -2.680431e+04, 5.992896e-08, 1.194150e-07, 1.005441e+00
92, -2.673878e+04, 5.992896e-08, 1.194150e-07, 1.005441e+00
93, -2.667324e+04, 4.406845e-08, 8.806088e-08, 1.042617e+00
94, -2.660771e+04, 2.747417e-08, 5.504923e-08, 9.218802e-01
95, -2.654218e+04, 3.275195e-08, 6.589611e-08, 1.098973e+00
96, -2.647664e+04, 2.915372e-08, 5.870299e-08, 9.782365e-01
97, -2.641111e+04, 3.443150e-08, 6.961888e-08, 1.155330e+00
98, -2.634557e+04, 2.936571e-08, 5.940531e-08, 9.853496e-01
99, -2.628004e+04, 2.811014e-08, 5.711413e-08, 9.432197e-01
100, -2.621450e+04, 3.104526e-08, 6.311612e-08, 1.041706e+00
101, -2.614896e+04, 3.125725e-08, 6.384603e-08, 1.048819e+00
102, -2.608343e+04, 3.272481e-08, 6.686412e-08, 1.098062e+00
103, -2.601789e+04, 2.493588e-08, 5.118457e-08, 8.367092e-01
104, -2.595236e+04, 3.440435e-08, 7.064988e-08, 1.154419e+00
105, -2.588682e+04, 2.661543e-08, 5.490853e-08, 8.930655e-01
106, -2.582129e+04, 3.101811e-08, 6.405078e-08, 1.040795e+00
107, -2.575575e+04, 2.829498e-08, 5.867037e-08, 9.494219e-01
108, -2.569022e+04, 3.269766e-08, 6.786267e-08, 1.097151e+00
109, -2.562468e+04, 2.197361e-08, 4.579040e-08, 7.373120e-01
110, -2.555915e+04, 2.931141e-08, 6.117698e-08, 9.835277e-01
111, -2.549362e+04, 2.365316e-08, 4.954361e-08, 7.936683e-01
112, -2.542808e+04, 3.099096e-08, 6.501526e-08, 1.039884e+00
113, -2.536254e+04, 2.533271e-08, 5.333558e-08, 8.500246e-01
114, -2.529701e+04, 3.267051e-08, 6.889324e-08, 1.096240e+00
115, -2.523147e+04, 2.400647e-08, 5.069119e-08, 8.055236e-01
116, -2.516594e+04, 2.928426e-08, 6.210566e-08, 9.826167e-01
117, -2.510040e+04, 2.568602e-08, 5.452003e-08, 8.618799e-01
118, -2.503487e+04, 3.096381e-08, 6.601099e-08, 1.038973e+00
119, -2.496933e+04, 2.736557e-08, 5.838894e-08, 9.182362e-01
120, -2.490380e+04, 3.264336e-08, 6.995738e-08, 1.095329e+00
121, -2.483827e+04, 2.904512e-08, 6.229856e-08, 9.745925e-01
122, -2.477273e+04, 2.925711e-08, 6.306477e-08, 9.817057e-01
123, -2.470720e+04, 2.565887e-08, 5.535555e-08, 8.609689e-01
124, -2.464166e+04, 3.093666e-08, 6.703953e-08, 1.038062e+00
125, -2.457612e+04, 2.733842e-08, 5.929270e-08, 9.173252e-01
126, -2.451059e+04, 3.261621e-08, 7.105677e-08, 1.094418e+00
127, -2.444505e+04, 2.901797e-08, 6.327195e-08, 9.736815e-01
128, -2.437952e+04, 2.776240e-08, 6.081979e-08, 9.315516e-01
129, -2.431398e+04, 2.922996e-08, 6.405583e-08, 9.807947e-01
130, -2.424845e+04, 2.944195e-08, 6.484767e-08, 9.879079e-01
131, -2.418291e+04, 3.090951e-08, 6.810252e-08, 1.037151e+00
132, -2.411738e+04, 3.112150e-08, 6.891930e-08, 1.044264e+00
133, -2.405184e+04, 3.258906e-08, 7.219319e-08, 1.093507e+00
134, -2.398631e+04, 2.480013e-08, 5.521351e-08, 8.321543e-01
135, -2.392077e+04, 2.920281e-08, 6.508048e-08, 9.798837e-01
136, -2.385524e+04, 2.647968e-08, 5.927644e-08, 8.885106e-01
137, -2.378970e+04, 3.088236e-08, 6.920173e-08, 1.036240e+00
138, -2.372417e+04, 2.815923e-08, 6.338424e-08, 9.448669e-01
139, -2.365863e+04, 3.256191e-08, 7.336854e-08, 1.092596e+00
140, -2.359310e+04, 2.183786e-08, 4.942194e-08, 7.327570e-01
141, -2.352756e+04, 2.917566e-08, 6.614044e-08, 9.789727e-01
142, -2.346203e+04, 2.351741e-08, 5.352006e-08, 7.891133e-01
143, -2.339649e+04, 3.085521e-08, 7.033903e-08, 1.035329e+00
144, -2.333096e+04, 2.666452e-08, 6.104367e-08, 8.947128e-01
145, -2.326543e+04, 3.253476e-08, 7.458484e-08, 1.091685e+00
146, -2.319989e+04, 2.387073e-08, 5.480282e-08, 8.009686e-01
147, -2.313436e+04, 3.061607e-08, 7.064723e-08, 1.027305e+00
148, -2.306882e+04, 2.555027e-08, 5.899093e-08, 8.573249e-01
149, -2.300329e+04, 3.082806e-08, 7.151645e-08, 1.034418e+00
150, -2.293775e+04, 2.722982e-08, 6.322675e-08, 9.136812e-01
151, -2.287221e+04, 3.250761e-08, 7.584430e-08, 1.090774e+00
152, -2.280668e+04, 2.890937e-08, 6.751109e-08, 9.700376e-01
153, -2.274114e+04, 2.912136e-08, 6.837386e-08, 9.771507e-01
154, -2.267561e+04, 3.058892e-08, 7.184480e-08, 1.026394e+00
155, -2.261007e+04, 3.080091e-08, 7.273613e-08, 1.033507e+00
156, -2.254454e+04, 2.720267e-08, 6.429862e-08, 9.127703e-01
157, -2.247900e+04, 3.248046e-08, 7.714923e-08, 1.089863e+00
158, -2.241347e+04, 2.888222e-08, 6.866665e-08, 9.691266e-01
159, -2.234793e+04, 2.762665e-08, 6.601952e-08, 9.269966e-01
160, -2.228240e+04, 3.056177e-08, 7.308591e-08, 1.025483e+00
161, -2.221686e+04, 2.930620e-08, 7.044605e-08, 9.833529e-01
162, -2.215133e+04, 3.077376e-08, 7.400041e-08, 1.032596e+00
163, -2.208579e+04, 3.098575e-08, 7.492509e-08, 1.039709e+00
164, -2.202026e+04, 3.245331e-08, 7.850215e-08, 1.088952e+00
165, -2.195472e+04, 2.466438e-08, 5.998733e-08, 8.275993e-01
166, -2.188919e+04, 3.053462e-08, 7.437298e-08, 1.024572e+00
167, -2.182365e+04, 2.634393e-08, 6.445675e-08, 8.839557e-01
168, -2.175812e+04, 3.074661e-08, 7.531176e-08, 1.031685e+00
169, -2.169258e+04, 2.802348e-08, 6.898013e-08, 9.403120e-01
170, -2.162705e+04, 3.242616e-08, 7.990576e-08, 1.088041e+00
171, -2.156152e+04, 2.316967e-08, 5.739215e-08, 7.774452e-01
172, -2.149598e+04, 3.050747e-08, 7.570860e-08, 1.023661e+00
173, -2.143045e+04, 2.484922e-08, 6.192871e-08, 8.338015e-01
174, -2.136491e+04, 3.071946e-08, 7.667288e-08, 1.030774e+00
175, -2.129938e+04, 2.352299e-08, 5.882662e-08, 7.893005e-01
176, -2.123384e+04, 3.239901e-08, 8.136296e-08, 1.087130e+00
177, -2.116830e+04, 2.020740e-08, 5.097653e-08, 6.780480e-01
178, -2.110277e+04, 3.048032e-08, 7.709559e-08, 1.022750e+00
179, -2.103723e+04, 2.188695e-08, 5.555723e-08, 7.344043e-01
180, -2.097170e+04, 3.069231e-08, 7.808664e-08, 1.029863e+00
181, -2.090616e+04, 2.349584e-08, 5.989738e-08, 7.883895e-01
182, -2.084063e+04, 3.237186e-08, 8.287687e-08, 1.086219e+00
183, -2.077509e+04, 2.370783e-08, 6.079472e-08, 7.955027e-01
184, -2.070956e+04, 3.045317e-08, 7.853696e-08, 1.021839e+00
185, -2.064402e+04, 2.538738e-08, 6.551369e-08, 8.518590e-01
186, -2.057849e+04, 3.066516e-08, 7.955617e-08, 1.028952e+00
187, -2.051295e+04, 2.706693e-08, 7.029278e-08, 9.082153e-01
188, -2.044742e+04, 3.234471e-08, 8.445088e-08, 1.085308e+00
189, -2.038188e+04, 2.874647e-08, 7.513315e-08, 9.645716e-01
190, -2.031635e+04, 2.749090e-08, 7.225817e-08, 9.224417e-01
191, -2.025081e+04, 3.042602e-08, 8.003597e-08, 1.020928e+00
192, -2.018528e+04, 2.917045e-08, 7.717027e-08, 9.787980e-01
193, -2.011974e+04, 3.063801e-08, 8.108482e-08, 1.028041e+00
194, -2.005421e+04, 3.085000e-08, 8.214653e-08, 1.035154e+00
195, -1.998867e+04, 3.231756e-08, 8.608864e-08, 1.084397e+00
196, -1.992314e+04, 2.452863e-08, 6.573365e-08, 8.230444e-01
197, -1.985761e+04, 3.039887e-08, 8.159616e-08, 1.020017e+00
198, -1.979207e+04, 2.620818e-08, 7.069933e-08, 8.794007e-01
199, -1.972654e+04, 3.061086e-08, 8.267624e-08, 1.027130e+00
200, -1.966100e+04, 2.135438e-08, 5.800411e-08, 7.165340e-01
201, -1.959546e+04, 3.229041e-08, 8.779409e-08, 1.083486e+00
202, -1.952993e+04, 2.303393e-08, 6.298583e-08, 7.728903e-01
203, -1.946439e+04, 3.037172e-08, 8.322134e-08, 1.019106e+00
204, -1.939886e+04, 2.471347e-08, 6.803483e-08, 8.292466e-01
205, -1.933332e+04, 3.058371e-08, 8.433438e-08, 1.026219e+00
206, -1.926779e+04, 2.338724e-08, 6.463030e-08, 7.847456e-01
207, -1.920225e+04, 3.226326e-08, 8.957153e-08, 1.082575e+00
208, -1.913672e+04, 2.007166e-08, 5.600381e-08, 6.734930e-01
209, -1.907118e+04, 3.034457e-08, 8.491566e-08, 1.018195e+00
210, -1.900565e+04, 2.175120e-08, 6.110827e-08, 7.298493e-01
211, -1.894011e+04, 3.055656e-08, 8.606352e-08, 1.025308e+00
212, -1.887458e+04, 2.336009e-08, 6.594048e-08, 7.838346e-01
213, -1.880904e+04, 3.223611e-08, 9.142561e-08, 1.081664e+00
214, -1.874351e+04, 2.503964e-08, 7.117426e-08, 8.401909e-01
215, -1.867797e+04, 3.031742e-08, 8.668363e-08, 1.017284e+00
216, -1.861244e+04, 2.525163e-08, 7.224978e-08, 8.473041e-01
217, -1.854690e+04, 3.052941e-08, 8.786832e-08, 1.024397e+00
218, -1.848137e+04, 2.693118e-08, 7.759987e-08, 9.036604e-01
219, -1.841583e+04, 3.220896e-08, 9.336139e-08, 1.080753e+00
220, -1.835030e+04, 2.861073e-08, 8.302611e-08, 9.600167e-01
221, -1.828477e+04, 2.735516e-08, 7.988167e-08, 9.178867e-01
222, -1.821923e+04, 3.029027e-08, 8.853016e-08, 1.016373e+00
223, -1.815370e+04, 2.903470e-08, 8.539789e-08, 9.742430e-01
224, -1.808816e+04, 3.050226e-08, 8.975387e-08, 1.023486e+00
225, -1.802262e+04, 2.418090e-08, 7.165838e-08, 8.113763e-01
226, -1.795709e+04, 3.218181e-08, 9.538440e-08, 1.079842e+00
227, -1.789155e+04, 2.586045e-08, 7.719671e-08, 8.677326e-01
228, -1.782602e+04, 3.026313e-08, 9.046060e-08, 1.015462e+00
229, -1.776048e+04, 2.753999e-08, 8.281673e-08, 9.240889e-01
230, -1.769495e+04, 3.047511e-08, 9.172569e-08, 1.022575e+00
231, -1.762941e+04, 2.121863e-08, 6.427066e-08, 7.119790e-01
232, -1.756388e+04, 2.855643e-08, 8.669332e-08, 9.581947e-01
233, -1.749834e+04, 2.289818e-08, 6.987710e-08, 7.683353e-01
234, -1.743281e+04, 3.023598e-08, 9.248082e-08, 1.014551e+00
235, -1.736727e+04, 2.457773e-08, 7.556810e-08, 8.246916e-01
236, -1.730174e+04, 3.044796e-08, 9.378986e-08, 1.021664e+00
237, -1.723620e+04, 2.325149e-08, 7.179624e-08, 7.801906e-01
238, -1.717067e+04, 2.852928e-08, 8.865686e-08, 9.572837e-01
239, -1.710513e+04, 2.493104e-08, 7.756985e-08, 8.365469e-01
240, -1.703960e+04, 3.020883e-08, 9.459721e-08, 1.013640e+00
241, -1.697406e+04, 2.161546e-08, 6.798652e-08, 7.252944e-01
242, -1.690853e+04, 3.042082e-08, 9.595301e-08, 1.020753e+00
243, -1.684299e+04, 2.322434e-08, 7.343612e-08, 7.792796e-01
244, -1.677746e+04, 2.850213e-08, 9.071542e-08, 9.563727e-01
245, -1.671192e+04, 2.490389e-08, 7.936241e-08, 8.356359e-01
246, -1.664639e+04, 3.018168e-08, 9.681681e-08, 1.012729e+00
247, -1.658086e+04, 2.511588e-08, 8.062970e-08, 8.427491e-01
248, -1.651532e+04, 3.039367e-08, 9.822244e-08, 1.019842e+00
249, -1.644979e+04, 2.679543e-08, 8.670428e-08, 8.991054e-01
250, -1.638425e+04, 2.606387e-08, 8.494437e-08, 8.745584e-01
251, -1.631871e+04, 2.847498e-08, 9.287605e-08, 9.554617e-01
252, -1.625318e+04, 2.721941e-08, 8.940870e-08, 9.133318e-01
253, -1.618764e+04, 3.015453e-08, 9.914737e-08, 1.011818e+00
254, -1.612211e+04, 2.889896e-08, 9.569657e-08, 9.696881e-01
255, -1.605657e+04, 3.036652e-08, 1.006062e-07, 1.018931e+00
256, -1.599104e+04, 2.404515e-08, 8.030067e-08, 8.068213e-01
257, -1.592550e+04, 2.844783e-08, 9.514655e-08, 9.545507e-01
258, -1.585997e+04, 2.572470e-08, 8.661916e-08, 8.631776e-01
259, -1.579443e+04, 3.012738e-08, 1.015974e-07, 1.010907e+00
260, -1.572890e+04, 2.740425e-08, 9.304289e-08, 9.195339e-01
261, -1.566336e+04, 3.033937e-08, 1.031131e-07, 1.018020e+00
262, -1.559783e+04, 2.108288e-08, 7.216780e-08, 7.074241e-01
263, -1.553229e+04, 2.842068e-08, 9.753551e-08, 9.536397e-01
264, -1.546676e+04, 2.276243e-08, 7.857670e-08, 7.637804e-01
265, -1.540122e+04, 3.010023e-08, 1.041764e-07, 1.009996e+00
266, -1.533569e+04, 2.444198e-08, 8.509506e-08, 8.201367e-01
267, -1.527015e+04, 3.031222e-08, 1.057530e-07, 1.017109e+00
268, -1.520462e+04, 2.311574e-08, 8.086784e-08, 7.756357e-01
269, -1.513908e+04, 2.839353e-08, 1.000525e-07, 9.527287e-01
270, -1.507355e+04, 2.479529e-08, 8.749430e-08, 8.319920e-01
271, -1.500801e+04, 3.007308e-08, 1.068947e-07, 1.009085e+00
272, -1.494248e+04, 2.294727e-08, 8.201907e-08, 7.699826e-01
273, -1.487694e+04, 3.028507e-08, 1.085367e-07, 1.016198e+00
274, -1.481141e+04, 2.308859e-08, 8.297956e-08, 7.747247e-01
275, -1.474587e+04, 2.836638e-08, 1.027080e-07, 9.518178e-01
276, -1.468034e+04, 2.476814e-08, 8.980745e-08, 8.310810e-01
277, -1.461480e+04, 3.004593e-08, 1.097640e-07, 1.008174e+00
278, -1.454927e+04, 2.498013e-08, 9.133881e-08, 8.381942e-01
279, -1.448373e+04, 3.025792e-08, 1.114763e-07, 1.015287e+00
280, -1.441820e+04, 2.665968e-08, 9.836215e-08, 8.945505e-01
281, -1.435266e+04, 2.687167e-08, 9.999393e-08, 9.016636e-01
282, -1.428713e+04, 2.833923e-08, 1.055138e-07, 9.509068e-01
283, -1.422159e+04, 2.855122e-08, 1.072224e-07, 9.580199e-01
284, -1.415606e+04, 3.001878e-08, 1.127972e-07, 1.007263e+00
285, -1.409052e+04, 3.023077e-08, 1.145853e-07, 1.014376e+00
286, -1.402499e+04, 2.663253e-08, 1.010974e-07, 8.936395e-01
287, -1.395945e+04, 2.390940e-08, 9.145588e-08, 8.022664e-01
288, -1.389392e+04, 2.831208e-08, 1.084830e-07, 9.499958e-01
289, -1.382838e+04, 2.558895e-08, 9.880732e-08, 8.586227e-01
290, -1.376285e+04, 2.999163e-08, 1.160088e-07, 1.006352e+00
291, -1.369731e+04, 2.726850e-08, 1.062994e-07, 9.149790e-01
292, -1.363178e+04, 3.020362e-08, 1.178788e-07, 1.013465e+00
293, -1.356624e+04, 2.094713e-08, 8.242717e-08, 7.028691e-01
294, -1.350071e+04, 2.828493e-08, 1.116305e-07, 9.490848e-01
295, -1.343517e+04, 2.262668e-08, 8.990392e-08, 7.592254e-01
296, -1.336964e+04, 2.996448e-08, 1.194150e-07, 1.005441e+00
297, -1.330410e+04, 2.203423e-08, 8.806088e-08, 9.218802e-01
298, -1.323857e+04, 1.637598e-08, 6.589611e-08, 1.098973e+00
299, -1.317303e+04, 1.468285e-08, 5.940531e-08, 9.853496e-01
300, -1.310750e+04, 1.372351e-08, 5.584542e-08, 9.209692e-01
301, -1.304196e+04, 1.636240e-08, 6.686412e-08, 1.098062e+00
302, -1.297643e+04, 1.466928e-08, 6.027731e-08, 9.844386e-01
303, -1.291089e+04, 1.370994e-08, 5.666662e-08, 9.200582e-01
304, -1.284536e+04, 1.634883e-08, 6.786267e-08, 1.097151e+00
305, -1.277982e+04, 1.465570e-08, 6.117698e-08, 9.835277e-01
306, -1.271429e+04, 1.369636e-08, 5.751404e-08, 9.191472e-01
307, -1.264875e+04, 1.633525e-08, 6.889324e-08, 1.096240e+00
308, -1.258322e+04, 1.464213e-08, 6.210566e-08, 9.826167e-01
309, -1.251768e+04, 1.294901e-08, 5.524001e-08, 8.689931e-01
310, -1.245215e+04, 1.632168e-08, 6.995738e-08, 1.095329e+00
311, -1.238661e+04, 1.462855e-08, 6.306477e-08, 9.817057e-01
312, -1.232108e+04, 1.220165e-08, 5.289252e-08, 8.188389e-01
313, -1.225554e+04, 1.630810e-08, 7.105677e-08, 1.094418e+00
314, -1.219001e+04, 1.388120e-08, 6.081979e-08, 9.315516e-01
315, -1.212447e+04, 1.461498e-08, 6.405583e-08, 9.807947e-01
316, -1.205894e+04, 1.556075e-08, 6.891930e-08, 1.044264e+00
317, -1.199340e+04, 1.629453e-08, 7.219319e-08, 1.093507e+00
318, -1.192787e+04, 1.460140e-08, 6.508048e-08, 9.798837e-01
319, -1.186233e+04, 1.407961e-08, 6.338424e-08, 9.448669e-01
320, -1.179680e+04, 1.628095e-08, 7.336854e-08, 1.092596e+00
321, -1.173126e+04, 1.458783e-08, 6.614044e-08, 9.789727e-01
322, -1.166573e+04, 1.362849e-08, 6.219206e-08, 9.145922e-01
323, -1.160019e+04, 1.626738e-08, 7.458484e-08, 1.091685e+00
324, -1.153466e+04, 1.530804e-08, 7.064723e-08, 1.027305e+00
325, -1.146912e+04, 1.361491e-08, 6.322675e-08, 9.136812e-01
326, -1.140359e+04, 1.625380e-08, 7.584430e-08, 1.090774e+00
327, -1.133805e+04, 1.529446e-08, 7.184480e-08, 1.026394e+00
328, -1.127252e+04, 1.360134e-08, 6.429862e-08, 9.127703e-01
329, -1.120698e+04, 1.624023e-08, 7.714923e-08, 1.089863e+00
330, -1.114145e+04, 1.528089e-08, 7.308591e-08, 1.025483e+00
331, -1.107591e+04, 1.358776e-08, 6.540972e-08, 9.118593e-01
332, -1.101038e+04, 1.622665e-08, 7.850215e-08, 1.088952e+00
333, -1.094484e+04, 1.526731e-08, 7.437298e-08, 1.024572e+00
334, -1.087931e+04, 1.357419e-08, 6.656223e-08, 9.109483e-01
335, -1.081377e+04, 1.621308e-08, 7.990576e-08, 1.088041e+00
336, -1.074824e+04, 1.525374e-08, 7.570860e-08, 1.023661e+00
337, -1.068270e+04, 1.356061e-08, 6.775851e-08, 9.100373e-01
338, -1.061717e+04, 1.619950e-08, 8.136296e-08, 1.087130e+00
339, -1.055163e+04, 1.524016e-08, 7.709559e-08, 1.022750e+00
340, -1.048610e+04, 1.354704e-08, 6.900112e-08, 9.091263e-01
341, -1.042056e+04, 1.618593e-08, 8.287687e-08, 1.086219e+00
342, -1.035503e+04, 1.522659e-08, 7.853696e-08, 1.021839e+00
343, -1.028949e+04, 1.522659e-08, 7.853696e-08, 1.021839e+00
344, -1.022396e+04, 1.617236e-08, 8.445088e-08, 1.085308e+00
345, -1.015842e+04, 1.374545e-08, 7.225817e-08, 9.224417e-01
346, -1.009289e+04, 1.521301e-08, 8.003597e-08, 1.020928e+00
347, -1.002735e+04, 1.542500e-08, 8.214653e-08, 1.035154e+00
348, -9.961818e+03, 1.615878e-08, 8.608864e-08, 1.084397e+00
349, -9.896283e+03, 1.519944e-08, 8.159616e-08, 1.020017e+00
350, -9.830748e+03, 1.467765e-08, 7.974887e-08, 9.850001e-01
351, -9.765213e+03, 1.614521e-08, 8.779409e-08, 1.083486e+00
352, -9.699680e+03, 1.518586e-08, 8.322134e-08, 1.019106e+00
353, -9.634145e+03, 1.349274e-08, 7.449303e-08, 9.054823e-01
354, -9.568609e+03, 1.613163e-08, 8.957153e-08, 1.082575e+00
355, -9.503074e+03, 1.517229e-08, 8.491566e-08, 1.018195e+00
356, -9.437539e+03, 1.347916e-08, 7.601315e-08, 9.045713e-01
357, -9.372004e+03, 1.611806e-08, 9.142561e-08, 1.081664e+00
358, -9.306469e+03, 1.515871e-08, 8.668363e-08, 1.017284e+00
359, -9.240934e+03, 1.346559e-08, 7.759987e-08, 9.036604e-01
360, -9.175398e+03, 1.610448e-08, 9.336139e-08, 1.080753e+00
361, -9.109863e+03, 1.514514e-08, 8.853016e-08, 1.016373e+00
362, -9.044328e+03, 1.345201e-08, 7.925764e-08, 9.027494e-01
363, -8.978793e+03, 1.609091e-08, 9.538440e-08, 1.079842e+00
364, -8.913258e+03, 1.513156e-08, 9.046060e-08, 1.015462e+00
365, -8.847725e+03, 1.343844e-08, 8.099137e-08, 9.018384e-01
366, -8.782189e+03, 1.247910e-08, 7.586012e-08, 8.374579e-01
367, -8.716654e+03, 1.511799e-08, 9.248082e-08, 1.014551e+00
368, -8.651119e+03, 1.342486e-08, 8.280638e-08, 9.009274e-01
369, -8.585584e+03, 1.173174e-08, 7.296971e-08, 7.873038e-01
370, -8.520049e+03, 1.510441e-08, 9.459721e-08, 1.013640e+00
371, -8.454514e+03, 1.341129e-08, 8.470854e-08, 9.000164e-01
372, -8.388979e+03, 1.301836e-08, 8.280447e-08, 8.736474e-01
373, -8.323443e+03, 1.509084e-08, 9.681681e-08, 1.012729e+00
374, -8.257908e+03, 1.266393e-08, 8.191587e-08, 8.498623e-01
375, -8.192373e+03, 1.339771e-08, 8.670428e-08, 8.991054e-01
376, -8.126838e+03, 1.434348e-08, 9.427564e-08, 9.625749e-01
377, -8.061303e+03, 1.507726e-08, 9.914737e-08, 1.011818e+00
378, -7.995770e+03, 1.338414e-08, 8.880067e-08, 8.981944e-01
379, -7.930234e+03, 1.304551e-08, 8.719299e-08, 8.754694e-01
380, -7.864699e+03, 1.506369e-08, 1.015974e-07, 1.010907e+00
381, -7.799164e+03, 1.337057e-08, 9.100552e-08, 8.972834e-01
382, -7.733629e+03, 1.305908e-08, 8.955884e-08, 8.763804e-01
383, -7.668094e+03, 1.505011e-08, 1.041764e-07, 1.009996e+00
384, -7.602559e+03, 1.335699e-08, 9.332749e-08, 8.963724e-01
385, -7.537023e+03, 1.307266e-08, 9.205132e-08, 8.772913e-01
386, -7.471488e+03, 1.503654e-08, 1.068947e-07, 1.009085e+00
387, -7.405953e+03, 1.334342e-08, 9.577614e-08, 8.954615e-01
388, -7.340418e+03, 1.308623e-08, 9.468088e-08, 8.782023e-01
389, -7.274883e+03, 1.502296e-08, 1.097640e-07, 1.008174e+00
390, -7.209348e+03, 1.332984e-08, 9.836215e-08, 8.945505e-01
391, -7.143814e+03, 1.309981e-08, 9.745916e-08, 8.791133e-01
392, -7.078279e+03, 1.500939e-08, 1.127972e-07, 1.007263e+00
393, -7.012744e+03, 1.331627e-08, 1.010974e-07, 8.936395e-01
394, -6.947209e+03, 1.311338e-08, 1.003991e-07, 8.800243e-01
395, -6.881674e+03, 1.499581e-08, 1.160088e-07, 1.006352e+00
396, -6.816139e+03, 1.330269e-08, 1.039952e-07, 8.927285e-01
397, -6.750604e+03, 1.312696e-08, 1.035153e-07, 8.809353e-01
398, -6.685068e+03, 1.498224e-08, 1.194150e-07, 1.005441e+00
399, -6.619533e+03, 1.101711e-08, 8.806088e-08, 9.218802e-01
400, -6.553998e+03, 5.542309e-09, 4.491868e-08, 7.438761e-01
401, -6.488463e+03, 8.181201e-09, 6.686412e-08, 1.098062e+00
402, -6.422928e+03, 6.854968e-09, 5.666662e-08, 9.200582e-01
403, -6.357393e+03, 5.528734e-09, 4.631276e-08, 7.420541e-01
404, -6.291859e+03, 8.167626e-09, 6.889324e-08, 1.096240e+00
405, -6.226324e+03, 6.841393e-09, 5.838894e-08, 9.182362e-01
406, -6.160789e+03, 5.994831e-09, 5.145986e-08, 8.046126e-01
407, -6.095254e+03, 8.154052e-09, 7.105677e-08, 1.094418e+00
408, -6.029719e+03, 7.307490e-09, 6.405583e-08, 9.807947e-01
409, -5.964184e+03, 5.981256e-09, 5.307496e-08, 8.027906e-01
410, -5.898648e+03, 8.140477e-09, 7.336854e-08, 1.092596e+00
411, -5.833113e+03, 7.293915e-09, 6.614044e-08, 9.789727e-01
412, -5.767578e+03, 5.967681e-09, 5.480282e-08, 8.009686e-01
413, -5.702043e+03, 8.126902e-09, 7.584430e-08, 1.090774e+00
414, -5.636508e+03, 7.647230e-09, 7.184480e-08, 1.026394e+00
415, -5.570973e+03, 5.954107e-09, 5.665565e-08, 7.991467e-01
416, -5.505438e+03, 8.113327e-09, 7.850215e-08, 1.088952e+00
417, -5.439904e+03, 7.633655e-09, 7.437298e-08, 1.024572e+00
418, -5.374369e+03, 5.940532e-09, 5.864753e-08, 7.973247e-01
419, -5.308834e+03, 8.099752e-09, 8.136296e-08, 1.087130e+00
420, -5.243299e+03, 7.620081e-09, 7.709559e-08, 1.022750e+00
421, -5.177764e+03, 6.773519e-09, 6.900112e-08, 9.091263e-01
422, -5.112229e+03, 8.086178e-09, 8.445088e-08, 1.085308e+00
423, -5.046693e+03, 7.606506e-09, 8.003597e-08, 1.020928e+00
424, -4.981158e+03, 6.759944e-09, 7.163648e-08, 9.073043e-01
425, -4.915623e+03, 7.338823e-09, 7.974887e-08, 9.850001e-01
426, -4.850088e+03, 8.072603e-09, 8.779409e-08, 1.083486e+00
427, -4.784553e+03, 6.746369e-09, 7.449303e-08, 9.054823e-01
428, -4.719018e+03, 5.628681e-09, 6.339672e-08, 7.554688e-01
429, -4.653484e+03, 8.059028e-09, 9.142561e-08, 1.081664e+00
430, -4.587949e+03, 6.732794e-09, 7.759987e-08, 9.036604e-01
431, -4.522414e+03, 5.642256e-09, 6.639177e-08, 7.572908e-01
432, -4.456879e+03, 8.045453e-09, 9.538440e-08, 1.079842e+00
433, -4.391344e+03, 6.719220e-09, 8.099137e-08, 9.018384e-01
434, -4.325809e+03, 5.655831e-09, 6.966727e-08, 7.591128e-01
435, -4.260273e+03, 7.552207e-09, 9.459721e-08, 1.013640e+00
436, -4.194738e+03, 6.705645e-09, 8.470854e-08, 9.000164e-01
437, -4.129203e+03, 6.225973e-09, 7.936241e-08, 8.356359e-01
438, -4.063668e+03, 7.171742e-09, 9.427564e-08, 9.625749e-01
439, -3.998133e+03, 7.538632e-09, 9.914737e-08, 1.011818e+00
440, -3.932598e+03, 6.212398e-09, 8.322134e-08, 8.338140e-01
441, -3.867062e+03, 6.529542e-09, 8.955884e-08, 8.763804e-01
442, -3.801529e+03, 7.525057e-09, 1.041764e-07, 1.009996e+00
443, -3.735994e+03, 6.198823e-09, 8.749430e-08, 8.319920e-01
444, -3.670459e+03, 6.543117e-09, 9.468088e-08, 8.782023e-01
445, -3.604924e+03, 7.511482e-09, 1.097640e-07, 1.008174e+00
446, -3.539389e+03, 6.185248e-09, 9.225172e-08, 8.301700e-01
447, -3.473854e+03, 6.556692e-09, 1.003991e-07, 8.800243e-01
448, -3.408318e+03, 7.497907e-09, 1.160088e-07, 1.006352e+00
449, -3.342783e+03, 6.171674e-09, 9.758093e-08, 8.283480e-01
450, -3.277248e+03, 5.508557e-09, 8.806088e-08, 9.218802e-01
451, -3.211713e+03, 2.347873e-09, 3.826660e-08, 6.302525e-01
452, -3.146178e+03, 4.083813e-09, 6.889324e-08, 1.096240e+00
453, -3.080643e+03, 3.420696e-09, 5.838894e-08, 9.182362e-01
454, -3.015107e+03, 2.334299e-09, 4.055778e-08, 6.266085e-01
455, -2.949574e+03, 4.070238e-09, 7.336854e-08, 1.092596e+00
456, -2.884039e+03, 3.646958e-09, 6.614044e-08, 9.789727e-01
457, -2.818504e+03, 2.320724e-09, 4.317297e-08, 6.229646e-01
458, -2.752969e+03, 4.056664e-09, 7.850215e-08, 1.088952e+00
459, -2.687434e+03, 3.816828e-09, 7.437298e-08, 1.024572e+00
460, -2.621898e+03, 2.730430e-09, 5.429335e-08, 7.329442e-01
461, -2.556363e+03, 4.043089e-09, 8.445088e-08, 1.085308e+00
462, -2.490828e+03, 3.803253e-09, 8.003597e-08, 1.020928e+00
463, -2.425293e+03, 2.716855e-09, 5.844016e-08, 7.293002e-01
464, -2.359758e+03, 2.814341e-09, 6.339672e-08, 7.554688e-01
465, -2.294223e+03, 4.029514e-09, 9.142561e-08, 1.081664e+00
466, -2.228688e+03, 2.703280e-09, 6.332539e-08, 7.256563e-01
467, -2.163152e+03, 2.827916e-09, 6.966727e-08, 7.591128e-01
468, -2.097619e+03, 3.776103e-09, 9.459721e-08, 1.013640e+00
469, -2.032084e+03, 3.112986e-09, 7.936241e-08, 8.356359e-01
470, -1.966549e+03, 2.601654e-09, 7.003733e-08, 6.983763e-01
471, -1.901014e+03, 3.762528e-09, 1.041764e-07, 1.009996e+00
472, -1.835479e+03, 3.099412e-09, 8.749430e-08, 8.319920e-01
473, -1.769943e+03, 2.615229e-09, 7.842734e-08, 7.020202e-01
474, -1.704408e+03, 3.748954e-09, 1.160088e-07, 1.006352e+00
475, -1.638873e+03, 3.085837e-09, 9.758093e-08, 9.218802e-01
476, -1.573338e+03, 2.041907e-09, 6.889324e-08, 1.096240e+00
477, -1.507803e+03, 1.618626e-09, 5.524001e-08, 8.689931e-01
478, -1.442268e+03, 1.943397e-09, 7.003819e-08, 1.043353e+00
479, -1.376732e+03, 2.028332e-09, 7.850215e-08, 1.088952e+00
480, -1.311199e+03, 1.816691e-09, 7.077263e-08, 9.753287e-01
481, -1.245664e+03, 1.929822e-09, 8.058762e-08, 1.036065e+00
482, -1.180129e+03, 1.315448e-09, 5.928938e-08, 7.062257e-01
483, -1.114594e+03, 2.014757e-09, 9.142561e-08, 1.081664e+00
484, -1.049059e+03, 1.888052e-09, 9.459721e-08, 1.013640e+00
485, -9.835234e+02, 1.464771e-09, 7.465004e-08, 7.863928e-01
486, -9.179883e+02, 1.789542e-09, 9.904582e-08, 9.607529e-01
487, -8.524531e+02, 1.874477e-09, 1.160088e-07, 1.006352e+00
488, -7.869180e+02, 1.451196e-09, 9.172569e-08, 9.977540e-01
489, -7.213828e+02, 9.716984e-10, 7.003819e-08, 1.043353e+00
490, -6.558477e+02, 1.014166e-09, 7.850215e-08, 1.088952e+00
491, -5.903125e+02, 8.731885e-10, 7.287015e-08, 9.375790e-01
492, -5.247773e+02, 9.440258e-10, 9.459721e-08, 1.013640e+00
493, -4.592441e+02, 8.030484e-10, 8.880067e-08, 8.622666e-01
494, -3.937090e+02, 8.455159e-10, 1.045345e-07, 9.977540e-01
495, -3.281738e+02, 5.070830e-10, 7.850215e-08, 1.088952e+00
496, -2.626387e+02, 4.507791e-10, 8.245227e-08, 9.680408e-01
497, -1.971035e+02, 4.227580e-10, 1.045345e-07, 9.977540e-01
498, -1.315684e+02, 2.253896e-10, 8.245227e-08, 9.680408e-01
499, -6.603320e+01, 2.113790e-10, 1.045345e-07, 9.977540e-01
500, -4.980469e-01, 1.056895e-10, 1.045345e-07, 9.375790e-01
501, 6.503516e+01, 1.056895e-10, 1.045345e-07, 9.375790e-01
502, 1.305703e+02, 2.113790e-10, 1.045345e-07, 9.977540e-01
503, 1.961055e+02, 2.253896e-10, 8.245227e-08, 9.680408e-01
504, 2.616406e+02, 4.227580e-10, 1.045345e-07, 9.977540e-01
505, 3.271758e+02, 4.507791e-10, 8.245227e-08, 9.680408e-01
506, 3.927109e+02, 5.070830e-10, 7.850215e-08, 1.088952e+00
507, 4.582461e+02, 8.455159e-10, 1.045345e-07, 9.977540e-01
508, 5.237812e+02, 8.030484e-10, 8.880067e-08, 8.622666e-01
509, 5.893164e+02, 9.440258e-10, 9.459721e-08, 1.013640e+00
510, 6.548516e+02, 8.731885e-10, 7.287015e-08, 9.375790e-01
511, 7.203867e+02, 1.014166e-09, 7.850215e-08, 1.088952e+00
512, 7.859219e+02, 9.716984e-10, 7.003819e-08, 1.043353e+00
513, 8.514570e+02, 1.451196e-09, 9.172569e-08, 9.977540e-01
514, 9.169922e+02, 1.874477e-09, 1.160088e-07, 1.006352e+00
515, 9.825273e+02, 1.789542e-09, 9.904582e-08, 9.607529e-01
516, 1.048062e+03, 1.464771e-09, 7.465004e-08, 7.863928e-01
517, 1.113598e+03, 1.888052e-09, 9.459721e-08, 1.013640e+00
518, 1.179133e+03, 2.014757e-09, 9.142561e-08, 1.081664e+00
519, 1.244668e+03, 1.315448e-09, 5.928938e-08, 7.062257e-01
520, 1.310203e+03, 1.929822e-09, 8.058762e-08, 1.036065e+00
521, 1.375738e+03, 1.816691e-09, 7.077263e-08, 9.753287e-01
522, 1.441273e+03, 2.028332e-09, 7.850215e-08, 1.088952e+00
523, 1.506809e+03, 1.943397e-09, 7.003819e-08, 1.043353e+00
524, 1.572344e+03, 1.618626e-09, 5.524001e-08, 8.689931e-01
525, 1.637875e+03, 2.041907e-09, 6.889324e-08, 1.096240e+00
526, 1.703410e+03, 3.085837e-09, 9.758093e-08, 9.218802e-01
527, 1.768945e+03, 3.748954e-09, 1.160088e-07, 1.006352e+00
528, 1.834480e+03, 2.615229e-09, 7.842734e-08, 7.020202e-01
529, 1.900016e+03, 3.099412e-09, 8.749430e-08, 8.319920e-01
530, 1.965551e+03, 3.762528e-09, 1.041764e-07, 1.009996e+00
531, 2.031086e+03, 2.841490e-09, 7.723342e-08, 7.627568e-01
532, 2.096621e+03, 3.112986e-09, 7.936241e-08, 8.356359e-01
533, 2.162156e+03, 3.776103e-09, 9.459721e-08, 1.013640e+00
534, 2.227691e+03, 2.827916e-09, 6.966727e-08, 7.591128e-01
535, 2.293227e+03, 2.703280e-09, 6.332539e-08, 7.256563e-01
536, 2.358762e+03, 4.029514e-09, 9.142561e-08, 1.081664e+00
537, 2.424297e+03, 2.814341e-09, 6.339672e-08, 7.554688e-01
538, 2.489832e+03, 2.716855e-09, 5.844016e-08, 7.293002e-01
539, 2.555367e+03, 3.803253e-09, 8.003597e-08, 1.020928e+00
540, 2.620902e+03, 4.043089e-09, 8.445088e-08, 1.085308e+00
541, 2.686438e+03, 2.730430e-09, 5.429335e-08, 7.329442e-01
542, 2.751973e+03, 3.816828e-09, 7.437298e-08, 1.024572e+00
543, 2.817508e+03, 4.056664e-09, 7.850215e-08, 1.088952e+00
544, 2.883043e+03, 2.320724e-09, 4.317297e-08, 6.229646e-01
545, 2.948578e+03, 3.646958e-09, 6.614044e-08, 9.789727e-01
546, 3.014113e+03, 4.070238e-09, 7.336854e-08, 1.092596e+00
547, 3.079648e+03, 2.334299e-09, 4.055778e-08, 6.266085e-01
548, 3.145184e+03, 3.420696e-09, 5.838894e-08, 9.182362e-01
549, 3.210719e+03, 4.083813e-09, 6.889324e-08, 1.096240e+00
550, 3.276254e+03, 2.108038e-09, 3.478152e-08, 5.658720e-01
551, 3.341785e+03, 5.508557e-09, 8.806088e-08, 9.218802e-01
552, 3.407320e+03, 6.171674e-09, 9.758093e-08, 8.283480e-01
553, 3.472855e+03, 7.497907e-09, 1.160088e-07, 1.006352e+00
554, 3.538391e+03, 6.556692e-09, 1.003991e-07, 8.800243e-01
555, 3.603926e+03, 6.185248e-09, 9.225172e-08, 8.301700e-01
556, 3.669461e+03, 7.511482e-09, 1.097640e-07, 1.008174e+00
557, 3.734996e+03, 6.543117e-09, 9.468088e-08, 8.782023e-01
558, 3.800531e+03, 6.198823e-09, 8.749430e-08, 8.319920e-01
559, 3.866066e+03, 7.525057e-09, 1.041764e-07, 1.009996e+00
560, 3.931602e+03, 6.529542e-09, 8.955884e-08, 8.763804e-01
561, 3.997137e+03, 6.212398e-09, 8.322134e-08, 8.338140e-01
562, 4.062672e+03, 7.538632e-09, 9.914737e-08, 1.011818e+00
563, 4.128207e+03, 7.171742e-09, 9.427564e-08, 9.625749e-01
564, 4.193742e+03, 6.225973e-09, 7.936241e-08, 8.356359e-01
565, 4.259277e+03, 6.705645e-09, 8.470854e-08, 9.000164e-01
566, 4.324812e+03, 7.552207e-09, 9.459721e-08, 1.013640e+00
567, 4.390348e+03, 5.655831e-09, 6.966727e-08, 7.591128e-01
568, 4.455883e+03, 6.719220e-09, 8.099137e-08, 9.018384e-01
569, 4.521418e+03, 8.045453e-09, 9.538440e-08, 1.079842e+00
570, 4.586953e+03, 5.642256e-09, 6.639177e-08, 7.572908e-01
571, 4.652488e+03, 6.732794e-09, 7.759987e-08, 9.036604e-01
572, 4.718023e+03, 8.059028e-09, 9.142561e-08, 1.081664e+00
573, 4.783559e+03, 5.628681e-09, 6.339672e-08, 7.554688e-01
574, 4.849094e+03, 6.746369e-09, 7.449303e-08, 9.054823e-01
575, 4.914629e+03, 8.072603e-09, 8.779409e-08, 1.083486e+00
576, 4.980164e+03, 7.338823e-09, 7.974887e-08, 9.850001e-01
577, 5.045695e+03, 6.759944e-09, 7.163648e-08, 9.073043e-01
578, 5.111230e+03, 7.606506e-09, 8.003597e-08, 1.020928e+00
579, 5.176766e+03, 8.086178e-09, 8.445088e-08, 1.085308e+00
580, 5.242301e+03, 5.926957e-09, 6.079472e-08, 7.955027e-01
581, 5.307836e+03, 7.620081e-09, 7.709559e-08, 1.022750e+00
582, 5.373371e+03, 8.099752e-09, 8.136296e-08, 1.087130e+00
583, 5.438906e+03, 5.940532e-09, 5.864753e-08, 7.973247e-01
584, 5.504441e+03, 7.633655e-09, 7.437298e-08, 1.024572e+00
585, 5.569977e+03, 8.113327e-09, 7.850215e-08, 1.088952e+00
586, 5.635512e+03, 5.954107e-09, 5.665565e-08, 7.991467e-01
587, 5.701047e+03, 7.647230e-09, 7.184480e-08, 1.026394e+00
588, 5.766582e+03, 8.126902e-09, 7.584430e-08, 1.090774e+00
589, 5.832117e+03, 5.967681e-09, 5.480282e-08, 8.009686e-01
590, 5.897652e+03, 7.293915e-09, 6.614044e-08, 9.789727e-01
591, 5.963188e+03, 8.140477e-09, 7.336854e-08, 1.092596e+00
592, 6.028723e+03, 5.981256e-09, 5.307496e-08, 8.027906e-01
593, 6.094258e+03, 7.307490e-09, 6.405583e-08, 9.807947e-01
594, 6.159793e+03, 8.154052e-09, 7.105677e-08, 1.094418e+00
595, 6.225328e+03, 5.994831e-09, 5.145986e-08, 8.046126e-01
596, 6.290863e+03, 6.841393e-09, 5.838894e-08, 9.182362e-01
597, 6.356398e+03, 8.167626e-09, 6.889324e-08, 1.096240e+00
598, 6.421934e+03, 5.528734e-09, 4.631276e-08, 7.420541e-01
599, 6.487469e+03, 6.854968e-09, 5.666662e-08, 9.200582e-01
600, 6.553004e+03, 8.181201e-09, 6.686412e-08, 1.098062e+00
601, 6.618539e+03, 5.542309e-09, 4.491868e-08, 7.438761e-01
602, 6.684070e+03, 1.101711e-08, 8.806088e-08, 9.218802e-01
603, 6.749605e+03, 1.498224e-08, 1.194150e-07, 1.005441e+00
604, 6.815141e+03, 1.312696e-08, 1.035153e-07, 8.809353e-01
605, 6.880676e+03, 1.330269e-08, 1.039952e-07, 8.927285e-01
606, 6.946211e+03, 1.499581e-08, 1.160088e-07, 1.006352e+00
607, 7.011746e+03, 1.311338e-08, 1.003991e-07, 8.800243e-01
608, 7.077281e+03, 1.331627e-08, 1.010974e-07, 8.936395e-01
609, 7.142816e+03, 1.500939e-08, 1.127972e-07, 1.007263e+00
610, 7.208352e+03, 1.309981e-08, 9.745916e-08, 8.791133e-01
611, 7.273887e+03, 1.332984e-08, 9.836215e-08, 8.945505e-01
612, 7.339422e+03, 1.502296e-08, 1.097640e-07, 1.008174e+00
613, 7.404957e+03, 1.308623e-08, 9.468088e-08, 8.782023e-01
614, 7.470492e+03, 1.334342e-08, 9.577614e-08, 8.954615e-01
615, 7.536027e+03, 1.503654e-08, 1.068947e-07, 1.009085e+00
616, 7.601562e+03, 1.307266e-08, 9.205132e-08, 8.772913e-01
617, 7.667098e+03, 1.335699e-08, 9.332749e-08, 8.963724e-01
618, 7.732633e+03, 1.505011e-08, 1.041764e-07, 1.009996e+00
619, 7.798168e+03, 1.305908e-08, 8.955884e-08, 8.763804e-01
620, 7.863703e+03, 1.337057e-08, 9.100552e-08, 8.972834e-01
621, 7.929238e+03, 1.506369e-08, 1.015974e-07, 1.010907e+00
622, 7.994773e+03, 1.304551e-08, 8.719299e-08, 8.754694e-01
623, 8.060309e+03, 1.338414e-08, 8.880067e-08, 8.981944e-01
624, 8.125844e+03, 1.507726e-08, 9.914737e-08, 1.011818e+00
625, 8.191379e+03, 1.434348e-08, 9.427564e-08, 9.625749e-01
626, 8.256914e+03, 1.339771e-08, 8.670428e-08, 8.991054e-01
627, 8.322449e+03, 1.266393e-08, 8.191587e-08, 8.498623e-01
628, 8.387980e+03, 1.509084e-08, 9.681681e-08, 1.012729e+00
629, 8.453516e+03, 1.301836e-08, 8.280447e-08, 8.736474e-01
630, 8.519051e+03, 1.341129e-08, 8.470854e-08, 9.000164e-01
631, 8.584586e+03, 1.510441e-08, 9.459721e-08, 1.013640e+00
632, 8.650121e+03, 1.173174e-08, 7.296971e-08, 7.873038e-01
633, 8.715656e+03, 1.342486e-08, 8.280638e-08, 9.009274e-01
634, 8.781191e+03, 1.511799e-08, 9.248082e-08, 1.014551e+00
635, 8.846727e+03, 1.247910e-08, 7.586012e-08, 8.374579e-01
636, 8.912262e+03, 1.343844e-08, 8.099137e-08, 9.018384e-01
637, 8.977797e+03, 1.513156e-08, 9.046060e-08, 1.015462e+00
638, 9.043332e+03, 1.609091e-08, 9.538440e-08, 1.079842e+00
639, 9.108867e+03, 1.345201e-08, 7.925764e-08, 9.027494e-01
640, 9.174402e+03, 1.514514e-08, 8.853016e-08, 1.016373e+00
641, 9.239938e+03, 1.610448e-08, 9.336139e-08, 1.080753e+00
642, 9.305473e+03, 1.346559e-08, 7.759987e-08, 9.036604e-01
643, 9.371008e+03, 1.515871e-08, 8.668363e-08, 1.017284e+00
644, 9.436543e+03, 1.611806e-08, 9.142561e-08, 1.081664e+00
645, 9.502078e+03, 1.347916e-08, 7.601315e-08, 9.045713e-01
646, 9.567613e+03, 1.517229e-08, 8.491566e-08, 1.018195e+00
647, 9.633148e+03, 1.613163e-08, 8.957153e-08, 1.082575e+00
648, 9.698684e+03, 1.349274e-08, 7.449303e-08, 9.054823e-01
649, 9.764219e+03, 1.518586e-08, 8.322134e-08, 1.019106e+00
650, 9.829754e+03, 1.614521e-08, 8.779409e-08, 1.083486e+00
651, 9.895289e+03, 1.467765e-08, 7.974887e-08, 9.850001e-01
652, 9.960824e+03, 1.519944e-08, 8.159616e-08, 1.020017e+00
653, 1.002636e+04, 1.615878e-08, 8.608864e-08, 1.084397e+00
654, 1.009189e+04, 1.542500e-08, 8.214653e-08, 1.035154e+00
655, 1.015743e+04, 1.521301e-08, 8.003597e-08, 1.020928e+00
656, 1.022296e+04, 1.374545e-08, 7.225817e-08, 9.224417e-01
657, 1.028850e+04, 1.617236e-08, 8.445088e-08, 1.085308e+00
658, 1.035403e+04, 1.206590e-08, 6.262156e-08, 8.097290e-01
659, 1.041957e+04, 1.522659e-08, 7.853696e-08, 1.021839e+00
660, 1.048510e+04, 1.618593e-08, 8.287687e-08, 1.086219e+00
661, 1.055064e+04, 1.354704e-08, 6.900112e-08, 9.091263e-01
662, 1.061617e+04, 1.524016e-08, 7.709559e-08, 1.022750e+00
663, 1.068171e+04, 1.619950e-08, 8.136296e-08, 1.087130e+00
664, 1.074724e+04, 1.356061e-08, 6.775851e-08, 9.100373e-01
665, 1.081278e+04, 1.525374e-08, 7.570860e-08, 1.023661e+00
666, 1.087831e+04, 1.621308e-08, 7.990576e-08, 1.088041e+00
667, 1.094385e+04, 1.357419e-08, 6.656223e-08, 9.109483e-01
668, 1.100938e+04, 1.526731e-08, 7.437298e-08, 1.024572e+00
669, 1.107492e+04, 1.622665e-08, 7.850215e-08, 1.088952e+00
670, 1.114045e+04, 1.358776e-08, 6.540972e-08, 9.118593e-01
671, 1.120599e+04, 1.528089e-08, 7.308591e-08, 1.025483e+00
672, 1.127152e+04, 1.624023e-08, 7.714923e-08, 1.089863e+00
673, 1.133706e+04, 1.360134e-08, 6.429862e-08, 9.127703e-01
674, 1.140259e+04, 1.529446e-08, 7.184480e-08, 1.026394e+00
675, 1.146813e+04, 1.625380e-08, 7.584430e-08, 1.090774e+00
676, 1.153366e+04, 1.361491e-08, 6.322675e-08, 9.136812e-01
677, 1.159920e+04, 1.530804e-08, 7.064723e-08, 1.027305e+00
678, 1.166473e+04, 1.626738e-08, 7.458484e-08, 1.091685e+00
679, 1.173027e+04, 1.362849e-08, 6.219206e-08, 9.145922e-01
680, 1.179580e+04, 1.458783e-08, 6.614044e-08, 9.789727e-01
681, 1.186134e+04, 1.628095e-08, 7.336854e-08, 1.092596e+00
682, 1.192687e+04, 1.407961e-08, 6.338424e-08, 9.448669e-01
683, 1.199241e+04, 1.460140e-08, 6.508048e-08, 9.798837e-01
684, 1.205794e+04, 1.629453e-08, 7.219319e-08, 1.093507e+00
685, 1.212348e+04, 1.556075e-08, 6.891930e-08, 1.044264e+00
686, 1.218901e+04, 1.461498e-08, 6.405583e-08, 9.807947e-01
687, 1.225455e+04, 1.388120e-08, 6.081979e-08, 9.315516e-01
688, 1.232008e+04, 1.630810e-08, 7.105677e-08, 1.094418e+00
689, 1.238562e+04, 1.220165e-08, 5.289252e-08, 8.188389e-01
690, 1.245115e+04, 1.462855e-08, 6.306477e-08, 9.817057e-01
691, 1.251669e+04, 1.632168e-08, 6.995738e-08, 1.095329e+00
692, 1.258222e+04, 1.368279e-08, 5.838894e-08, 9.182362e-01
693, 1.264776e+04, 1.464213e-08, 6.210566e-08, 9.826167e-01
694, 1.271329e+04, 1.633525e-08, 6.889324e-08, 1.096240e+00
695, 1.277883e+04, 1.369636e-08, 5.751404e-08, 9.191472e-01
696, 1.284436e+04, 1.465570e-08, 6.117698e-08, 9.835277e-01
697, 1.290990e+04, 1.634883e-08, 6.786267e-08, 1.097151e+00
698, 1.297543e+04, 1.370994e-08, 5.666662e-08, 9.200582e-01
699, 1.304097e+04, 1.466928e-08, 6.027731e-08, 9.844386e-01
700, 1.310650e+04, 1.636240e-08, 6.686412e-08, 1.098062e+00
701, 1.317204e+04, 1.372351e-08, 5.584542e-08, 9.209692e-01
702, 1.323757e+04, 1.468285e-08, 5.940531e-08, 9.853496e-01
703, 1.330311e+04, 1.637598e-08, 6.589611e-08, 1.098973e+00
704, 1.336864e+04, 2.203423e-08, 8.806088e-08, 9.218802e-01
705, 1.343418e+04, 2.996448e-08, 1.194150e-07, 1.005441e+00
706, 1.349971e+04, 2.409424e-08, 9.579207e-08, 8.084686e-01
707, 1.356525e+04, 2.828493e-08, 1.116305e-07, 9.490848e-01
708, 1.363078e+04, 2.241469e-08, 8.825405e-08, 7.521123e-01
709, 1.369632e+04, 3.020362e-08, 1.178788e-07, 1.013465e+00
710, 1.376185e+04, 2.726850e-08, 1.062994e-07, 9.149790e-01
711, 1.382739e+04, 2.999163e-08, 1.160088e-07, 1.006352e+00
712, 1.389292e+04, 2.558895e-08, 9.880732e-08, 8.586227e-01
713, 1.395846e+04, 2.831208e-08, 1.084830e-07, 9.499958e-01
714, 1.402399e+04, 2.390940e-08, 9.145588e-08, 8.022664e-01
715, 1.408953e+04, 2.663253e-08, 1.010974e-07, 8.936395e-01
716, 1.415506e+04, 3.023077e-08, 1.145853e-07, 1.014376e+00
717, 1.422060e+04, 3.001878e-08, 1.127972e-07, 1.007263e+00
718, 1.428613e+04, 2.855122e-08, 1.072224e-07, 9.580199e-01
719, 1.435167e+04, 2.833923e-08, 1.055138e-07, 9.509068e-01
720, 1.441720e+04, 2.687167e-08, 9.999393e-08, 9.016636e-01
721, 1.448274e+04, 2.665968e-08, 9.836215e-08, 8.945505e-01
722, 1.454827e+04, 3.025792e-08, 1.114763e-07, 1.015287e+00
723, 1.461381e+04, 2.498013e-08, 9.133881e-08, 8.381942e-01
724, 1.467934e+04, 3.004593e-08, 1.097640e-07, 1.008174e+00
725, 1.474488e+04, 2.476814e-08, 8.980745e-08, 8.310810e-01
726, 1.481041e+04, 2.836638e-08, 1.027080e-07, 9.518178e-01
727, 1.487595e+04, 2.308859e-08, 8.297956e-08, 7.747247e-01
728, 1.494148e+04, 3.028507e-08, 1.085367e-07, 1.016198e+00
729, 1.500702e+04, 2.294727e-08, 8.201907e-08, 7.699826e-01
730, 1.507255e+04, 3.007308e-08, 1.068947e-07, 1.009085e+00
731, 1.513809e+04, 2.479529e-08, 8.749430e-08, 8.319920e-01
732, 1.520362e+04, 2.839353e-08, 1.000525e-07, 9.527287e-01
733, 1.526916e+04, 2.311574e-08, 8.086784e-08, 7.756357e-01
734, 1.533469e+04, 3.031222e-08, 1.057530e-07, 1.017109e+00
735, 1.540023e+04, 2.444198e-08, 8.509506e-08, 8.201367e-01
736, 1.546576e+04, 3.010023e-08, 1.041764e-07, 1.009996e+00
737, 1.553130e+04, 2.276243e-08, 7.857670e-08, 7.637804e-01
738, 1.559683e+04, 2.842068e-08, 9.753551e-08, 9.536397e-01
739, 1.566237e+04, 2.108288e-08, 7.216780e-08, 7.074241e-01
740, 1.572790e+04, 3.033937e-08, 1.031131e-07, 1.018020e+00
741, 1.579344e+04, 2.740425e-08, 9.304289e-08, 9.195339e-01
742, 1.585897e+04, 3.012738e-08, 1.015974e-07, 1.010907e+00
743, 1.592451e+04, 2.572470e-08, 8.661916e-08, 8.631776e-01
744, 1.599004e+04, 2.844783e-08, 9.514655e-08, 9.545507e-01
745, 1.605558e+04, 2.404515e-08, 8.030067e-08, 8.068213e-01
746, 1.612111e+04, 3.036652e-08, 1.006062e-07, 1.018931e+00
747, 1.618665e+04, 3.036652e-08, 1.006062e-07, 1.018931e+00
748, 1.625218e+04, 3.015453e-08, 9.914737e-08, 1.011818e+00
749, 1.631772e+04, 2.868697e-08, 9.427564e-08, 9.625749e-01
750, 1.638325e+04, 2.847498e-08, 9.287605e-08, 9.554617e-01
751, 1.644879e+04, 2.700742e-08, 8.804634e-08, 9.062186e-01
752, 1.651432e+04, 2.679543e-08, 8.670428e-08, 8.991054e-01
753, 1.657986e+04, 3.039367e-08, 9.822244e-08, 1.019842e+00
754, 1.664539e+04, 2.511588e-08, 8.062970e-08, 8.427491e-01
755, 1.671093e+04, 3.018168e-08, 9.681681e-08, 1.012729e+00
756, 1.677646e+04, 2.490389e-08, 7.936241e-08, 8.356359e-01
757, 1.684200e+04, 2.850213e-08, 9.071542e-08, 9.563727e-01
758, 1.690753e+04, 2.322434e-08, 7.343612e-08, 7.792796e-01
759, 1.697307e+04, 3.042082e-08, 9.595301e-08, 1.020753e+00
760, 1.703860e+04, 2.308302e-08, 7.263662e-08, 7.745375e-01
761, 1.710414e+04, 3.020883e-08, 9.459721e-08, 1.013640e+00
762, 1.716967e+04, 2.493104e-08, 7.756985e-08, 8.365469e-01
763, 1.723521e+04, 2.852928e-08, 8.865686e-08, 9.572837e-01
764, 1.730074e+04, 2.325149e-08, 7.179624e-08, 7.801906e-01
765, 1.736628e+04, 3.044796e-08, 9.378986e-08, 1.021664e+00
766, 1.743181e+04, 2.457773e-08, 7.556810e-08, 8.246916e-01
767, 1.749735e+04, 3.023598e-08, 9.248082e-08, 1.014551e+00
768, 1.756288e+04, 2.289818e-08, 6.987710e-08, 7.683353e-01
769, 1.762842e+04, 2.855643e-08, 8.669332e-08, 9.581947e-01
770, 1.769395e+04, 2.121863e-08, 6.427066e-08, 7.119790e-01
771, 1.775949e+04, 3.047511e-08, 9.172569e-08, 1.022575e+00
772, 1.782502e+04, 2.753999e-08, 8.281673e-08, 9.240889e-01
773, 1.789056e+04, 3.026313e-08, 9.046060e-08, 1.015462e+00
774, 1.795609e+04, 2.586045e-08, 7.719671e-08, 8.677326e-01
775, 1.802163e+04, 3.218181e-08, 9.538440e-08, 1.079842e+00
776, 1.808716e+04, 2.418090e-08, 7.165838e-08, 8.113763e-01
777, 1.815270e+04, 3.050226e-08, 8.975387e-08, 1.023486e+00
778, 1.821823e+04, 2.903470e-08, 8.539789e-08, 9.742430e-01
779, 1.828377e+04, 3.029027e-08, 8.853016e-08, 1.016373e+00
780, 1.834930e+04, 2.735516e-08, 7.988167e-08, 9.178867e-01
781, 1.841484e+04, 2.861073e-08, 8.302611e-08, 9.600167e-01
782, 1.848037e+04, 3.220896e-08, 9.336139e-08, 1.080753e+00
783, 1.854591e+04, 2.693118e-08, 7.759987e-08, 9.036604e-01
784, 1.861144e+04, 3.052941e-08, 8.786832e-08, 1.024397e+00
785, 1.867698e+04, 2.525163e-08, 7.224978e-08, 8.473041e-01
786, 1.874251e+04, 3.031742e-08, 8.668363e-08, 1.017284e+00
787, 1.880805e+04, 2.503964e-08, 7.117426e-08, 8.401909e-01
788, 1.887358e+04, 3.223611e-08, 9.142561e-08, 1.081664e+00
789, 1.893912e+04, 2.336009e-08, 6.594048e-08, 7.838346e-01
790, 1.900465e+04, 3.055656e-08, 8.606352e-08, 1.025308e+00
791, 1.907019e+04, 2.175120e-08, 6.110827e-08, 7.298493e-01
792, 1.913572e+04, 3.034457e-08, 8.491566e-08, 1.018195e+00
793, 1.920126e+04, 2.007166e-08, 5.600381e-08, 6.734930e-01
794, 1.926679e+04, 3.226326e-08, 8.957153e-08, 1.082575e+00
795, 1.933233e+04, 2.338724e-08, 6.463030e-08, 7.847456e-01
796, 1.939786e+04, 3.058371e-08, 8.433438e-08, 1.026219e+00
797, 1.946340e+04, 2.471347e-08, 6.803483e-08, 8.292466e-01
798, 1.952893e+04, 3.037172e-08, 8.322134e-08, 1.019106e+00
799, 1.959447e+04, 2.303393e-08, 6.298583e-08, 7.728903e-01
800, 1.966000e+04, 3.229041e-08, 8.779409e-08, 1.083486e+00
801, 1.972554e+04, 2.935529e-08, 7.974887e-08, 9.850001e-01
802, 1.979107e+04, 3.061086e-08, 8.267624e-08, 1.027130e+00
803, 1.985661e+04, 2.767574e-08, 7.468841e-08, 9.286438e-01
804, 1.992214e+04, 3.039887e-08, 8.159616e-08, 1.020017e+00
805, 1.998768e+04, 2.599619e-08, 6.969450e-08, 8.722875e-01
806, 2.005321e+04, 3.231756e-08, 8.608864e-08, 1.084397e+00
807, 2.011875e+04, 3.085000e-08, 8.214653e-08, 1.035154e+00
808, 2.018428e+04, 3.063801e-08, 8.108482e-08, 1.028041e+00
809, 2.024982e+04, 2.917045e-08, 7.717027e-08, 9.787980e-01
810, 2.031535e+04, 3.042602e-08, 8.003597e-08, 1.020928e+00
811, 2.038089e+04, 2.749090e-08, 7.225817e-08, 9.224417e-01
812, 2.044642e+04, 2.874647e-08, 7.513315e-08, 9.645716e-01
813, 2.051196e+04, 3.234471e-08, 8.445088e-08, 1.085308e+00
814, 2.057749e+04, 2.706693e-08, 7.029278e-08, 9.082153e-01
815, 2.064303e+04, 3.066516e-08, 7.955617e-08, 1.028952e+00
816, 2.070856e+04, 2.538738e-08, 6.551369e-08, 8.518590e-01
817, 2.077410e+04, 3.045317e-08, 7.853696e-08, 1.021839e+00
818, 2.083963e+04, 2.370783e-08, 6.079472e-08, 7.955027e-01
819, 2.090517e+04, 3.237186e-08, 8.287687e-08, 1.086219e+00
820, 2.097070e+04, 2.349584e-08, 5.989738e-08, 7.883895e-01
821, 2.103624e+04, 3.069231e-08, 7.808664e-08, 1.029863e+00
822, 2.110177e+04, 2.188695e-08, 5.555723e-08, 7.344043e-01
823, 2.116731e+04, 3.048032e-08, 7.709559e-08, 1.022750e+00
824, 2.123284e+04, 2.020740e-08, 5.097653e-08, 6.780480e-01
825, 2.129838e+04, 3.239901e-08, 8.136296e-08, 1.087130e+00
826, 2.136391e+04, 2.352299e-08, 5.882662e-08, 7.893005e-01
827, 2.142945e+04, 3.071946e-08, 7.667288e-08, 1.030774e+00
828, 2.149498e+04, 2.484922e-08, 6.192871e-08, 8.338015e-01
829, 2.156052e+04, 3.050747e-08, 7.570860e-08, 1.023661e+00
830, 2.162605e+04, 2.316967e-08, 5.739215e-08, 7.774452e-01
831, 2.169159e+04, 3.242616e-08, 7.990576e-08, 1.088041e+00
832, 2.175712e+04, 2.802348e-08, 6.898013e-08, 9.403120e-01
833, 2.182266e+04, 3.074661e-08, 7.531176e-08, 1.031685e+00
834, 2.188819e+04, 2.634393e-08, 6.445675e-08, 8.839557e-01
835, 2.195373e+04, 3.053462e-08, 7.437298e-08, 1.024572e+00
836, 2.201926e+04, 2.466438e-08, 5.998733e-08, 8.275993e-01
837, 2.208480e+04, 3.245331e-08, 7.850215e-08, 1.088952e+00
838, 2.215033e+04, 3.098575e-08, 7.492509e-08, 1.039709e+00
839, 2.221587e+04, 3.077376e-08, 7.400041e-08, 1.032596e+00
840, 2.228140e+04, 2.930620e-08, 7.044605e-08, 9.833529e-01
841, 2.234694e+04, 3.056177e-08, 7.308591e-08, 1.025483e+00
842, 2.241247e+04, 2.762665e-08, 6.601952e-08, 9.269966e-01
843, 2.247801e+04, 2.888222e-08, 6.866665e-08, 9.691266e-01
844, 2.254354e+04, 3.248046e-08, 7.714923e-08, 1.089863e+00
845, 2.260908e+04, 2.720267e-08, 6.429862e-08, 9.127703e-01
846, 2.267461e+04, 3.080091e-08, 7.273613e-08, 1.033507e+00
847, 2.274015e+04, 3.058892e-08, 7.184480e-08, 1.026394e+00
848, 2.280568e+04, 3.058892e-08, 7.184480e-08, 1.026394e+00
849, 2.287122e+04, 2.890937e-08, 6.751109e-08, 9.700376e-01
850, 2.293675e+04, 3.250761e-08, 7.584430e-08, 1.090774e+00
851, 2.300229e+04, 2.722982e-08, 6.322675e-08, 9.136812e-01
852, 2.306782e+04, 3.082806e-08, 7.151645e-08, 1.034418e+00
853, 2.313336e+04, 2.555027e-08, 5.899093e-08, 8.573249e-01
854, 2.319889e+04, 3.061607e-08, 7.064723e-08, 1.027305e+00
855, 2.326443e+04, 2.387073e-08, 5.480282e-08, 8.009686e-01
856, 2.332996e+04, 3.253476e-08, 7.458484e-08, 1.091685e+00
857, 2.339550e+04, 2.666452e-08, 6.104367e-08, 8.947128e-01
858, 2.346103e+04, 3.085521e-08, 7.033903e-08, 1.035329e+00
859, 2.352657e+04, 2.498497e-08, 5.687926e-08, 8.383565e-01
860, 2.359210e+04, 2.917566e-08, 6.614044e-08, 9.789727e-01
861, 2.365764e+04, 2.330542e-08, 5.276110e-08, 7.820002e-01
862, 2.372317e+04, 3.256191e-08, 7.336854e-08, 1.092596e+00
863, 2.378871e+04, 2.815923e-08, 6.338424e-08, 9.448669e-01
864, 2.385424e+04, 3.088236e-08, 6.920173e-08, 1.036240e+00
865, 2.391978e+04, 2.647968e-08, 5.927644e-08, 8.885106e-01
866, 2.398531e+04, 2.920281e-08, 6.508048e-08, 9.798837e-01
867, 2.405085e+04, 2.480013e-08, 5.521351e-08, 8.321543e-01
868, 2.411638e+04, 3.258906e-08, 7.219319e-08, 1.093507e+00
869, 2.418192e+04, 3.112150e-08, 6.891930e-08, 1.044264e+00
870, 2.424745e+04, 3.090951e-08, 6.810252e-08, 1.037151e+00
871, 2.431299e+04, 2.944195e-08, 6.484767e-08, 9.879079e-01
872, 2.437852e+04, 2.922996e-08, 6.405583e-08, 9.807947e-01
873, 2.444406e+04, 2.776240e-08, 6.081979e-08, 9.315516e-01
874, 2.450959e+04, 2.901797e-08, 6.327195e-08, 9.736815e-01
875, 2.457513e+04, 3.261621e-08, 7.105677e-08, 1.094418e+00
876, 2.464066e+04, 2.733842e-08, 5.929270e-08, 9.173252e-01
877, 2.470620e+04, 3.093666e-08, 6.703953e-08, 1.038062e+00
878, 2.477173e+04, 2.565887e-08, 5.535555e-08, 8.609689e-01
879, 2.483727e+04, 2.925711e-08, 6.306477e-08, 9.817057e-01
880, 2.490280e+04, 2.904512e-08, 6.229856e-08, 9.745925e-01
881, 2.496834e+04, 3.264336e-08, 6.995738e-08, 1.095329e+00
882, 2.503388e+04, 2.736557e-08, 5.838894e-08, 9.182362e-01
883, 2.509941e+04, 3.096381e-08, 6.601099e-08, 1.038973e+00
884, 2.516494e+04, 2.568602e-08, 5.452003e-08, 8.618799e-01
885, 2.523048e+04, 2.928426e-08, 6.210566e-08, 9.826167e-01
886, 2.529601e+04, 2.400647e-08, 5.069119e-08, 8.055236e-01
887, 2.536155e+04, 3.267051e-08, 6.889324e-08, 1.096240e+00
888, 2.542708e+04, 2.533271e-08, 5.333558e-08, 8.500246e-01
889, 2.549262e+04, 3.099096e-08, 6.501526e-08, 1.039884e+00
890, 2.555815e+04, 2.365316e-08, 4.954361e-08, 7.936683e-01
891, 2.562369e+04, 2.931141e-08, 6.117698e-08, 9.835277e-01
892, 2.568922e+04, 2.197361e-08, 4.579040e-08, 7.373120e-01
893, 2.575476e+04, 3.269766e-08, 6.786267e-08, 1.097151e+00
894, 2.582029e+04, 2.829498e-08, 5.867037e-08, 9.494219e-01
895, 2.588583e+04, 3.101811e-08, 6.405078e-08, 1.040795e+00
896, 2.595136e+04, 2.661543e-08, 5.490853e-08, 8.930655e-01
897, 2.601690e+04, 3.440435e-08, 7.064988e-08, 1.154419e+00
898, 2.608243e+04, 2.493588e-08, 5.118457e-08, 8.367092e-01
899, 2.614797e+04, 3.272481e-08, 6.686412e-08, 1.098062e+00
900, 2.621350e+04, 3.125725e-08, 6.384603e-08, 1.048819e+00
901, 2.627904e+04, 3.104526e-08, 6.311612e-08, 1.041706e+00
902, 2.634457e+04, 2.957770e-08, 6.011421e-08, 9.924628e-01
903, 2.641011e+04, 2.936571e-08, 5.940531e-08, 9.853496e-01
904, 2.647564e+04, 3.443150e-08, 6.961888e-08, 1.155330e+00
905, 2.654118e+04, 2.915372e-08, 5.870299e-08, 9.782365e-01
906, 2.660671e+04, 3.275195e-08, 6.589611e-08, 1.098973e+00
907, 2.667225e+04, 2.747417e-08, 5.504923e-08, 9.218802e-01
908, 2.673779e+04, 4.406845e-08, 8.806088e-08, 1.042617e+00
909, 2.680332e+04, 4.979737e-08, 9.932302e-08, 8.354612e-01
910, 2.686885e+04, 5.992896e-08, 1.194150e-07, 1.005441e+00
911, 2.693439e+04, 4.958538e-08, 9.844799e-08, 8.319046e-01
912, 2.699992e+04, 5.678185e-08, 1.125603e-07, 9.526414e-01
913, 2.706546e+04, 4.937339e-08, 9.758093e-08, 8.283480e-01
914, 2.713099e+04, 5.656986e-08, 1.116305e-07, 9.490848e-01
915, 2.719653e+04, 5.635787e-08, 1.107090e-07, 9.455282e-01
916, 2.726206e+04, 6.355435e-08, 1.246532e-07, 1.066265e+00
917, 2.732760e+04, 4.601429e-08, 9.006883e-08, 7.719917e-01
918, 2.739313e+04, 6.040724e-08, 1.178788e-07, 1.013465e+00
919, 2.745867e+04, 5.453700e-08, 1.062994e-07, 9.149790e-01
920, 2.752420e+04, 6.019525e-08, 1.169396e-07, 1.009909e+00
921, 2.758974e+04, 5.432501e-08, 1.054130e-07, 9.114224e-01
922, 2.765527e+04, 5.998326e-08, 1.160088e-07, 1.006352e+00
923, 2.772081e+04, 5.117790e-08, 9.880732e-08, 8.586227e-01
924, 2.778634e+04, 5.683615e-08, 1.093717e-07, 9.535524e-01
925, 2.785188e+04, 5.096591e-08, 9.796248e-08, 8.550661e-01
926, 2.791741e+04, 5.662416e-08, 1.084830e-07, 9.499958e-01
927, 2.798295e+04, 4.781880e-08, 9.145588e-08, 8.022664e-01
928, 2.804848e+04, 6.360864e-08, 1.211472e-07, 1.067176e+00
929, 2.811402e+04, 4.760681e-08, 9.065116e-08, 7.987098e-01
930, 2.817955e+04, 5.326506e-08, 1.010974e-07, 8.936395e-01
931, 2.824509e+04, 6.046154e-08, 1.145853e-07, 1.014376e+00
932, 2.831062e+04, 6.024955e-08, 1.136874e-07, 1.010820e+00
933, 2.837616e+04, 5.731443e-08, 1.080879e-07, 9.615765e-01
934, 2.844170e+04, 6.003756e-08, 1.127972e-07, 1.007263e+00
935, 2.850723e+04, 5.710244e-08, 1.072224e-07, 9.580199e-01
936, 2.857276e+04, 5.689045e-08, 1.063644e-07, 9.544634e-01
937, 2.863830e+04, 5.395533e-08, 1.008203e-07, 9.052202e-01
938, 2.870383e+04, 5.667846e-08, 1.055138e-07, 9.509068e-01
939, 2.876937e+04, 5.374334e-08, 9.999393e-08, 9.016636e-01
940, 2.883490e+04, 5.646647e-08, 1.046704e-07, 9.473502e-01
941, 2.890044e+04, 6.366294e-08, 1.178385e-07, 1.068087e+00
942, 2.896597e+04, 5.331936e-08, 9.836215e-08, 8.945505e-01
943, 2.903151e+04, 6.051584e-08, 1.114763e-07, 1.015287e+00
944, 2.909704e+04, 5.310737e-08, 9.755662e-08, 8.909939e-01
945, 2.916258e+04, 6.030385e-08, 1.106165e-07, 1.011731e+00
946, 2.922811e+04, 5.149849e-08, 9.430922e-08, 8.640013e-01
947, 2.929365e+04, 6.009186e-08, 1.097640e-07, 1.008174e+00
948, 2.935918e+04, 4.974828e-08, 9.056992e-08, 8.346376e-01
949, 2.942472e+04, 5.694475e-08, 1.035234e-07, 9.553743e-01
950, 2.949025e+04, 4.953629e-08, 8.980745e-08, 8.310810e-01
951, 2.955579e+04, 5.673276e-08, 1.027080e-07, 9.518178e-01
952, 2.962132e+04, 4.638918e-08, 8.370691e-08, 7.782813e-01
953, 2.968686e+04, 6.371724e-08, 1.147110e-07, 1.068998e+00
954, 2.975239e+04, 4.617719e-08, 8.297956e-08, 7.747247e-01
955, 2.981793e+04, 6.057013e-08, 1.085367e-07, 1.016198e+00
956, 2.988346e+04, 5.763501e-08, 1.032218e-07, 9.669551e-01
957, 2.994900e+04, 6.035815e-08, 1.077123e-07, 1.012642e+00
958, 3.001454e+04, 5.448791e-08, 9.713270e-08, 9.141554e-01
959, 3.008007e+04, 6.014616e-08, 1.068947e-07, 1.009085e+00
960, 3.014560e+04, 5.427592e-08, 9.635921e-08, 9.105988e-01
961, 3.021114e+04, 5.699905e-08, 1.008351e-07, 9.562853e-01
962, 3.027667e+04, 5.112881e-08, 9.035449e-08, 8.577991e-01
963, 3.034221e+04, 5.678706e-08, 1.000525e-07, 9.527287e-01
964, 3.040774e+04, 5.091682e-08, 8.961516e-08, 8.542425e-01
965, 3.047328e+04, 5.657507e-08, 9.927614e-08, 9.491722e-01
966, 3.053881e+04, 6.377154e-08, 1.117501e-07, 1.069909e+00
967, 3.060435e+04, 5.342796e-08, 9.332749e-08, 8.963724e-01
968, 3.066988e+04, 6.062443e-08, 1.057530e-07, 1.017109e+00
969, 3.073542e+04, 5.321597e-08, 9.258474e-08, 8.928159e-01
970, 3.080095e+04, 6.041244e-08, 1.049615e-07, 1.013553e+00
971, 3.086649e+04, 6.020046e-08, 1.041764e-07, 1.009996e+00
972, 3.093202e+04, 5.726534e-08, 9.904582e-08, 9.607529e-01
973, 3.099756e+04, 4.985687e-08, 8.600659e-08, 8.364595e-01
974, 3.106309e+04, 5.705335e-08, 9.828767e-08, 9.571963e-01
975, 3.112863e+04, 5.684136e-08, 9.753551e-08, 9.536397e-01
976, 3.119416e+04, 5.390624e-08, 9.245155e-08, 9.043966e-01
977, 3.125970e+04, 5.662937e-08, 9.678928e-08, 9.500832e-01
978, 3.132523e+04, 6.382584e-08, 1.089429e-07, 1.070820e+00
979, 3.139077e+04, 5.348226e-08, 9.100552e-08, 8.972834e-01
980, 3.145630e+04, 6.067873e-08, 1.031131e-07, 1.018020e+00
981, 3.152184e+04, 5.480849e-08, 9.304289e-08, 9.195339e-01
982, 3.158738e+04, 6.046674e-08, 1.023523e-07, 1.014464e+00
983, 3.165291e+04, 5.166139e-08, 8.731460e-08, 8.667342e-01
984, 3.171845e+04, 6.025475e-08, 1.015974e-07, 1.010907e+00
985, 3.178398e+04, 5.144940e-08, 8.661916e-08, 8.631776e-01
986, 3.184951e+04, 5.710765e-08, 9.587028e-08, 9.581073e-01
987, 3.191505e+04, 4.969918e-08, 8.322134e-08, 8.338140e-01
988, 3.198058e+04, 5.689566e-08, 9.514655e-08, 9.545507e-01
989, 3.204612e+04, 4.809030e-08, 8.030067e-08, 8.068213e-01
990, 3.211165e+04, 6.388014e-08, 1.062776e-07, 1.071731e+00
991, 3.217719e+04, 6.094502e-08, 1.013440e-07, 1.022488e+00
992, 3.224272e+04, 6.073303e-08, 1.006062e-07, 1.018931e+00
993, 3.230826e+04, 6.073303e-08, 1.006062e-07, 1.018931e+00
994, 3.237379e+04, 6.052104e-08, 9.987400e-08, 1.015375e+00
995, 3.243933e+04, 5.758592e-08, 9.498340e-08, 9.661315e-01
996, 3.250486e+04, 6.030905e-08, 9.914737e-08, 1.011818e+00
997, 3.257040e+04, 5.737393e-08, 9.427564e-08, 9.625749e-01
998, 3.263593e+04, 5.716195e-08, 9.357321e-08, 9.590183e-01
999, 3.270147e+04, 5.422683e-08, 8.872495e-08, 9.097752e-01
1000, 3.276700e+04, 5.694996e-08, 9.287605e-08, 9.554617e-01
