200, 5.000000e-01, 3.000000e+00
1, 5.125000e-01, 3.477781e-09, 2.070259e-07, 1.867119e+00
2, 5.250000e-01, 3.572298e-09, 2.005934e-07, 1.917863e+00
3, 5.375000e-01, 3.628951e-09, 1.919111e-07, 1.948278e+00
4, 5.500000e-01, 3.716822e-09, 1.830583e-07, 1.995454e+00
5, 5.625000e-01, 3.815541e-09, 1.726705e-07, 2.048453e+00
6, 5.750000e-01, 3.943131e-09, 1.650289e-07, 2.116952e+00
7, 5.875000e-01, 3.961056e-09, 1.567125e-07, 2.126576e+00
8, 6.000000e-01, 4.119365e-09, 1.523356e-07, 2.211567e+00
9, 6.125000e-01, 4.178327e-09, 1.467427e-07, 2.243222e+00
10, 6.250000e-01, 5.175649e-09, 1.644248e-07, 2.285897e+00
11, 6.375000e-01, 6.257900e-09, 1.922383e-07, 1.679842e+00
12, 6.500000e-01, 6.340046e-09, 1.842897e-07, 1.701893e+00
13, 6.625000e-01, 6.430443e-09, 1.794013e-07, 1.726159e+00
14, 6.750000e-01, 6.622883e-09, 1.690444e-07, 1.777817e+00
15, 6.875000e-01, 6.619904e-09, 1.654341e-07, 1.777017e+00
16, 7.000000e-01, 6.746517e-09, 1.582262e-07, 1.811004e+00
17, 7.125000e-01, 8.276820e-09, 1.793427e-07, 2.221792e+00
18, 7.250000e-01, 8.489844e-09, 1.755324e-07, 2.278975e+00
19, 7.375000e-01, 8.557366e-09, 1.711078e-07, 2.297100e+00
20, 7.500000e-01, 8.690923e-09, 1.668152e-07, 2.332952e+00
21, 7.625000e-01, 8.842323e-09, 1.599138e-07, 2.373593e+00
22, 7.750000e-01, 9.020872e-09, 1.559150e-07, 2.421522e+00
23, 7.875000e-01, 1.112538e-08, 1.773577e-07, 2.441085e+00
24, 8.000000e-01, 1.309236e-08, 1.999886e-07, 1.757226e+00
25, 8.125000e-01, 1.323056e-08, 1.972354e-07, 1.775776e+00
26, 8.250000e-01, 1.337425e-08, 1.890259e-07, 1.795061e+00
27, 8.375000e-01, 1.358072e-08, 1.829302e-07, 1.822774e+00
28, 8.500000e-01, 1.377319e-08, 1.782241e-07, 1.848606e+00
29, 8.625000e-01, 1.402970e-08, 1.721736e-07, 1.883035e+00
30, 8.750000e-01, 1.420093e-08, 1.699150e-07, 1.906016e+00
31, 8.875000e-01, 1.437843e-08, 1.620856e-07, 1.929840e+00
32, 9.000000e-01, 1.455173e-08, 1.583109e-07, 1.953101e+00
33, 9.125000e-01, 1.482579e-08, 1.545136e-07, 1.989883e+00
34, 9.250000e-01, 1.505112e-08, 1.490100e-07, 2.020128e+00
35, 9.375000e-01, 1.514559e-08, 1.455303e-07, 2.032807e+00
36, 9.500000e-01, 1.537284e-08, 1.440177e-07, 2.063307e+00
37, 9.625000e-01, 1.578888e-08, 1.392745e-07, 2.119148e+00
38, 9.750000e-01, 1.592365e-08, 1.364896e-07, 2.137236e+00
39, 9.875000e-01, 1.610363e-08, 1.330191e-07, 2.161393e+00
40, 1.000000e+00, 1.984019e-08, 1.578076e-07, 2.158259e+00
41, 1.012500e+00, 2.731087e-08, 2.070259e-07, 1.832801e+00
42, 1.025000e+00, 2.782225e-08, 2.046111e-07, 1.867119e+00
43, 1.037500e+00, 2.832970e-08, 2.005934e-07, 1.901174e+00
44, 1.050000e+00, 2.857838e-08, 1.961139e-07, 1.917863e+00
45, 1.062500e+00, 2.873555e-08, 1.919111e-07, 1.928410e+00
46, 1.075000e+00, 2.903161e-08, 1.866197e-07, 1.948278e+00
47, 1.087500e+00, 2.955230e-08, 1.830583e-07, 1.983221e+00
48, 1.100000e+00, 2.973457e-08, 1.775520e-07, 1.995454e+00
49, 1.112500e+00, 3.044487e-08, 1.726705e-07, 2.043121e+00
50, 1.125000e+00, 3.052433e-08, 1.698127e-07, 2.048453e+00
51, 1.137500e+00, 3.107554e-08, 1.650289e-07, 2.085444e+00
52, 1.150000e+00, 3.154505e-08, 1.632836e-07, 2.116952e+00
53, 1.162500e+00, 3.168716e-08, 1.567125e-07, 2.126490e+00
54, 1.175000e+00, 3.168845e-08, 1.542291e-07, 2.126576e+00
55, 1.187500e+00, 3.240855e-08, 1.523356e-07, 2.174901e+00
56, 1.200000e+00, 3.295492e-08, 1.504647e-07, 2.211567e+00
57, 1.212500e+00, 3.342253e-08, 1.467427e-07, 2.242948e+00
58, 1.225000e+00, 3.342661e-08, 1.432575e-07, 2.243222e+00
59, 1.237500e+00, 3.383497e-08, 1.422814e-07, 2.270626e+00
60, 1.250000e+00, 4.140519e-08, 1.644248e-07, 2.285897e+00
61, 1.262500e+00, 4.935907e-08, 1.909428e-07, 1.656216e+00
62, 1.275000e+00, 5.006320e-08, 1.922383e-07, 1.679842e+00
63, 1.287500e+00, 5.009781e-08, 1.842897e-07, 1.681004e+00
64, 1.300000e+00, 5.072036e-08, 1.832678e-07, 1.701893e+00
65, 1.312500e+00, 5.135965e-08, 1.794013e-07, 1.723344e+00
66, 1.325000e+00, 5.144355e-08, 1.740720e-07, 1.726159e+00
67, 1.337500e+00, 5.207229e-08, 1.690444e-07, 1.747256e+00
68, 1.350000e+00, 5.298306e-08, 1.687116e-07, 1.777817e+00
69, 1.362500e+00, 5.295923e-08, 1.654341e-07, 1.777017e+00
70, 1.375000e+00, 5.276336e-08, 1.606563e-07, 1.770445e+00
71, 1.387500e+00, 5.397213e-08, 1.582262e-07, 1.811004e+00
72, 1.400000e+00, 5.337238e-08, 1.538276e-07, 1.790880e+00
73, 1.412500e+00, 5.532163e-08, 1.525850e-07, 1.856286e+00
74, 1.425000e+00, 6.621456e-08, 1.793427e-07, 2.221792e+00
75, 1.437500e+00, 6.628819e-08, 1.755324e-07, 2.224263e+00
76, 1.450000e+00, 6.791875e-08, 1.738609e-07, 2.278975e+00
77, 1.462500e+00, 6.773195e-08, 1.711078e-07, 2.272707e+00
78, 1.475000e+00, 6.845893e-08, 1.690038e-07, 2.297100e+00
79, 1.487500e+00, 6.929943e-08, 1.668152e-07, 2.325303e+00
80, 1.500000e+00, 6.952739e-08, 1.614475e-07, 2.332952e+00
81, 1.512500e+00, 7.031210e-08, 1.599138e-07, 2.359282e+00
82, 1.525000e+00, 7.073859e-08, 1.563416e-07, 2.373593e+00
83, 1.537500e+00, 7.150749e-08, 1.559150e-07, 2.399393e+00
84, 1.550000e+00, 7.216697e-08, 1.531047e-07, 2.421522e+00
85, 1.562500e+00, 7.268883e-08, 1.501214e-07, 2.439032e+00
86, 1.575000e+00, 8.900303e-08, 1.773577e-07, 2.441085e+00
87, 1.587500e+00, 9.955171e-08, 1.929044e-07, 1.670201e+00
88, 1.600000e+00, 1.047389e-07, 1.999886e-07, 1.757226e+00
89, 1.612500e+00, 1.052506e-07, 1.972354e-07, 1.765812e+00
90, 1.625000e+00, 1.058445e-07, 1.935181e-07, 1.775776e+00
91, 1.637500e+00, 1.062723e-07, 1.890259e-07, 1.782953e+00
92, 1.650000e+00, 1.069940e-07, 1.877508e-07, 1.795061e+00
93, 1.662500e+00, 1.068248e-07, 1.829302e-07, 1.792222e+00
94, 1.675000e+00, 1.086458e-07, 1.821985e-07, 1.822774e+00
95, 1.687500e+00, 1.101855e-07, 1.782241e-07, 1.848606e+00
96, 1.700000e+00, 1.099723e-07, 1.773188e-07, 1.845028e+00
97, 1.712500e+00, 1.095290e-07, 1.701270e-07, 1.837591e+00
98, 1.725000e+00, 1.122376e-07, 1.721736e-07, 1.883035e+00
99, 1.737500e+00, 1.132881e-07, 1.699150e-07, 1.900659e+00
100, 1.750000e+00, 1.136074e-07, 1.652456e-07, 1.906016e+00
101, 1.762500e+00, 1.130524e-07, 1.620856e-07, 1.896704e+00
102, 1.775000e+00, 1.150274e-07, 1.606575e-07, 1.929840e+00
103, 1.787500e+00, 1.164139e-07, 1.583109e-07, 1.953101e+00
104, 1.800000e+00, 1.156292e-07, 1.567432e-07, 1.939937e+00
105, 1.812500e+00, 1.186063e-07, 1.545136e-07, 1.989883e+00
106, 1.825000e+00, 1.175138e-07, 1.506890e-07, 1.971554e+00
107, 1.837500e+00, 1.178674e-07, 1.490100e-07, 1.977488e+00
108, 1.850000e+00, 1.204090e-07, 1.487986e-07, 2.020128e+00
109, 1.862500e+00, 1.202485e-07, 1.455303e-07, 2.017435e+00
110, 1.875000e+00, 1.211647e-07, 1.452439e-07, 2.032807e+00
111, 1.887500e+00, 1.229827e-07, 1.440177e-07, 2.063307e+00
112, 1.900000e+00, 1.227152e-07, 1.400483e-07, 2.058819e+00
113, 1.912500e+00, 1.235605e-07, 1.392745e-07, 2.073000e+00
114, 1.925000e+00, 1.263111e-07, 1.391551e-07, 2.119148e+00
115, 1.937500e+00, 1.266348e-07, 1.364896e-07, 2.124579e+00
116, 1.950000e+00, 1.273892e-07, 1.356166e-07, 2.137236e+00
117, 1.962500e+00, 1.288291e-07, 1.330191e-07, 2.161393e+00
118, 1.975000e+00, 1.285322e-07, 1.312782e-07, 2.156412e+00
119, 1.987500e+00, 1.587215e-07, 1.578076e-07, 2.158259e+00
120, 2.000000e+00, 1.577388e-07, 1.552919e-07, 1.323209e+00
121, 2.012500e+00, 2.156596e-07, 2.064036e-07, 1.809084e+00
122, 2.025000e+00, 2.184869e-07, 2.070259e-07, 1.832801e+00
123, 2.037500e+00, 2.225780e-07, 2.046111e-07, 1.867119e+00
124, 2.050000e+00, 2.215128e-07, 2.012243e-07, 1.858184e+00
125, 2.062500e+00, 2.248715e-07, 2.005934e-07, 1.886359e+00
126, 2.075000e+00, 2.266376e-07, 1.974377e-07, 1.901174e+00
127, 2.087500e+00, 2.286271e-07, 1.961139e-07, 1.917863e+00
128, 2.100000e+00, 2.277195e-07, 1.933256e-07, 1.910250e+00
129, 2.112500e+00, 2.293014e-07, 1.919111e-07, 1.923520e+00
130, 2.125000e+00, 2.298844e-07, 1.868614e-07, 1.928410e+00
131, 2.137500e+00, 2.322529e-07, 1.866197e-07, 1.948278e+00
132, 2.150000e+00, 2.309758e-07, 1.803364e-07, 1.937566e+00
133, 2.162500e+00, 2.364184e-07, 1.830583e-07, 1.983221e+00
134, 2.175000e+00, 2.350303e-07, 1.785747e-07, 1.971577e+00
135, 2.187500e+00, 2.378766e-07, 1.775520e-07, 1.995454e+00
136, 2.200000e+00, 2.360481e-07, 1.732758e-07, 1.980115e+00
137, 2.212500e+00, 2.385406e-07, 1.716404e-07, 2.001024e+00
138, 2.225000e+00, 2.435590e-07, 1.726705e-07, 2.043121e+00
139, 2.237500e+00, 2.441946e-07, 1.698127e-07, 2.048453e+00
140, 2.250000e+00, 2.420331e-07, 1.661272e-07, 2.030320e+00
141, 2.262500e+00, 2.455156e-07, 1.650289e-07, 2.059534e+00
142, 2.275000e+00, 2.486043e-07, 1.640646e-07, 2.085444e+00
143, 2.287500e+00, 2.482586e-07, 1.632836e-07, 2.082544e+00
144, 2.300000e+00, 2.523604e-07, 1.616810e-07, 2.116952e+00
145, 2.312500e+00, 2.492863e-07, 1.564758e-07, 2.091165e+00
146, 2.325000e+00, 2.534973e-07, 1.567125e-07, 2.126490e+00
147, 2.337500e+00, 2.515920e-07, 1.542291e-07, 2.110507e+00
148, 2.350000e+00, 2.535076e-07, 1.519290e-07, 2.126576e+00
149, 2.362500e+00, 2.536180e-07, 1.498739e-07, 2.127502e+00
150, 2.375000e+00, 2.592684e-07, 1.523356e-07, 2.174901e+00
151, 2.387500e+00, 2.636394e-07, 1.504647e-07, 2.211567e+00
152, 2.400000e+00, 2.625300e-07, 1.479327e-07, 2.202262e+00
153, 2.412500e+00, 2.638654e-07, 1.467427e-07, 2.213464e+00
154, 2.425000e+00, 2.673803e-07, 1.461807e-07, 2.242948e+00
155, 2.437500e+00, 2.674129e-07, 1.432575e-07, 2.243222e+00
156, 2.450000e+00, 2.666358e-07, 1.424510e-07, 2.236703e+00
157, 2.462500e+00, 2.706798e-07, 1.422814e-07, 2.270626e+00
158, 2.475000e+00, 2.706444e-07, 1.398928e-07, 2.270330e+00
159, 2.487500e+00, 2.686084e-07, 1.363322e-07, 2.253251e+00
160, 2.500000e+00, 3.312415e-07, 1.644248e-07, 2.285897e+00
161, 2.512500e+00, 3.325884e-07, 1.629037e-07, 1.394977e+00
162, 2.525000e+00, 3.948726e-07, 1.909428e-07, 1.656216e+00
163, 2.537500e+00, 4.005056e-07, 1.922383e-07, 1.679842e+00
164, 2.550000e+00, 4.001113e-07, 1.885429e-07, 1.678189e+00
165, 2.562500e+00, 3.998433e-07, 1.842897e-07, 1.677065e+00
166, 2.575000e+00, 4.007825e-07, 1.834179e-07, 1.681004e+00
167, 2.587500e+00, 4.039243e-07, 1.832678e-07, 1.694181e+00
168, 2.600000e+00, 4.057629e-07, 1.800872e-07, 1.701893e+00
169, 2.612500e+00, 4.069268e-07, 1.794013e-07, 1.706775e+00
170, 2.625000e+00, 4.108772e-07, 1.761912e-07, 1.723344e+00
171, 2.637500e+00, 4.063362e-07, 1.740720e-07, 1.704297e+00
172, 2.650000e+00, 4.115484e-07, 1.718206e-07, 1.726159e+00
173, 2.662500e+00, 4.113803e-07, 1.690444e-07, 1.725454e+00
174, 2.675000e+00, 4.165783e-07, 1.688693e-07, 1.747256e+00
175, 2.687500e+00, 4.175934e-07, 1.687116e-07, 1.751514e+00
176, 2.700000e+00, 4.238645e-07, 1.686015e-07, 1.777817e+00
177, 2.712500e+00, 4.217938e-07, 1.654341e-07, 1.769132e+00
178, 2.725000e+00, 4.236738e-07, 1.644948e-07, 1.777017e+00
179, 2.737500e+00, 4.221069e-07, 1.606563e-07, 1.770445e+00
180, 2.750000e+00, 4.220988e-07, 1.585278e-07, 1.770411e+00
181, 2.762500e+00, 4.254140e-07, 1.582262e-07, 1.784316e+00
182, 2.775000e+00, 4.317771e-07, 1.569650e-07, 1.811004e+00
183, 2.787500e+00, 4.268896e-07, 1.538276e-07, 1.790505e+00
184, 2.800000e+00, 4.269790e-07, 1.509261e-07, 1.790880e+00
185, 2.812500e+00, 4.335135e-07, 1.525850e-07, 1.818287e+00
186, 2.825000e+00, 4.425730e-07, 1.525209e-07, 1.856286e+00
187, 2.837500e+00, 5.244673e-07, 1.793427e-07, 2.199775e+00
188, 2.850000e+00, 5.297165e-07, 1.785729e-07, 2.221792e+00
189, 2.862500e+00, 5.253800e-07, 1.755324e-07, 2.203603e+00
190, 2.875000e+00, 5.303055e-07, 1.734965e-07, 2.224263e+00
191, 2.887500e+00, 5.324362e-07, 1.735719e-07, 2.233199e+00
192, 2.900000e+00, 5.433500e-07, 1.738609e-07, 2.278975e+00
193, 2.912500e+00, 5.418556e-07, 1.711078e-07, 2.272707e+00
194, 2.925000e+00, 5.349205e-07, 1.667205e-07, 2.243619e+00
195, 2.937500e+00, 5.476714e-07, 1.690038e-07, 2.297100e+00
196, 2.950000e+00, 5.357451e-07, 1.626502e-07, 2.247078e+00
197, 2.962500e+00, 5.543955e-07, 1.668152e-07, 2.325303e+00
198, 2.975000e+00, 5.499071e-07, 1.638502e-07, 2.306477e+00
199, 2.987500e+00, 5.461903e-07, 1.607613e-07, 2.290888e+00
200, 3.000000e+00, 5.562191e-07, 1.614475e-07, 2.332952e+00
