200, 5.000000e-01, 3.000000e+00
1, 5.125000e-01, 3.538990e-08, 7.631793e-08, 1.187488e+00
2, 5.250000e-01, 4.887328e-08, 1.014236e-07, 1.639915e+00
3, 5.375000e-01, 5.080193e-08, 1.046830e-07, 1.704630e+00
4, 5.500000e-01, 6.523082e-08, 1.298378e-07, 1.687392e+00
5, 5.625000e-01, 6.556612e-08, 1.299089e-07, 1.100017e+00
6, 5.750000e-01, 6.595166e-08, 1.282563e-07, 1.106485e+00
7, 5.875000e-01, 6.502606e-08, 1.234416e-07, 1.090956e+00
8, 6.000000e-01, 6.581328e-08, 1.217163e-07, 1.104164e+00
9, 6.125000e-01, 6.520822e-08, 1.195835e-07, 1.094012e+00
10, 6.250000e-01, 6.643623e-08, 1.177063e-07, 1.114615e+00
11, 6.375000e-01, 6.673427e-08, 1.160080e-07, 1.119615e+00
12, 6.500000e-01, 6.723468e-08, 1.167372e-07, 1.128011e+00
13, 6.625000e-01, 6.646960e-08, 1.124827e-07, 1.115175e+00
14, 6.750000e-01, 6.762603e-08, 1.128422e-07, 1.134576e+00
15, 6.875000e-01, 6.789692e-08, 1.114389e-07, 1.139121e+00
16, 7.000000e-01, 6.753945e-08, 1.097779e-07, 1.133124e+00
17, 7.125000e-01, 6.910880e-08, 1.094547e-07, 1.159453e+00
18, 7.250000e-01, 6.916745e-08, 1.080263e-07, 1.160437e+00
19, 7.375000e-01, 6.911422e-08, 1.062393e-07, 1.159544e+00
20, 7.500000e-01, 6.854981e-08, 1.050409e-07, 1.150075e+00
21, 7.625000e-01, 6.853810e-08, 1.033885e-07, 1.149879e+00
22, 7.750000e-01, 6.814271e-08, 1.004739e-07, 1.143245e+00
23, 7.875000e-01, 6.930725e-08, 1.006263e-07, 1.162783e+00
24, 8.000000e-01, 7.165109e-08, 1.032993e-07, 1.202106e+00
25, 8.125000e-01, 7.405914e-08, 1.052833e-07, 1.242506e+00
26, 8.250000e-01, 7.121674e-08, 1.004249e-07, 1.194819e+00
27, 8.375000e-01, 7.222205e-08, 1.006073e-07, 1.211685e+00
28, 8.500000e-01, 7.252462e-08, 9.923760e-08, 1.216761e+00
29, 8.625000e-01, 7.182068e-08, 9.756141e-08, 1.204951e+00
30, 8.750000e-01, 7.353266e-08, 9.911538e-08, 1.233673e+00
31, 8.875000e-01, 7.168899e-08, 9.508063e-08, 1.202742e+00
32, 9.000000e-01, 7.208757e-08, 9.471886e-08, 1.209429e+00
33, 9.125000e-01, 7.184092e-08, 9.314501e-08, 1.205291e+00
34, 9.250000e-01, 7.229742e-08, 9.298899e-08, 1.212949e+00
35, 9.375000e-01, 7.164480e-08, 9.120203e-08, 1.202000e+00
36, 9.500000e-01, 7.240465e-08, 9.095762e-08, 1.214748e+00
37, 9.625000e-01, 7.305433e-08, 9.154555e-08, 1.225648e+00
38, 9.750000e-01, 7.219449e-08, 8.951116e-08, 1.211223e+00
39, 9.875000e-01, 7.132624e-08, 8.726873e-08, 1.196656e+00
40, 1.000000e+00, 7.652500e-08, 9.285299e-08, 1.283876e+00
41, 1.012500e+00, 8.343151e-08, 1.003581e-07, 1.399748e+00
42, 1.025000e+00, 8.040748e-08, 9.600149e-08, 1.349014e+00
43, 1.037500e+00, 8.257917e-08, 9.793968e-08, 1.385449e+00
44, 1.050000e+00, 1.113328e-07, 1.306568e-07, 1.867855e+00
45, 1.062500e+00, 1.113183e-07, 1.295807e-07, 1.867612e+00
46, 1.075000e+00, 1.118461e-07, 1.298212e-07, 1.876466e+00
47, 1.087500e+00, 1.119670e-07, 1.287825e-07, 1.878495e+00
48, 1.100000e+00, 1.088950e-07, 1.246798e-07, 1.826956e+00
49, 1.112500e+00, 1.123489e-07, 1.271547e-07, 1.884902e+00
50, 1.125000e+00, 1.114676e-07, 1.259375e-07, 1.870117e+00
51, 1.137500e+00, 1.106108e-07, 1.236201e-07, 1.855741e+00
52, 1.150000e+00, 1.089604e-07, 1.211814e-07, 1.828052e+00
53, 1.162500e+00, 1.113362e-07, 1.231128e-07, 1.867911e+00
54, 1.175000e+00, 1.099095e-07, 1.207592e-07, 1.843976e+00
55, 1.187500e+00, 1.080042e-07, 1.179676e-07, 1.812010e+00
56, 1.200000e+00, 1.104187e-07, 1.199982e-07, 1.852519e+00
57, 1.212500e+00, 1.096513e-07, 1.182818e-07, 1.839643e+00
58, 1.225000e+00, 1.117540e-07, 1.201054e-07, 1.874921e+00
59, 1.237500e+00, 1.085010e-07, 1.160740e-07, 1.820345e+00
60, 1.250000e+00, 1.165851e-07, 1.239165e-07, 1.955973e+00
61, 1.262500e+00, 1.198543e-07, 1.267389e-07, 2.010822e+00
62, 1.275000e+00, 1.243438e-07, 1.314343e-07, 2.086143e+00
63, 1.287500e+00, 1.232970e-07, 1.296543e-07, 2.068581e+00
64, 1.300000e+00, 1.245348e-07, 1.304765e-07, 2.089348e+00
65, 1.312500e+00, 1.260981e-07, 1.314176e-07, 2.115576e+00
66, 1.325000e+00, 1.259211e-07, 1.306598e-07, 2.112606e+00
67, 1.337500e+00, 1.277871e-07, 1.323618e-07, 2.143913e+00
68, 1.350000e+00, 1.278403e-07, 1.316863e-07, 2.144804e+00
69, 1.362500e+00, 1.298410e-07, 1.334499e-07, 2.178370e+00
70, 1.375000e+00, 1.242417e-07, 1.273254e-07, 2.084429e+00
71, 1.387500e+00, 1.265050e-07, 1.293429e-07, 2.122401e+00
72, 1.400000e+00, 1.279457e-07, 1.301933e-07, 2.146572e+00
73, 1.412500e+00, 1.277150e-07, 1.297490e-07, 2.142702e+00
74, 1.425000e+00, 1.385844e-07, 1.403861e-07, 2.325060e+00
75, 1.437500e+00, 1.354807e-07, 1.371117e-07, 2.272990e+00
76, 1.450000e+00, 1.340127e-07, 1.353405e-07, 2.248360e+00
77, 1.462500e+00, 1.356847e-07, 1.368625e-07, 2.276412e+00
78, 1.475000e+00, 1.361824e-07, 1.369914e-07, 2.284762e+00
79, 1.487500e+00, 1.393351e-07, 1.400596e-07, 2.337655e+00
80, 1.500000e+00, 1.385915e-07, 1.390350e-07, 2.325179e+00
81, 1.512500e+00, 1.379497e-07, 1.382742e-07, 2.314413e+00
82, 1.525000e+00, 1.418955e-07, 1.421604e-07, 2.380611e+00
83, 1.537500e+00, 1.400406e-07, 1.402026e-07, 2.349491e+00
84, 1.550000e+00, 1.400052e-07, 1.400708e-07, 2.348897e+00
85, 1.562500e+00, 1.432530e-07, 1.432646e-07, 2.403386e+00
86, 1.575000e+00, 1.419381e-07, 1.419439e-07, 2.381326e+00
87, 1.587500e+00, 1.364413e-07, 1.364645e-07, 2.289105e+00
88, 1.600000e+00, 1.416105e-07, 1.416786e-07, 2.375830e+00
89, 1.612500e+00, 1.446960e-07, 1.448355e-07, 2.427596e+00
90, 1.625000e+00, 1.469420e-07, 1.471057e-07, 2.465278e+00
91, 1.637500e+00, 1.450843e-07, 1.453719e-07, 2.434111e+00
92, 1.650000e+00, 1.419260e-07, 1.423211e-07, 2.381124e+00
93, 1.662500e+00, 1.502965e-07, 1.509931e-07, 2.521557e+00
94, 1.675000e+00, 1.474614e-07, 1.483860e-07, 2.473992e+00
95, 1.687500e+00, 1.491715e-07, 1.504408e-07, 2.502682e+00
96, 1.700000e+00, 1.502022e-07, 1.514931e-07, 2.519974e+00
97, 1.712500e+00, 1.481859e-07, 1.498340e-07, 2.486146e+00
98, 1.725000e+00, 1.463029e-07, 1.481953e-07, 2.454555e+00
99, 1.737500e+00, 1.506322e-07, 1.532395e-07, 2.527189e+00
100, 1.750000e+00, 1.522169e-07, 1.550223e-07, 2.553775e+00
101, 1.762500e+00, 1.515827e-07, 1.551290e-07, 2.543136e+00
102, 1.775000e+00, 1.544402e-07, 1.583833e-07, 2.591076e+00
103, 1.787500e+00, 1.520869e-07, 1.562862e-07, 2.551594e+00
104, 1.800000e+00, 1.567662e-07, 1.620556e-07, 2.630100e+00
105, 1.812500e+00, 1.559375e-07, 1.619044e-07, 2.616198e+00
106, 1.825000e+00, 1.577843e-07, 1.645119e-07, 2.647181e+00
107, 1.837500e+00, 1.578764e-07, 1.652221e-07, 2.648726e+00
108, 1.850000e+00, 1.585451e-07, 1.667847e-07, 2.659946e+00
109, 1.862500e+00, 1.558519e-07, 1.641773e-07, 2.614762e+00
110, 1.875000e+00, 1.603911e-07, 1.698346e-07, 2.690916e+00
111, 1.887500e+00, 1.612022e-07, 1.716842e-07, 2.704524e+00
112, 1.900000e+00, 1.572510e-07, 1.689584e-07, 2.638234e+00
113, 1.912500e+00, 1.589677e-07, 1.719303e-07, 2.667035e+00
114, 1.925000e+00, 1.608031e-07, 1.751530e-07, 2.697829e+00
115, 1.937500e+00, 1.612675e-07, 1.765931e-07, 2.705620e+00
116, 1.950000e+00, 1.679188e-07, 1.849561e-07, 2.817210e+00
117, 1.962500e+00, 1.633722e-07, 1.809208e-07, 2.740931e+00
118, 1.975000e+00, 1.641845e-07, 1.831604e-07, 2.754559e+00
119, 1.987500e+00, 1.942518e-07, 2.186694e-07, 3.259005e+00
120, 2.000000e+00, 1.924997e-07, 2.183464e-07, 3.229609e+00
121, 2.012500e+00, 2.447646e-07, 2.810567e-07, 4.106469e+00
122, 2.025000e+00, 2.505473e-07, 2.884601e-07, 4.203486e+00
123, 2.037500e+00, 2.492855e-07, 2.907490e-07, 4.182316e+00
124, 2.050000e+00, 2.486316e-07, 2.924449e-07, 4.171347e+00
125, 2.062500e+00, 2.595945e-07, 3.076075e-07, 4.355273e+00
126, 2.075000e+00, 2.597266e-07, 3.122698e-07, 4.357489e+00
127, 2.087500e+00, 2.588288e-07, 3.125514e-07, 4.342426e+00
128, 2.100000e+00, 3.010487e-07, 3.700582e-07, 5.050759e+00
129, 2.112500e+00, 3.192867e-07, 3.985355e-07, 5.356742e+00
130, 2.125000e+00, 3.174069e-07, 3.970597e-07, 5.325205e+00
131, 2.137500e+00, 3.134349e-07, 3.990636e-07, 5.258565e+00
132, 2.150000e+00, 3.290737e-07, 4.255563e-07, 5.520941e+00
133, 2.162500e+00, 3.328452e-07, 4.350096e-07, 5.584215e+00
134, 2.175000e+00, 3.219052e-07, 4.238901e-07, 5.400673e+00
135, 2.187500e+00, 3.277447e-07, 4.425981e-07, 5.498644e+00
136, 2.200000e+00, 3.280119e-07, 4.472198e-07, 5.503126e+00
137, 2.212500e+00, 3.192538e-07, 4.426608e-07, 5.356190e+00
138, 2.225000e+00, 3.244834e-07, 4.600904e-07, 5.443928e+00
139, 2.237500e+00, 3.308925e-07, 4.750293e-07, 5.551456e+00
140, 2.250000e+00, 3.311908e-07, 4.801774e-07, 5.556460e+00
141, 2.262500e+00, 3.270629e-07, 4.885236e-07, 5.487206e+00
142, 2.275000e+00, 3.396390e-07, 5.102607e-07, 5.698196e+00
143, 2.287500e+00, 3.382435e-07, 5.271152e-07, 5.674784e+00
144, 2.300000e+00, 3.432313e-07, 5.397998e-07, 5.758466e+00
145, 2.312500e+00, 3.366555e-07, 5.475464e-07, 5.648141e+00
146, 2.325000e+00, 3.381439e-07, 5.600306e-07, 5.673113e+00
147, 2.337500e+00, 3.464734e-07, 5.887440e-07, 5.812860e+00
148, 2.350000e+00, 3.381932e-07, 5.846135e-07, 5.673940e+00
149, 2.362500e+00, 3.478067e-07, 6.114153e-07, 5.835228e+00
150, 2.375000e+00, 3.470253e-07, 6.379261e-07, 5.822119e+00
151, 2.387500e+00, 3.589623e-07, 6.821600e-07, 6.022388e+00
152, 2.400000e+00, 3.436076e-07, 6.673877e-07, 5.764779e+00
153, 2.412500e+00, 3.542571e-07, 7.025601e-07, 1.167809e+01
154, 2.425000e+00, 3.509683e-07, 7.319017e-07, 1.177654e+01
155, 2.437500e+00, 3.511347e-07, 7.396996e-07, 1.178212e+01
156, 2.450000e+00, 3.517647e-07, 7.790918e-07, 1.180327e+01
157, 2.462500e+00, 3.453868e-07, 8.023033e-07, 1.158926e+01
158, 2.475000e+00, 3.581726e-07, 8.509987e-07, 1.201828e+01
159, 2.487500e+00, 3.610895e-07, 9.240027e-07, 1.211615e+01
160, 2.500000e+00, 4.058029e-07, 1.076346e-06, 1.361649e+01
161, 2.512500e+00, 4.134496e-07, 1.155251e-06, 1.387307e+01
162, 2.525000e+00, 4.795569e-07, 1.420131e-06, 1.609126e+01
163, 2.537500e+00, 4.650850e-07, 1.435334e-06, 1.560566e+01
164, 2.550000e+00, 4.775716e-07, 1.606121e-06, 1.602464e+01
165, 2.562500e+00, 4.716621e-07, 1.680960e-06, 1.582635e+01
166, 2.575000e+00, 4.729162e-07, 1.734523e-06, 1.586844e+01
167, 2.587500e+00, 4.675571e-07, 1.971058e-06, 3.137723e+01
168, 2.600000e+00, 4.883395e-07, 2.228908e-06, 3.277191e+01
169, 2.612500e+00, 4.898053e-07, 2.445732e-06, 3.287028e+01
170, 2.625000e+00, 4.748802e-07, 2.670931e-06, 3.186867e+01
171, 2.637500e+00, 4.823720e-07, 3.098193e-06, 3.237144e+01
172, 2.650000e+00, 4.943537e-07, 3.705907e-06, 3.317552e+01
173, 2.662500e+00, 5.001356e-07, 4.289204e-06, 6.576235e+01
174, 2.675000e+00, 4.971312e-07, 5.752007e-06, 6.672382e+01
175, 2.687500e+00, 4.966920e-07, 7.892868e-06, 1.324087e+02
176, 2.700000e+00, 5.023686e-07, 1.144156e-05, 1.348535e+02
177, 2.712500e+00, 5.145410e-07, 2.955207e-05, 3.408368e+02
178, 2.725000e+00, 4.931726e-07, 1.000000e+00, 1.372588e+07
179, 2.737500e+00, 4.967401e-07, 5.438195e-05, 5.084381e+02
180, 2.750000e+00, 4.961276e-07, 1.381301e-05, 1.331782e+02
181, 2.762500e+00, 5.052803e-07, 8.320318e-06, 1.300322e+02
182, 2.775000e+00, 5.055891e-07, 5.766404e-06, 6.785902e+01
183, 2.787500e+00, 5.007320e-07, 4.406189e-06, 6.683169e+01
184, 2.800000e+00, 5.047862e-07, 3.613910e-06, 3.387563e+01
185, 2.812500e+00, 5.073172e-07, 3.183002e-06, 3.404548e+01
186, 2.825000e+00, 5.170180e-07, 2.736236e-06, 3.469649e+01
187, 2.837500e+00, 5.924682e-07, 2.621489e-06, 3.975987e+01
188, 2.850000e+00, 5.874907e-07, 2.444077e-06, 3.911514e+01
189, 2.862500e+00, 6.067078e-07, 2.240615e-06, 2.035774e+01
190, 2.875000e+00, 6.015805e-07, 2.025616e-06, 2.018569e+01
191, 2.887500e+00, 6.088142e-07, 1.863400e-06, 2.042841e+01
192, 2.900000e+00, 6.152008e-07, 1.718320e-06, 2.064271e+01
193, 2.912500e+00, 6.056130e-07, 1.591396e-06, 2.032100e+01
194, 2.925000e+00, 6.085510e-07, 1.452561e-06, 2.041958e+01
195, 2.937500e+00, 6.167611e-07, 1.394354e-06, 2.069507e+01
196, 2.950000e+00, 6.138632e-07, 1.287199e-06, 2.059783e+01
197, 2.962500e+00, 6.115860e-07, 1.197665e-06, 2.003814e+01
198, 2.975000e+00, 6.194544e-07, 1.132303e-06, 1.039272e+01
199, 2.987500e+00, 6.036257e-07, 1.070998e-06, 1.012716e+01
200, 3.000000e+00, 6.157922e-07, 1.031297e-06, 1.033128e+01
