200, 1.000000e+00, 1.000000e+03
1, 5.995000e+00, 2.589336e-07, 1.182132e-06, 1.733902e+01
2, 1.099000e+01, 3.046576e-07, 1.798192e-06, 2.044522e+01
3, 1.598500e+01, 4.284122e-07, 3.136619e-06, 2.875026e+01
4, 2.098000e+01, 5.225718e-07, 4.353607e-06, 6.954507e+01
5, 2.597500e+01, 5.160186e-07, 4.793436e-06, 6.925884e+01
6, 3.097000e+01, 6.102605e-07, 6.225833e-06, 8.190777e+01
7, 3.596500e+01, 6.100051e-07, 6.614148e-06, 8.187350e+01
8, 4.096000e+01, 6.004900e-07, 6.928438e-06, 8.059640e+01
9, 4.595500e+01, 5.930607e-07, 7.249466e-06, 7.959925e+01
10, 5.095000e+01, 5.870502e-07, 7.584875e-06, 7.879254e+01
11, 5.594500e+01, 5.810493e-07, 7.880460e-06, 7.798712e+01
12, 6.094000e+01, 5.760187e-07, 8.156819e-06, 7.731193e+01
13, 6.593500e+01, 1.046239e-06, 1.541897e-05, 1.404238e+02
14, 7.093000e+01, 1.044766e-06, 1.592905e-05, 1.402261e+02
15, 7.592500e+01, 1.042590e-06, 1.647067e-05, 1.399341e+02
16, 8.092000e+01, 1.036628e-06, 1.692950e-05, 2.780106e+02
17, 8.591500e+01, 1.036544e-06, 1.739814e-05, 2.782452e+02
18, 9.091000e+01, 1.033247e-06, 1.785901e-05, 2.773603e+02
19, 9.590500e+01, 1.031044e-06, 1.832467e-05, 2.767689e+02
20, 1.009000e+02, 1.030250e-06, 1.876592e-05, 2.765556e+02
21, 1.058950e+02, 1.028325e-06, 1.914773e-05, 2.760390e+02
22, 1.108900e+02, 1.024950e-06, 1.956996e-05, 2.751329e+02
23, 1.158850e+02, 1.024551e-06, 1.994721e-05, 2.750257e+02
24, 1.208800e+02, 1.022232e-06, 2.039250e-05, 2.744033e+02
25, 1.258750e+02, 1.019871e-06, 2.075854e-05, 2.737696e+02
26, 1.308700e+02, 1.220441e-06, 2.535090e-05, 3.276095e+02
27, 1.358650e+02, 1.214486e-06, 2.572036e-05, 3.260110e+02
28, 1.408600e+02, 1.210230e-06, 2.605392e-05, 3.248688e+02
29, 1.458550e+02, 1.207558e-06, 2.640728e-05, 3.241513e+02
30, 1.508500e+02, 1.202878e-06, 2.673332e-05, 3.228951e+02
31, 1.558450e+02, 1.198666e-06, 2.710408e-05, 3.217645e+02
32, 1.608400e+02, 1.194599e-06, 2.740518e-05, 3.206726e+02
33, 1.658350e+02, 1.189809e-06, 2.777497e-05, 3.193870e+02
34, 1.708300e+02, 1.187920e-06, 2.813636e-05, 3.188799e+02
35, 1.758250e+02, 1.181238e-06, 2.837497e-05, 3.170861e+02
36, 1.808200e+02, 1.180174e-06, 2.877042e-05, 3.168005e+02
37, 1.858150e+02, 1.176442e-06, 2.907841e-05, 3.157987e+02
38, 1.908100e+02, 1.172496e-06, 2.936019e-05, 3.147396e+02
39, 1.958050e+02, 1.169469e-06, 2.978374e-05, 3.139271e+02
40, 2.008000e+02, 1.168117e-06, 2.993552e-05, 3.135639e+02
41, 2.057950e+02, 1.163584e-06, 3.028083e-05, 3.123472e+02
42, 2.107900e+02, 1.163479e-06, 3.068946e-05, 3.123190e+02
43, 2.157850e+02, 1.160891e-06, 3.091224e-05, 3.116242e+02
44, 2.207800e+02, 1.156057e-06, 3.114806e-05, 3.103266e+02
45, 2.257750e+02, 1.155076e-06, 3.144310e-05, 3.100634e+02
46, 2.307700e+02, 1.154735e-06, 3.164357e-05, 3.099719e+02
47, 2.357650e+02, 1.149873e-06, 3.200932e-05, 3.086667e+02
48, 2.407600e+02, 1.146842e-06, 3.235115e-05, 3.078530e+02
49, 2.457550e+02, 1.146427e-06, 3.255901e-05, 3.077416e+02
50, 2.507500e+02, 1.144170e-06, 3.289074e-05, 3.071357e+02
51, 2.557450e+02, 1.711390e-06, 4.973346e-05, 4.593977e+02
52, 2.607400e+02, 2.095919e-06, 6.125005e-05, 5.626191e+02
53, 2.657350e+02, 2.086887e-06, 6.169625e-05, 5.601944e+02
54, 2.707300e+02, 2.086633e-06, 6.241814e-05, 5.601264e+02
55, 2.757250e+02, 2.082757e-06, 6.289789e-05, 5.590858e+02
56, 2.807200e+02, 2.086058e-06, 6.323587e-05, 5.599720e+02
57, 2.857150e+02, 2.080448e-06, 6.397418e-05, 5.584660e+02
58, 2.907100e+02, 2.079897e-06, 6.418309e-05, 5.583180e+02
59, 2.957050e+02, 2.080911e-06, 6.498319e-05, 5.585904e+02
60, 3.007000e+02, 2.077088e-06, 6.553124e-05, 5.575641e+02
61, 3.056950e+02, 2.078835e-06, 6.595547e-05, 5.580330e+02
62, 3.106900e+02, 2.074115e-06, 6.635718e-05, 1.110973e+03
63, 3.156850e+02, 2.073937e-06, 6.686013e-05, 1.113437e+03
64, 3.206800e+02, 2.073500e-06, 6.742145e-05, 1.113202e+03
65, 3.256750e+02, 2.073140e-06, 6.801803e-05, 1.113008e+03
66, 3.306700e+02, 2.064631e-06, 6.825939e-05, 1.108440e+03
67, 3.356650e+02, 2.068643e-06, 6.879344e-05, 1.110594e+03
68, 3.406600e+02, 2.066211e-06, 6.925932e-05, 1.109289e+03
69, 3.456550e+02, 2.070253e-06, 7.000870e-05, 1.111459e+03
70, 3.506500e+02, 2.064298e-06, 6.992459e-05, 1.108262e+03
71, 3.556450e+02, 2.057658e-06, 7.055662e-05, 1.104696e+03
72, 3.606400e+02, 2.067032e-06, 7.116281e-05, 1.109729e+03
73, 3.656350e+02, 2.065777e-06, 7.158352e-05, 1.109056e+03
74, 3.706300e+02, 2.059796e-06, 7.194751e-05, 1.105845e+03
75, 3.756250e+02, 2.061590e-06, 7.247855e-05, 1.106808e+03
76, 3.806200e+02, 2.058843e-06, 7.296915e-05, 1.105333e+03
77, 3.856150e+02, 2.057079e-06, 7.337498e-05, 1.104386e+03
78, 3.906100e+02, 2.051466e-06, 7.354203e-05, 1.101372e+03
79, 3.956050e+02, 2.054201e-06, 7.420412e-05, 1.102841e+03
80, 4.006000e+02, 2.057991e-06, 7.454132e-05, 1.104875e+03
81, 4.055950e+02, 2.046690e-06, 7.480158e-05, 1.098808e+03
82, 4.105900e+02, 2.053891e-06, 7.567900e-05, 1.102675e+03
83, 4.155850e+02, 2.053976e-06, 7.604611e-05, 1.102720e+03
84, 4.205800e+02, 2.051824e-06, 7.629449e-05, 1.101564e+03
85, 4.255750e+02, 2.047161e-06, 7.681889e-05, 1.099061e+03
86, 4.305700e+02, 2.046285e-06, 7.700245e-05, 1.098591e+03
87, 4.355650e+02, 2.049530e-06, 7.743943e-05, 1.100333e+03
88, 4.405600e+02, 2.051078e-06, 7.824793e-05, 1.101164e+03
89, 4.455550e+02, 2.035006e-06, 7.792284e-05, 1.092536e+03
90, 4.505500e+02, 2.041875e-06, 7.869851e-05, 1.096223e+03
91, 4.555450e+02, 2.044149e-06, 7.905936e-05, 1.097444e+03
92, 4.605400e+02, 2.046722e-06, 7.980645e-05, 1.098825e+03
93, 4.655350e+02, 2.043226e-06, 8.000107e-05, 1.096948e+03
94, 4.705300e+02, 2.045752e-06, 8.036033e-05, 1.098305e+03
95, 4.755250e+02, 2.040687e-06, 8.080916e-05, 1.095585e+03
96, 4.805200e+02, 2.043160e-06, 8.126308e-05, 1.096913e+03
97, 4.855150e+02, 2.042430e-06, 8.173629e-05, 1.096521e+03
98, 4.905100e+02, 2.043742e-06, 8.202674e-05, 1.097226e+03
99, 4.955050e+02, 2.038588e-06, 8.236580e-05, 1.094458e+03
100, 5.005000e+02, 2.041055e-06, 8.270532e-05, 1.095783e+03
101, 5.054950e+02, 2.032095e-06, 8.298865e-05, 1.090972e+03
102, 5.104900e+02, 2.032661e-06, 8.332333e-05, 1.091277e+03
103, 5.154850e+02, 2.435414e-06, 1.004666e-04, 1.307503e+03
104, 5.204800e+02, 2.432115e-06, 1.007569e-04, 1.305732e+03
105, 5.254750e+02, 2.439227e-06, 1.013576e-04, 1.309550e+03
106, 5.304700e+02, 2.425423e-06, 1.013910e-04, 1.302139e+03
107, 5.354650e+02, 2.429155e-06, 1.021372e-04, 1.304143e+03
108, 5.404600e+02, 2.424054e-06, 1.021225e-04, 1.301404e+03
109, 5.454550e+02, 2.424132e-06, 1.028915e-04, 1.301446e+03
110, 5.504500e+02, 2.417591e-06, 1.030149e-04, 1.297934e+03
111, 5.554450e+02, 2.419550e-06, 1.033929e-04, 1.298986e+03
112, 5.604400e+02, 2.415678e-06, 1.039635e-04, 1.296907e+03
113, 5.654350e+02, 2.415179e-06, 1.044048e-04, 1.296639e+03
114, 5.704300e+02, 2.406966e-06, 1.042303e-04, 1.292230e+03
115, 5.754250e+02, 2.412705e-06, 1.051650e-04, 1.295311e+03
116, 5.804200e+02, 2.408961e-06, 1.052960e-04, 1.293301e+03
117, 5.854150e+02, 2.404130e-06, 1.057112e-04, 1.290707e+03
118, 5.904100e+02, 2.407411e-06, 1.061611e-04, 1.292469e+03
119, 5.954050e+02, 2.396962e-06, 1.060930e-04, 1.286859e+03
120, 6.004000e+02, 2.396691e-06, 1.066663e-04, 1.286713e+03
121, 6.053950e+02, 2.394768e-06, 1.070350e-04, 1.285682e+03
122, 6.103900e+02, 2.388257e-06, 1.072928e-04, 1.282186e+03
123, 6.153850e+02, 2.398297e-06, 1.079010e-04, 1.287576e+03
124, 6.203800e+02, 2.384536e-06, 1.079676e-04, 1.280188e+03
125, 6.253750e+02, 2.385632e-06, 1.082228e-04, 1.280777e+03
126, 6.303700e+02, 2.388811e-06, 1.088849e-04, 1.282483e+03
127, 6.353650e+02, 2.385041e-06, 1.091880e-04, 1.280459e+03
128, 6.403600e+02, 2.378696e-06, 1.092027e-04, 1.277053e+03
129, 6.453550e+02, 2.381506e-06, 1.099479e-04, 1.278562e+03
130, 6.503500e+02, 2.380963e-06, 1.103480e-04, 1.278270e+03
131, 6.553450e+02, 2.377725e-06, 1.105913e-04, 1.276532e+03
132, 6.603400e+02, 2.364877e-06, 1.103498e-04, 1.269634e+03
133, 6.653350e+02, 2.373800e-06, 1.109798e-04, 1.274424e+03
134, 6.703300e+02, 2.367292e-06, 1.112944e-04, 1.270930e+03
135, 6.753250e+02, 2.370557e-06, 1.118594e-04, 1.272683e+03
136, 6.803200e+02, 2.369391e-06, 1.121741e-04, 1.272057e+03
137, 6.853150e+02, 2.357692e-06, 1.121571e-04, 1.265776e+03
138, 6.903100e+02, 2.368537e-06, 1.129898e-04, 1.271599e+03
139, 6.953050e+02, 2.360683e-06, 1.129398e-04, 1.267382e+03
140, 7.003000e+02, 2.360803e-06, 1.133022e-04, 1.267446e+03
141, 7.052950e+02, 2.359806e-06, 1.138380e-04, 1.266911e+03
142, 7.102900e+02, 2.361050e-06, 1.141711e-04, 1.267579e+03
143, 7.152850e+02, 2.355593e-06, 1.144664e-04, 1.264649e+03
144, 7.202800e+02, 2.352980e-06, 1.144777e-04, 1.263246e+03
145, 7.252750e+02, 2.355375e-06, 1.151177e-04, 1.264533e+03
146, 7.302700e+02, 2.353473e-06, 1.154661e-04, 1.263511e+03
147, 7.352650e+02, 2.345146e-06, 1.154325e-04, 1.259041e+03
148, 7.402600e+02, 2.354362e-06, 1.162713e-04, 1.263988e+03
149, 7.452550e+02, 2.348060e-06, 1.164097e-04, 1.260605e+03
150, 7.502500e+02, 2.340120e-06, 1.164397e-04, 1.256342e+03
151, 7.552450e+02, 2.344605e-06, 1.170575e-04, 1.258750e+03
152, 7.602400e+02, 2.346298e-06, 1.174328e-04, 1.259659e+03
153, 7.652350e+02, 2.337608e-06, 1.175228e-04, 1.254994e+03
154, 7.702300e+02, 2.340226e-06, 1.177585e-04, 1.256399e+03
155, 7.752250e+02, 2.330241e-06, 1.180036e-04, 1.251038e+03
156, 7.802200e+02, 2.336861e-06, 1.185350e-04, 1.254593e+03
157, 7.852150e+02, 2.337777e-06, 1.190868e-04, 1.255085e+03
158, 7.902100e+02, 2.336413e-06, 1.191794e-04, 1.254352e+03
159, 7.952050e+02, 2.329546e-06, 1.193284e-04, 1.250665e+03
160, 8.002000e+02, 2.325962e-06, 1.196476e-04, 1.248742e+03
161, 8.051950e+02, 2.324365e-06, 1.199310e-04, 1.247884e+03
162, 8.101900e+02, 2.327078e-06, 1.204257e-04, 1.249341e+03
163, 8.151850e+02, 2.324179e-06, 1.203570e-04, 1.247784e+03
164, 8.201800e+02, 2.321886e-06, 1.208369e-04, 1.246553e+03
165, 8.251750e+02, 2.322687e-06, 1.212275e-04, 1.246983e+03
166, 8.301700e+02, 2.312904e-06, 1.210107e-04, 1.241731e+03
167, 8.351650e+02, 2.321802e-06, 1.219339e-04, 1.246508e+03
168, 8.401600e+02, 2.327224e-06, 1.226486e-04, 1.249419e+03
169, 8.451550e+02, 2.322774e-06, 1.225620e-04, 1.247030e+03
170, 8.501500e+02, 2.315454e-06, 1.227813e-04, 1.243100e+03
171, 8.551450e+02, 2.317914e-06, 1.229739e-04, 1.244421e+03
172, 8.601400e+02, 2.312036e-06, 1.231356e-04, 1.241265e+03
173, 8.651350e+02, 2.315359e-06, 1.238030e-04, 1.243049e+03
174, 8.701300e+02, 2.309974e-06, 1.238942e-04, 1.240158e+03
175, 8.751250e+02, 2.319883e-06, 1.246568e-04, 1.245478e+03
176, 8.801200e+02, 2.316259e-06, 1.247545e-04, 1.243532e+03
177, 8.851150e+02, 2.309679e-06, 1.247976e-04, 1.240000e+03
178, 8.901100e+02, 2.305262e-06, 1.248420e-04, 1.237628e+03
179, 8.951050e+02, 2.302603e-06, 1.250208e-04, 1.236200e+03
180, 9.001000e+02, 2.303940e-06, 1.254572e-04, 1.236918e+03
181, 9.050950e+02, 2.310524e-06, 1.261169e-04, 1.240453e+03
182, 9.100900e+02, 2.295255e-06, 1.257563e-04, 1.232256e+03
183, 9.150850e+02, 2.304697e-06, 1.266162e-04, 1.237325e+03
184, 9.200800e+02, 2.299157e-06, 1.265772e-04, 1.234351e+03
185, 9.250750e+02, 2.295420e-06, 1.267182e-04, 1.232344e+03
186, 9.300700e+02, 2.301907e-06, 1.275590e-04, 1.235827e+03
187, 9.350650e+02, 2.297287e-06, 1.276674e-04, 1.233347e+03
188, 9.400600e+02, 2.292301e-06, 1.276802e-04, 1.230670e+03
189, 9.450550e+02, 2.290332e-06, 1.280139e-04, 1.229613e+03
190, 9.500500e+02, 2.301019e-06, 1.288857e-04, 1.235350e+03
191, 9.550450e+02, 2.293720e-06, 1.286704e-04, 1.231432e+03
192, 9.600400e+02, 2.291301e-06, 1.288093e-04, 1.230133e+03
193, 9.650350e+02, 2.295720e-06, 1.295718e-04, 1.232505e+03
194, 9.700300e+02, 2.292256e-06, 1.298095e-04, 1.230645e+03
195, 9.750250e+02, 2.288093e-06, 1.296999e-04, 1.228411e+03
196, 9.800200e+02, 2.286064e-06, 1.299361e-04, 1.227321e+03
197, 9.850150e+02, 2.290048e-06, 1.307009e-04, 1.229460e+03
198, 9.900099e+02, 2.277099e-06, 1.301319e-04, 1.222508e+03
199, 9.950050e+02, 2.287838e-06, 1.312032e-04, 1.228274e+03
200, 1.000000e+03, 2.276966e-06, 1.307514e-04, 1.222437e+03
