200, 1.000000e+00, 1.000000e+03
1, 5.995000e+00, 2.382411e-07, 1.208931e-06, 1.598809e+01
2, 1.099000e+01, 3.217505e-07, 1.847109e-06, 2.159231e+01
3, 1.598500e+01, 4.747280e-07, 3.818189e-06, 6.343738e+01
4, 2.098000e+01, 4.765466e-07, 4.406740e-06, 6.396100e+01
5, 2.597500e+01, 4.767008e-07, 4.882189e-06, 6.398170e+01
6, 3.097000e+01, 4.765437e-07, 5.322194e-06, 6.396062e+01
7, 3.596500e+01, 6.433733e-07, 7.295926e-06, 8.635210e+01
8, 4.096000e+01, 4.759895e-07, 6.109072e-06, 6.388624e+01
9, 4.595500e+01, 4.766096e-07, 6.482752e-06, 6.396946e+01
10, 5.095000e+01, 4.762689e-07, 6.793299e-06, 6.392373e+01
11, 5.594500e+01, 4.763280e-07, 7.146949e-06, 6.393166e+01
12, 6.094000e+01, 4.766278e-07, 7.445645e-06, 6.397189e+01
13, 6.593500e+01, 9.518769e-07, 1.543111e-05, 2.555175e+02
14, 7.093000e+01, 9.520959e-07, 1.596648e-05, 2.555763e+02
15, 7.592500e+01, 9.524691e-07, 1.657816e-05, 2.556765e+02
16, 8.092000e+01, 9.528321e-07, 1.713064e-05, 2.557739e+02
17, 8.591500e+01, 9.530786e-07, 1.761245e-05, 2.558401e+02
18, 9.091000e+01, 9.530239e-07, 1.808722e-05, 2.558254e+02
19, 9.590500e+01, 9.522570e-07, 1.867838e-05, 2.556195e+02
20, 1.009000e+02, 9.534379e-07, 1.913924e-05, 2.559365e+02
21, 1.058950e+02, 9.527167e-07, 1.958177e-05, 2.557429e+02
22, 1.108900e+02, 9.534490e-07, 2.001050e-05, 2.559395e+02
23, 1.158850e+02, 9.531274e-07, 2.053152e-05, 2.558532e+02
24, 1.208800e+02, 9.515469e-07, 2.089575e-05, 2.554289e+02
25, 1.258750e+02, 9.529120e-07, 2.132761e-05, 2.557954e+02
26, 1.308700e+02, 1.282222e-06, 2.898950e-05, 3.441938e+02
27, 1.358650e+02, 9.519349e-07, 2.217047e-05, 2.555331e+02
28, 1.408600e+02, 9.520397e-07, 2.256001e-05, 2.555612e+02
29, 1.458550e+02, 9.515919e-07, 2.298835e-05, 2.554410e+02
30, 1.508500e+02, 9.529441e-07, 2.336103e-05, 2.558040e+02
31, 1.558450e+02, 9.529698e-07, 2.379195e-05, 2.558109e+02
32, 1.608400e+02, 9.532333e-07, 2.412594e-05, 2.558816e+02
33, 1.658350e+02, 9.517071e-07, 2.449701e-05, 2.554719e+02
34, 1.708300e+02, 9.517325e-07, 2.484413e-05, 2.554787e+02
35, 1.758250e+02, 9.527032e-07, 2.517018e-05, 2.557393e+02
36, 1.808200e+02, 9.511836e-07, 2.558757e-05, 2.553314e+02
37, 1.858150e+02, 9.521567e-07, 2.593612e-05, 2.555926e+02
38, 1.908100e+02, 9.518516e-07, 2.621908e-05, 2.555107e+02
39, 1.958050e+02, 9.527528e-07, 2.663943e-05, 2.557526e+02
40, 2.008000e+02, 9.528844e-07, 2.696131e-05, 2.557880e+02
41, 2.057950e+02, 9.531810e-07, 2.735012e-05, 2.558676e+02
42, 2.107900e+02, 9.531467e-07, 2.762224e-05, 2.558584e+02
43, 2.157850e+02, 9.528065e-07, 2.791709e-05, 2.557670e+02
44, 2.207800e+02, 9.532492e-07, 2.818341e-05, 2.558859e+02
45, 2.257750e+02, 9.527736e-07, 2.860471e-05, 2.557582e+02
46, 2.307700e+02, 9.514555e-07, 2.889283e-05, 2.554044e+02
47, 2.357650e+02, 9.528407e-07, 2.923900e-05, 2.557762e+02
48, 2.407600e+02, 9.519875e-07, 2.948019e-05, 2.555472e+02
49, 2.457550e+02, 9.527798e-07, 2.987090e-05, 2.557599e+02
50, 2.507500e+02, 9.532675e-07, 3.006400e-05, 2.558908e+02
51, 2.557450e+02, 1.850375e-06, 5.921552e-05, 9.934127e+02
52, 2.607400e+02, 1.905462e-06, 6.140834e-05, 1.022987e+03
53, 2.657350e+02, 1.906475e-06, 6.199479e-05, 1.023531e+03
54, 2.707300e+02, 1.905666e-06, 6.256215e-05, 1.023096e+03
55, 2.757250e+02, 1.905626e-06, 6.323442e-05, 1.023075e+03
56, 2.807200e+02, 1.904182e-06, 6.364123e-05, 1.022300e+03
57, 2.857150e+02, 1.904180e-06, 6.427927e-05, 1.022299e+03
58, 2.907100e+02, 1.905720e-06, 6.470919e-05, 1.023125e+03
59, 2.957050e+02, 1.906265e-06, 6.517830e-05, 1.023418e+03
60, 3.007000e+02, 1.905676e-06, 6.582570e-05, 1.023102e+03
61, 3.056950e+02, 1.901248e-06, 6.652880e-05, 1.020725e+03
62, 3.106900e+02, 1.900977e-06, 6.686078e-05, 1.020579e+03
63, 3.156850e+02, 1.902364e-06, 6.737072e-05, 1.021324e+03
64, 3.206800e+02, 1.905860e-06, 6.822939e-05, 1.023201e+03
65, 3.256750e+02, 1.901788e-06, 6.835997e-05, 1.021015e+03
66, 3.306700e+02, 1.902871e-06, 6.911147e-05, 1.021596e+03
67, 3.356650e+02, 1.903838e-06, 6.960124e-05, 1.022115e+03
68, 3.406600e+02, 1.901288e-06, 7.005708e-05, 1.020746e+03
69, 3.456550e+02, 1.905401e-06, 7.080436e-05, 1.022954e+03
70, 3.506500e+02, 1.906115e-06, 7.140788e-05, 1.023338e+03
71, 3.556450e+02, 1.900618e-06, 7.167825e-05, 1.020387e+03
72, 3.606400e+02, 1.905101e-06, 7.236263e-05, 1.022793e+03
73, 3.656350e+02, 1.904238e-06, 7.283111e-05, 1.022330e+03
74, 3.706300e+02, 1.897439e-06, 7.300780e-05, 1.018680e+03
75, 3.756250e+02, 1.905231e-06, 7.365355e-05, 1.022863e+03
76, 3.806200e+02, 1.901703e-06, 7.407867e-05, 1.020969e+03
77, 3.856150e+02, 1.901622e-06, 7.465350e-05, 1.020926e+03
78, 3.906100e+02, 1.903707e-06, 7.518008e-05, 1.022045e+03
79, 3.956050e+02, 1.903432e-06, 7.563066e-05, 1.021897e+03
80, 4.006000e+02, 1.898047e-06, 7.599265e-05, 1.019006e+03
81, 4.055950e+02, 1.899756e-06, 7.639877e-05, 1.019924e+03
82, 4.105900e+02, 1.900965e-06, 7.698109e-05, 1.020573e+03
83, 4.155850e+02, 1.900437e-06, 7.736952e-05, 1.020289e+03
84, 4.205800e+02, 1.905858e-06, 7.803956e-05, 1.023200e+03
85, 4.255750e+02, 1.904741e-06, 7.842267e-05, 1.022600e+03
86, 4.305700e+02, 1.905303e-06, 7.897907e-05, 1.022902e+03
87, 4.355650e+02, 1.899588e-06, 7.926861e-05, 1.019834e+03
88, 4.405600e+02, 1.903603e-06, 7.993884e-05, 1.021989e+03
89, 4.455550e+02, 1.900392e-06, 8.005407e-05, 1.020265e+03
90, 4.505500e+02, 1.905074e-06, 8.063013e-05, 1.022779e+03
91, 4.555450e+02, 1.902444e-06, 8.101931e-05, 1.021367e+03
92, 4.605400e+02, 1.905649e-06, 8.146594e-05, 1.023087e+03
93, 4.655350e+02, 1.903420e-06, 8.212828e-05, 1.021891e+03
94, 4.705300e+02, 1.902476e-06, 8.251534e-05, 1.021384e+03
95, 4.755250e+02, 1.900679e-06, 8.278205e-05, 1.020419e+03
96, 4.805200e+02, 1.905651e-06, 8.342083e-05, 1.023088e+03
97, 4.855150e+02, 1.904753e-06, 8.364653e-05, 1.022606e+03
98, 4.905100e+02, 1.902688e-06, 8.424595e-05, 1.021498e+03
99, 4.955050e+02, 1.900112e-06, 8.455318e-05, 1.020115e+03
100, 5.005000e+02, 1.902271e-06, 8.509707e-05, 1.021274e+03
101, 5.054950e+02, 1.903760e-06, 8.549197e-05, 1.022073e+03
102, 5.104900e+02, 1.901318e-06, 8.573973e-05, 1.020762e+03
103, 5.154850e+02, 2.578331e-06, 1.166808e-04, 1.384231e+03
104, 5.204800e+02, 1.897941e-06, 8.641487e-05, 1.018949e+03
105, 5.254750e+02, 1.905834e-06, 8.737374e-05, 1.023187e+03
106, 5.304700e+02, 1.899877e-06, 8.737747e-05, 1.019988e+03
107, 5.354650e+02, 1.906842e-06, 8.798929e-05, 1.023728e+03
108, 5.404600e+02, 1.902361e-06, 8.827571e-05, 1.021322e+03
109, 5.454550e+02, 1.902942e-06, 8.890483e-05, 1.021634e+03
110, 5.504500e+02, 1.899676e-06, 8.906177e-05, 1.019881e+03
111, 5.554450e+02, 1.901174e-06, 8.945999e-05, 1.020685e+03
112, 5.604400e+02, 1.901488e-06, 8.982951e-05, 1.020854e+03
113, 5.654350e+02, 1.899765e-06, 9.016189e-05, 1.019928e+03
114, 5.704300e+02, 1.906564e-06, 9.073971e-05, 1.023579e+03
115, 5.754250e+02, 1.901309e-06, 9.114320e-05, 1.020758e+03
116, 5.804200e+02, 1.901211e-06, 9.151190e-05, 1.020705e+03
117, 5.854150e+02, 1.901686e-06, 9.189967e-05, 1.020960e+03
118, 5.904100e+02, 1.905729e-06, 9.253365e-05, 1.023130e+03
119, 5.954050e+02, 1.897040e-06, 9.252043e-05, 1.018465e+03
120, 6.004000e+02, 1.897707e-06, 9.296811e-05, 1.018824e+03
121, 6.053950e+02, 1.904983e-06, 9.343810e-05, 1.022730e+03
122, 6.103900e+02, 1.904380e-06, 9.380341e-05, 1.022406e+03
123, 6.153850e+02, 1.902276e-06, 9.438256e-05, 1.021276e+03
124, 6.203800e+02, 1.905889e-06, 9.492112e-05, 1.023216e+03
125, 6.253750e+02, 1.902322e-06, 9.515935e-05, 1.021302e+03
126, 6.303700e+02, 1.905130e-06, 9.558246e-05, 1.022809e+03
127, 6.353650e+02, 1.905652e-06, 9.579197e-05, 1.023089e+03
128, 6.403600e+02, 1.900782e-06, 9.611853e-05, 1.020475e+03
129, 6.453550e+02, 1.902952e-06, 9.649824e-05, 1.021640e+03
130, 6.503500e+02, 1.894689e-06, 9.654616e-05, 1.017204e+03
131, 6.553450e+02, 1.900919e-06, 9.727009e-05, 1.020548e+03
132, 6.603400e+02, 1.899168e-06, 9.745841e-05, 1.019608e+03
133, 6.653350e+02, 1.894212e-06, 9.756490e-05, 1.016947e+03
134, 6.703300e+02, 1.906092e-06, 9.865167e-05, 1.023326e+03
135, 6.753250e+02, 1.897900e-06, 9.860639e-05, 1.018927e+03
136, 6.803200e+02, 1.900136e-06, 9.911629e-05, 1.020127e+03
137, 6.853150e+02, 1.902306e-06, 9.951409e-05, 1.021293e+03
138, 6.903100e+02, 1.902038e-06, 9.987140e-05, 1.021149e+03
139, 6.953050e+02, 1.905881e-06, 1.002740e-04, 1.023212e+03
140, 7.003000e+02, 1.901887e-06, 1.005279e-04, 1.021068e+03
141, 7.052950e+02, 1.899268e-06, 1.007282e-04, 1.019662e+03
142, 7.102900e+02, 1.896364e-06, 1.009251e-04, 1.018102e+03
143, 7.152850e+02, 1.897486e-06, 1.014718e-04, 1.018705e+03
144, 7.202800e+02, 1.904693e-06, 1.020446e-04, 1.022574e+03
145, 7.252750e+02, 1.904134e-06, 1.024123e-04, 1.022274e+03
146, 7.302700e+02, 1.898995e-06, 1.024267e-04, 1.019515e+03
147, 7.352650e+02, 1.897666e-06, 1.029089e-04, 1.018802e+03
148, 7.402600e+02, 1.901740e-06, 1.034294e-04, 1.020989e+03
149, 7.452550e+02, 1.905970e-06, 1.039182e-04, 1.023260e+03
150, 7.502500e+02, 1.903618e-06, 1.040779e-04, 1.021997e+03
151, 7.552450e+02, 1.901692e-06, 1.043776e-04, 1.020963e+03
152, 7.602400e+02, 1.901736e-06, 1.046452e-04, 1.020987e+03
153, 7.652350e+02, 1.905786e-06, 1.052434e-04, 1.023161e+03
154, 7.702300e+02, 1.901218e-06, 1.053458e-04, 1.020708e+03
155, 7.752250e+02, 1.894831e-06, 1.053998e-04, 1.017280e+03
156, 7.802200e+02, 1.901531e-06, 1.059796e-04, 1.020876e+03
157, 7.852150e+02, 1.900054e-06, 1.064972e-04, 1.020084e+03
158, 7.902100e+02, 1.903230e-06, 1.067324e-04, 1.021789e+03
159, 7.952050e+02, 1.905355e-06, 1.074260e-04, 1.022929e+03
160, 8.002000e+02, 1.900177e-06, 1.074460e-04, 1.020150e+03
161, 8.051950e+02, 1.900323e-06, 1.077682e-04, 1.020228e+03
162, 8.101900e+02, 1.904083e-06, 1.082272e-04, 1.022247e+03
163, 8.151850e+02, 1.895210e-06, 1.080157e-04, 1.017483e+03
164, 8.201800e+02, 1.899055e-06, 1.087549e-04, 1.019547e+03
165, 8.251750e+02, 1.902610e-06, 1.092569e-04, 1.021456e+03
166, 8.301700e+02, 1.898914e-06, 1.092240e-04, 1.019471e+03
167, 8.351650e+02, 1.905582e-06, 1.099454e-04, 1.023052e+03
168, 8.401600e+02, 1.896209e-06, 1.098397e-04, 1.018019e+03
169, 8.451550e+02, 1.903996e-06, 1.106699e-04, 1.022200e+03
170, 8.501500e+02, 1.905981e-06, 1.111673e-04, 1.023266e+03
171, 8.551450e+02, 1.903003e-06, 1.112287e-04, 1.021667e+03
172, 8.601400e+02, 1.896607e-06, 1.111832e-04, 1.018233e+03
173, 8.651350e+02, 1.902675e-06, 1.117288e-04, 1.021491e+03
174, 8.701300e+02, 1.902541e-06, 1.122403e-04, 1.021419e+03
175, 8.751250e+02, 1.901312e-06, 1.124715e-04, 1.020759e+03
176, 8.801200e+02, 1.903315e-06, 1.126917e-04, 1.021834e+03
177, 8.851150e+02, 1.901109e-06, 1.130975e-04, 1.020650e+03
178, 8.901100e+02, 1.906448e-06, 1.136473e-04, 1.023517e+03
179, 8.951050e+02, 1.902471e-06, 1.137464e-04, 1.021381e+03
180, 9.001000e+02, 1.904998e-06, 1.142755e-04, 1.022738e+03
181, 9.050950e+02, 1.905381e-06, 1.144294e-04, 1.022944e+03
182, 9.100900e+02, 1.904154e-06, 1.148028e-04, 1.022285e+03
183, 9.150850e+02, 1.896747e-06, 1.146208e-04, 1.018308e+03
184, 9.200800e+02, 1.900483e-06, 1.153108e-04, 1.020314e+03
185, 9.250750e+02, 1.899128e-06, 1.155228e-04, 1.019587e+03
186, 9.300700e+02, 1.898981e-06, 1.158183e-04, 1.019507e+03
187, 9.350650e+02, 1.897449e-06, 1.158776e-04, 1.018685e+03
188, 9.400600e+02, 1.895643e-06, 1.160784e-04, 1.017716e+03
189, 9.450550e+02, 1.901296e-06, 1.167381e-04, 1.020751e+03
190, 9.500500e+02, 1.896743e-06, 1.167042e-04, 1.018306e+03
191, 9.550450e+02, 1.893805e-06, 1.169272e-04, 1.016729e+03
192, 9.600400e+02, 1.901024e-06, 1.176722e-04, 1.020604e+03
193, 9.650350e+02, 1.903377e-06, 1.181952e-04, 1.021868e+03
194, 9.700300e+02, 1.902989e-06, 1.183668e-04, 1.021659e+03
195, 9.750250e+02, 1.899049e-06, 1.185551e-04, 1.019544e+03
196, 9.800200e+02, 1.900862e-06, 1.187450e-04, 1.020518e+03
197, 9.850150e+02, 1.901153e-06, 1.192002e-04, 1.020674e+03
198, 9.900099e+02, 1.902440e-06, 1.195525e-04, 1.021365e+03
199, 9.950050e+02, 1.899148e-06, 1.197187e-04, 1.019598e+03
200, 1.000000e+03, 1.905621e-06, 1.205470e-04, 1.023072e+03
