200, 1.000000e+00, 1.000000e+03
1, 5.995000e+00, 4.414095e-16, 2.214758e-15, 1.590345e+01
2, 1.099000e+01, 5.920247e-16, 3.404346e-15, 2.132994e+01
3, 1.598500e+01, 8.808581e-16, 7.024606e-15, 6.315699e+01
4, 2.098000e+01, 8.820554e-16, 8.074827e-15, 6.355879e+01
5, 2.597500e+01, 8.852668e-16, 9.043506e-15, 6.379020e+01
6, 3.097000e+01, 8.851560e-16, 9.834645e-15, 6.378221e+01
7, 3.596500e+01, 1.185497e-15, 1.349025e-14, 8.542407e+01
8, 4.096000e+01, 8.869274e-16, 1.128544e-14, 6.390986e+01
9, 4.595500e+01, 8.872669e-16, 1.207678e-14, 6.393432e+01
10, 5.095000e+01, 8.848741e-16, 1.261328e-14, 6.376190e+01
11, 5.594500e+01, 8.869575e-16, 1.323433e-14, 6.391202e+01
12, 6.094000e+01, 8.860117e-16, 1.380134e-14, 6.384387e+01
13, 6.593500e+01, 1.770715e-15, 2.873426e-14, 2.546243e+02
14, 7.093000e+01, 1.768532e-15, 2.988511e-14, 2.548724e+02
15, 7.592500e+01, 1.771326e-15, 3.084516e-14, 2.552750e+02
16, 8.092000e+01, 1.770347e-15, 3.181381e-14, 2.551340e+02
17, 8.591500e+01, 1.770936e-15, 3.255868e-14, 2.552187e+02
18, 9.091000e+01, 1.770850e-15, 3.367112e-14, 2.552064e+02
19, 9.590500e+01, 1.771566e-15, 3.478316e-14, 2.553095e+02
20, 1.009000e+02, 1.774761e-15, 3.569549e-14, 2.557701e+02
21, 1.058950e+02, 1.769963e-15, 3.621165e-14, 2.550786e+02
22, 1.108900e+02, 1.764225e-15, 3.715821e-14, 2.542517e+02
23, 1.158850e+02, 1.771563e-15, 3.781246e-14, 2.553091e+02
24, 1.208800e+02, 1.770118e-15, 3.875250e-14, 2.551009e+02
25, 1.258750e+02, 1.771256e-15, 3.970972e-14, 2.552648e+02
26, 1.308700e+02, 2.394273e-15, 5.427441e-14, 3.450510e+02
27, 1.358650e+02, 1.768683e-15, 4.125442e-14, 2.548942e+02
28, 1.408600e+02, 1.771887e-15, 4.206870e-14, 2.553558e+02
29, 1.458550e+02, 1.774500e-15, 4.274307e-14, 2.557323e+02
30, 1.508500e+02, 1.767532e-15, 4.339420e-14, 2.547283e+02
31, 1.558450e+02, 1.764955e-15, 4.403184e-14, 2.543569e+02
32, 1.608400e+02, 1.769892e-15, 4.457684e-14, 2.550683e+02
33, 1.658350e+02, 1.766899e-15, 4.541244e-14, 2.546370e+02
34, 1.708300e+02, 1.766315e-15, 4.600109e-14, 2.545528e+02
35, 1.758250e+02, 1.773671e-15, 4.703936e-14, 2.556129e+02
36, 1.808200e+02, 1.772030e-15, 4.762234e-14, 2.553764e+02
37, 1.858150e+02, 1.775029e-15, 4.830170e-14, 2.558087e+02
38, 1.908100e+02, 1.766157e-15, 4.872145e-14, 2.545301e+02
39, 1.958050e+02, 1.773043e-15, 4.937605e-14, 2.555225e+02
40, 2.008000e+02, 1.774764e-15, 5.004514e-14, 2.557705e+02
41, 2.057950e+02, 1.767175e-15, 5.071416e-14, 2.546768e+02
42, 2.107900e+02, 1.775234e-15, 5.122024e-14, 2.558382e+02
43, 2.157850e+02, 1.768959e-15, 5.179431e-14, 2.549339e+02
44, 2.207800e+02, 1.771343e-15, 5.259869e-14, 2.552774e+02
45, 2.257750e+02, 1.767325e-15, 5.279829e-14, 2.546983e+02
46, 2.307700e+02, 1.774337e-15, 5.386861e-14, 2.557088e+02
47, 2.357650e+02, 1.769170e-15, 5.419195e-14, 2.549642e+02
48, 2.407600e+02, 1.773061e-15, 5.488999e-14, 2.555250e+02
49, 2.457550e+02, 1.771448e-15, 5.545689e-14, 2.552925e+02
50, 2.507500e+02, 1.772362e-15, 5.599193e-14, 2.554243e+02
51, 2.557450e+02, 3.506301e-15, 1.120997e-13, 9.860599e+02
52, 2.607400e+02, 3.547030e-15, 1.143499e-13, 1.022362e+03
53, 2.657350e+02, 3.549185e-15, 1.154380e-13, 1.022983e+03
54, 2.707300e+02, 3.548294e-15, 1.167339e-13, 1.022726e+03
55, 2.757250e+02, 3.537395e-15, 1.171786e-13, 1.019585e+03
56, 2.807200e+02, 3.549057e-15, 1.189725e-13, 1.022946e+03
57, 2.857150e+02, 3.540573e-15, 1.193548e-13, 1.020501e+03
58, 2.907100e+02, 3.534858e-15, 1.205603e-13, 1.018853e+03
59, 2.957050e+02, 3.550131e-15, 1.216089e-13, 1.023255e+03
60, 3.007000e+02, 3.542190e-15, 1.222194e-13, 1.020967e+03
61, 3.056950e+02, 3.551341e-15, 1.242485e-13, 1.023604e+03
62, 3.106900e+02, 3.545168e-15, 1.249373e-13, 1.021825e+03
63, 3.156850e+02, 3.548450e-15, 1.257024e-13, 1.022771e+03
64, 3.206800e+02, 3.537418e-15, 1.265438e-13, 1.019591e+03
65, 3.256750e+02, 3.544229e-15, 1.276258e-13, 1.021554e+03
66, 3.306700e+02, 3.531622e-15, 1.279934e-13, 1.017921e+03
67, 3.356650e+02, 3.530060e-15, 1.293420e-13, 1.017471e+03
68, 3.406600e+02, 3.536154e-15, 1.304378e-13, 1.019227e+03
69, 3.456550e+02, 3.540668e-15, 1.311588e-13, 1.020528e+03
70, 3.506500e+02, 3.527121e-15, 1.315340e-13, 1.016623e+03
71, 3.556450e+02, 3.541110e-15, 1.333211e-13, 1.020656e+03
72, 3.606400e+02, 3.539747e-15, 1.339185e-13, 1.020263e+03
73, 3.656350e+02, 3.540867e-15, 1.348685e-13, 1.020586e+03
74, 3.706300e+02, 3.545676e-15, 1.365041e-13, 1.021972e+03
75, 3.756250e+02, 3.549353e-15, 1.370553e-13, 1.023031e+03
76, 3.806200e+02, 3.548997e-15, 1.383130e-13, 1.022929e+03
77, 3.856150e+02, 3.533750e-15, 1.384918e-13, 1.018534e+03
78, 3.906100e+02, 3.542339e-15, 1.398568e-13, 1.021010e+03
79, 3.956050e+02, 3.544525e-15, 1.408734e-13, 1.021640e+03
80, 4.006000e+02, 3.528311e-15, 1.409517e-13, 1.016966e+03
81, 4.055950e+02, 3.549478e-15, 1.428134e-13, 1.023067e+03
82, 4.105900e+02, 3.545127e-15, 1.436898e-13, 1.021813e+03
83, 4.155850e+02, 3.546948e-15, 1.441201e-13, 1.022338e+03
84, 4.205800e+02, 3.545199e-15, 1.450303e-13, 1.021834e+03
85, 4.255750e+02, 3.548503e-15, 1.464398e-13, 1.022786e+03
86, 4.305700e+02, 3.540683e-15, 1.468857e-13, 1.020533e+03
87, 4.355650e+02, 3.536790e-15, 1.472276e-13, 1.019410e+03
88, 4.405600e+02, 3.544934e-15, 1.483800e-13, 1.021758e+03
89, 4.455550e+02, 3.550322e-15, 1.494250e-13, 1.023311e+03
90, 4.505500e+02, 3.551815e-15, 1.504383e-13, 1.023741e+03
91, 4.555450e+02, 3.546429e-15, 1.512542e-13, 1.022189e+03
92, 4.605400e+02, 3.539062e-15, 1.519450e-13, 1.020065e+03
93, 4.655350e+02, 3.551542e-15, 1.526105e-13, 1.023662e+03
94, 4.705300e+02, 3.546358e-15, 1.537908e-13, 1.022168e+03
95, 4.755250e+02, 3.531126e-15, 1.537714e-13, 1.017778e+03
96, 4.805200e+02, 3.545443e-15, 1.550264e-13, 1.021904e+03
97, 4.855150e+02, 3.546439e-15, 1.563159e-13, 1.022191e+03
98, 4.905100e+02, 3.544368e-15, 1.569787e-13, 1.021594e+03
99, 4.955050e+02, 3.538010e-15, 1.571130e-13, 1.019762e+03
100, 5.005000e+02, 3.545322e-15, 1.582162e-13, 1.021869e+03
101, 5.054950e+02, 3.533415e-15, 1.588540e-13, 1.018438e+03
102, 5.104900e+02, 3.546105e-15, 1.601145e-13, 1.022095e+03
103, 5.154850e+02, 4.762110e-15, 2.155240e-13, 1.372585e+03
104, 5.204800e+02, 3.540022e-15, 1.614001e-13, 1.020342e+03
105, 5.254750e+02, 3.550056e-15, 1.625384e-13, 1.023234e+03
106, 5.304700e+02, 3.543668e-15, 1.631374e-13, 1.021393e+03
107, 5.354650e+02, 3.549921e-15, 1.639786e-13, 1.023195e+03
108, 5.404600e+02, 3.546741e-15, 1.649114e-13, 1.022278e+03
109, 5.454550e+02, 3.546598e-15, 1.656126e-13, 1.022237e+03
110, 5.504500e+02, 3.546368e-15, 1.661152e-13, 1.022171e+03
111, 5.554450e+02, 3.542492e-15, 1.670460e-13, 1.021054e+03
112, 5.604400e+02, 3.543497e-15, 1.676252e-13, 1.021344e+03
113, 5.654350e+02, 3.537057e-15, 1.682255e-13, 1.019487e+03
114, 5.704300e+02, 3.538805e-15, 1.687734e-13, 1.019991e+03
115, 5.754250e+02, 3.527703e-15, 1.690267e-13, 1.016791e+03
116, 5.804200e+02, 3.540789e-15, 1.702989e-13, 1.020563e+03
117, 5.854150e+02, 3.552096e-15, 1.718956e-13, 1.023822e+03
118, 5.904100e+02, 3.542283e-15, 1.717692e-13, 1.020994e+03
119, 5.954050e+02, 3.547123e-15, 1.725172e-13, 1.022389e+03
120, 6.004000e+02, 3.543338e-15, 1.734796e-13, 1.021298e+03
121, 6.053950e+02, 3.542662e-15, 1.740853e-13, 1.021103e+03
122, 6.103900e+02, 3.540095e-15, 1.748115e-13, 1.020363e+03
123, 6.153850e+02, 3.547637e-15, 1.758375e-13, 1.022537e+03
124, 6.203800e+02, 3.540636e-15, 1.761958e-13, 1.020519e+03
125, 6.253750e+02, 3.543898e-15, 1.769226e-13, 1.021459e+03
126, 6.303700e+02, 3.546232e-15, 1.774637e-13, 1.022132e+03
127, 6.353650e+02, 3.535555e-15, 1.782159e-13, 1.019054e+03
128, 6.403600e+02, 3.520218e-15, 1.779808e-13, 1.014634e+03
129, 6.453550e+02, 3.544167e-15, 1.800172e-13, 1.021536e+03
130, 6.503500e+02, 3.540538e-15, 1.803882e-13, 1.020491e+03
131, 6.553450e+02, 3.543921e-15, 1.810092e-13, 1.021466e+03
132, 6.603400e+02, 3.540336e-15, 1.819496e-13, 1.020432e+03
133, 6.653350e+02, 3.548737e-15, 1.828184e-13, 1.022854e+03
134, 6.703300e+02, 3.542206e-15, 1.830672e-13, 1.020971e+03
135, 6.753250e+02, 3.548203e-15, 1.842988e-13, 1.022700e+03
136, 6.803200e+02, 3.538135e-15, 1.846176e-13, 1.019798e+03
137, 6.853150e+02, 3.546024e-15, 1.854274e-13, 1.022072e+03
138, 6.903100e+02, 3.535172e-15, 1.855638e-13, 1.018944e+03
139, 6.953050e+02, 3.544267e-15, 1.867017e-13, 1.021565e+03
140, 7.003000e+02, 3.545324e-15, 1.872840e-13, 1.021870e+03
141, 7.052950e+02, 3.548230e-15, 1.884381e-13, 1.022708e+03
142, 7.102900e+02, 3.537413e-15, 1.885101e-13, 1.019590e+03
143, 7.152850e+02, 3.531495e-15, 1.887438e-13, 1.017884e+03
144, 7.202800e+02, 3.542305e-15, 1.898446e-13, 1.021000e+03
145, 7.252750e+02, 3.538868e-15, 1.904746e-13, 1.020009e+03
146, 7.302700e+02, 3.539870e-15, 1.907705e-13, 1.020298e+03
147, 7.352650e+02, 3.545663e-15, 1.922612e-13, 1.021968e+03
148, 7.402600e+02, 3.545049e-15, 1.927097e-13, 1.021791e+03
149, 7.452550e+02, 3.543768e-15, 1.931695e-13, 1.021422e+03
150, 7.502500e+02, 3.545173e-15, 1.936954e-13, 1.021827e+03
151, 7.552450e+02, 3.539131e-15, 1.940814e-13, 1.020085e+03
152, 7.602400e+02, 3.547212e-15, 1.953613e-13, 1.022414e+03
153, 7.652350e+02, 3.548766e-15, 1.960095e-13, 1.022862e+03
154, 7.702300e+02, 3.539503e-15, 1.963866e-13, 1.020192e+03
155, 7.752250e+02, 3.537235e-15, 1.966818e-13, 1.019538e+03
156, 7.802200e+02, 3.547668e-15, 1.982283e-13, 1.022546e+03
157, 7.852150e+02, 3.536303e-15, 1.982424e-13, 1.019270e+03
158, 7.902100e+02, 3.547743e-15, 1.991651e-13, 1.022567e+03
159, 7.952050e+02, 3.544924e-15, 1.995440e-13, 1.021755e+03
160, 8.002000e+02, 3.539385e-15, 2.002815e-13, 1.020158e+03
161, 8.051950e+02, 3.544507e-15, 2.008957e-13, 1.021635e+03
162, 8.101900e+02, 3.547752e-15, 2.018931e-13, 1.022570e+03
163, 8.151850e+02, 3.541753e-15, 2.018119e-13, 1.020841e+03
164, 8.201800e+02, 3.544297e-15, 2.026857e-13, 1.021574e+03
165, 8.251750e+02, 3.546040e-15, 2.035725e-13, 1.022076e+03
166, 8.301700e+02, 3.542494e-15, 2.037927e-13, 1.021054e+03
167, 8.351650e+02, 3.541308e-15, 2.045708e-13, 1.020713e+03
168, 8.401600e+02, 3.549314e-15, 2.058055e-13, 1.023020e+03
169, 8.451550e+02, 3.540116e-15, 2.057496e-13, 1.020369e+03
170, 8.501500e+02, 3.545512e-15, 2.063987e-13, 1.021924e+03
171, 8.551450e+02, 3.540212e-15, 2.069285e-13, 1.020397e+03
172, 8.601400e+02, 3.539297e-15, 2.072219e-13, 1.020133e+03
173, 8.651350e+02, 3.540381e-15, 2.082157e-13, 1.020445e+03
174, 8.701300e+02, 3.545252e-15, 2.091683e-13, 1.021849e+03
175, 8.751250e+02, 3.545973e-15, 2.093213e-13, 1.022057e+03
176, 8.801200e+02, 3.542314e-15, 2.098013e-13, 1.021002e+03
177, 8.851150e+02, 3.546533e-15, 2.107496e-13, 1.022219e+03
178, 8.901100e+02, 3.546178e-15, 2.116224e-13, 1.022116e+03
179, 8.951050e+02, 3.544627e-15, 2.121195e-13, 1.021669e+03
180, 9.001000e+02, 3.545471e-15, 2.125444e-13, 1.021912e+03
181, 9.050950e+02, 3.540074e-15, 2.127612e-13, 1.020357e+03
182, 9.100900e+02, 3.546154e-15, 2.134974e-13, 1.022109e+03
183, 9.150850e+02, 3.545101e-15, 2.142351e-13, 1.021806e+03
184, 9.200800e+02, 3.550032e-15, 2.151302e-13, 1.023227e+03
185, 9.250750e+02, 3.538233e-15, 2.149727e-13, 1.019826e+03
186, 9.300700e+02, 3.542528e-15, 2.157120e-13, 1.021064e+03
187, 9.350650e+02, 3.543971e-15, 2.166437e-13, 1.021480e+03
188, 9.400600e+02, 3.542011e-15, 2.171865e-13, 1.020915e+03
189, 9.450550e+02, 3.538305e-15, 2.174713e-13, 1.019847e+03
190, 9.500500e+02, 3.549430e-15, 2.186958e-13, 1.023054e+03
191, 9.550450e+02, 3.542471e-15, 2.188956e-13, 1.021048e+03
192, 9.600400e+02, 3.548345e-15, 2.196781e-13, 1.022741e+03
193, 9.650350e+02, 3.534990e-15, 2.196849e-13, 1.018892e+03
194, 9.700300e+02, 3.545388e-15, 2.205422e-13, 1.021889e+03
195, 9.750250e+02, 3.543191e-15, 2.211385e-13, 1.021255e+03
196, 9.800200e+02, 3.536204e-15, 2.214359e-13, 1.019241e+03
197, 9.850150e+02, 3.542735e-15, 2.220831e-13, 1.021124e+03
198, 9.900100e+02, 3.544308e-15, 2.226924e-13, 1.021577e+03
199, 9.950050e+02, 3.544113e-15, 2.232925e-13, 1.021521e+03
200, 1.000000e+03, 3.540577e-15, 2.238568e-13, 1.020502e+03
