200, 5.000000e-01, 1.000000e+03
1, 5.497500e+00, 3.320920e-16, 1.656100e-16, 8.517242e-01
2, 1.049500e+01, 3.784213e-16, 1.333295e-16, 8.521291e-01
3, 1.549250e+01, 6.654733e-16, 1.662541e-16, 7.492563e-01
4, 2.049000e+01, 6.618306e-16, 1.628862e-16, 7.451550e-01
5, 2.548750e+01, 4.440867e-16, 9.561670e-17, 4.999972e-01
6, 3.048500e+01, 4.440889e-16, 8.616022e-17, 4.999997e-01
7, 3.548250e+01, 7.579094e-16, 1.339319e-16, 8.533301e-01
8, 4.048000e+01, 4.440724e-16, 7.344563e-17, 4.999811e-01
9, 4.547750e+01, 4.440859e-16, 6.887929e-17, 4.999963e-01
10, 5.047500e+01, 4.440882e-16, 6.509840e-17, 4.999988e-01
11, 5.547250e+01, 4.440876e-16, 6.180423e-17, 4.999982e-01
12, 6.047000e+01, 4.440880e-16, 5.904146e-17, 4.999986e-01
13, 6.546750e+01, 1.331438e-15, 1.661688e-16, 7.495332e-01
14, 7.046500e+01, 8.881639e-16, 1.088490e-16, 4.999918e-01
15, 7.546250e+01, 8.881730e-16, 1.050185e-16, 4.999969e-01
16, 8.046000e+01, 8.881553e-16, 1.014798e-16, 4.999870e-01
17, 8.545750e+01, 8.881662e-16, 9.837013e-17, 4.999931e-01
18, 9.045500e+01, 8.881692e-16, 9.546304e-17, 4.999948e-01
19, 9.545250e+01, 8.881652e-16, 9.285734e-17, 4.999926e-01
20, 1.004500e+02, 8.881429e-16, 9.039017e-17, 4.999800e-01
21, 1.054475e+02, 8.881563e-16, 8.811637e-17, 4.999875e-01
22, 1.104450e+02, 8.881727e-16, 8.608340e-17, 4.999968e-01
23, 1.154425e+02, 8.881748e-16, 8.411171e-17, 4.999980e-01
24, 1.204400e+02, 8.881778e-16, 8.224776e-17, 4.999996e-01
25, 1.254375e+02, 8.881595e-16, 8.056881e-17, 4.999894e-01
26, 1.304350e+02, 1.515698e-15, 1.338861e-16, 8.532622e-01
27, 1.354325e+02, 8.881781e-16, 7.743350e-17, 4.999998e-01
28, 1.404300e+02, 8.881760e-16, 7.601472e-17, 4.999986e-01
29, 1.454275e+02, 8.881762e-16, 7.464175e-17, 4.999987e-01
30, 1.504250e+02, 8.881783e-16, 7.334098e-17, 4.999999e-01
31, 1.554225e+02, 8.881504e-16, 7.212314e-17, 4.999843e-01
32, 1.604200e+02, 8.881659e-16, 7.098133e-17, 4.999930e-01
33, 1.654175e+02, 8.881699e-16, 6.988828e-17, 4.999952e-01
34, 1.704150e+02, 8.881772e-16, 6.880641e-17, 4.999993e-01
35, 1.754125e+02, 8.881755e-16, 6.782118e-17, 4.999984e-01
36, 1.804100e+02, 8.881768e-16, 6.684276e-17, 4.999991e-01
37, 1.854075e+02, 8.881628e-16, 6.593597e-17, 4.999912e-01
38, 1.904050e+02, 8.881594e-16, 6.502974e-17, 4.999893e-01
39, 1.954025e+02, 8.881771e-16, 6.418496e-17, 4.999993e-01
40, 2.004000e+02, 8.881737e-16, 6.334821e-17, 4.999973e-01
41, 2.053975e+02, 8.881695e-16, 6.256134e-17, 4.999950e-01
42, 2.103950e+02, 8.881703e-16, 6.180611e-17, 4.999955e-01
43, 2.153925e+02, 8.881770e-16, 6.108152e-17, 4.999992e-01
44, 2.203900e+02, 8.881571e-16, 6.036643e-17, 4.999880e-01
45, 2.253875e+02, 8.881716e-16, 5.967041e-17, 4.999962e-01
46, 2.303850e+02, 8.881724e-16, 5.899329e-17, 4.999966e-01
47, 2.353825e+02, 8.881744e-16, 5.835128e-17, 4.999978e-01
48, 2.403800e+02, 8.881202e-16, 5.774593e-17, 4.999672e-01
49, 2.453775e+02, 8.881779e-16, 5.713544e-17, 4.999997e-01
50, 2.503750e+02, 8.881731e-16, 5.654170e-17, 4.999970e-01
51, 2.553725e+02, 2.664312e-15, 1.664939e-16, 7.499371e-01
52, 2.603700e+02, 2.663323e-15, 1.663041e-16, 7.496587e-01
53, 2.653675e+02, 1.776344e-15, 1.098262e-16, 4.999964e-01
54, 2.703650e+02, 1.776344e-15, 1.088289e-16, 4.999963e-01
55, 2.753625e+02, 1.776351e-15, 1.078110e-16, 4.999983e-01
56, 2.803600e+02, 1.776351e-15, 1.068243e-16, 4.999983e-01
57, 2.853575e+02, 1.776343e-15, 1.058737e-16, 4.999961e-01
58, 2.903550e+02, 1.776351e-15, 1.049384e-16, 4.999984e-01
59, 2.953525e+02, 1.776343e-15, 1.040629e-16, 4.999961e-01
60, 3.003500e+02, 1.776349e-15, 1.031383e-16, 4.999979e-01
61, 3.053475e+02, 1.776356e-15, 1.023056e-16, 4.999997e-01
62, 3.103450e+02, 1.776355e-15, 1.014746e-16, 4.999994e-01
63, 3.153425e+02, 1.776306e-15, 1.005867e-16, 4.999858e-01
64, 3.203400e+02, 1.776343e-15, 9.985457e-17, 4.999960e-01
65, 3.253375e+02, 1.776340e-15, 9.906615e-17, 4.999953e-01
66, 3.303350e+02, 1.776341e-15, 9.831129e-17, 4.999955e-01
67, 3.353325e+02, 1.776328e-15, 9.755191e-17, 4.999920e-01
68, 3.403300e+02, 1.776345e-15, 9.681094e-17, 4.999967e-01
69, 3.453275e+02, 1.776345e-15, 9.613417e-17, 4.999967e-01
70, 3.503250e+02, 1.776309e-15, 9.542065e-17, 4.999865e-01
71, 3.553225e+02, 1.776280e-15, 9.473829e-17, 4.999785e-01
72, 3.603200e+02, 1.776357e-15, 9.404577e-17, 5.000000e-01
73, 3.653175e+02, 1.776356e-15, 9.339791e-17, 4.999999e-01
74, 3.703150e+02, 1.776343e-15, 9.277265e-17, 4.999961e-01
75, 3.753125e+02, 1.776338e-15, 9.215796e-17, 4.999947e-01
76, 3.803100e+02, 1.776357e-15, 9.154524e-17, 5.000000e-01
77, 3.853075e+02, 1.776345e-15, 9.093790e-17, 4.999967e-01
78, 3.903050e+02, 1.776348e-15, 9.035729e-17, 4.999974e-01
79, 3.953025e+02, 1.776357e-15, 8.976845e-17, 4.999999e-01
80, 4.003000e+02, 1.776307e-15, 8.921426e-17, 4.999860e-01
81, 4.052975e+02, 1.776349e-15, 8.865538e-17, 4.999979e-01
82, 4.102950e+02, 1.776315e-15, 8.810455e-17, 4.999881e-01
83, 4.152925e+02, 1.776352e-15, 8.755259e-17, 4.999986e-01
84, 4.202900e+02, 1.776350e-15, 8.704744e-17, 4.999981e-01
85, 4.252875e+02, 1.776346e-15, 8.650534e-17, 4.999969e-01
86, 4.302850e+02, 1.776351e-15, 8.599148e-17, 4.999985e-01
87, 4.352825e+02, 1.776352e-15, 8.550137e-17, 4.999986e-01
88, 4.402800e+02, 1.776324e-15, 8.503241e-17, 4.999908e-01
89, 4.452775e+02, 1.776344e-15, 8.454607e-17, 4.999965e-01
90, 4.502750e+02, 1.776311e-15, 8.405246e-17, 4.999870e-01
91, 4.552725e+02, 1.776321e-15, 8.360759e-17, 4.999898e-01
92, 4.602700e+02, 1.776322e-15, 8.313627e-17, 4.999903e-01
93, 4.652675e+02, 1.776340e-15, 8.267411e-17, 4.999952e-01
94, 4.702650e+02, 1.776342e-15, 8.224258e-17, 4.999959e-01
95, 4.752625e+02, 1.776357e-15, 8.180321e-17, 4.999999e-01
96, 4.802600e+02, 1.776356e-15, 8.134695e-17, 4.999997e-01
97, 4.852575e+02, 1.776353e-15, 8.094896e-17, 4.999990e-01
98, 4.902550e+02, 1.776328e-15, 8.053360e-17, 4.999918e-01
99, 4.952525e+02, 1.776334e-15, 8.013311e-17, 4.999937e-01
100, 5.002500e+02, 1.776305e-15, 7.971678e-17, 4.999854e-01
101, 5.052475e+02, 1.776347e-15, 7.931066e-17, 4.999973e-01
102, 5.102450e+02, 1.776352e-15, 7.893082e-17, 4.999987e-01
103, 5.152425e+02, 3.031939e-15, 1.339840e-16, 8.534149e-01
104, 5.202400e+02, 1.776357e-15, 7.815006e-17, 4.999999e-01
105, 5.252375e+02, 1.776351e-15, 7.779103e-17, 4.999982e-01
106, 5.302350e+02, 1.776351e-15, 7.739190e-17, 4.999983e-01
107, 5.352325e+02, 1.776344e-15, 7.704201e-17, 4.999963e-01
108, 5.402300e+02, 1.776357e-15, 7.667836e-17, 5.000000e-01
109, 5.452275e+02, 1.776314e-15, 7.632277e-17, 4.999880e-01
110, 5.502250e+02, 1.776327e-15, 7.597341e-17, 4.999917e-01
111, 5.552225e+02, 1.776356e-15, 7.563572e-17, 4.999999e-01
112, 5.602200e+02, 1.776319e-15, 7.529909e-17, 4.999892e-01
113, 5.652175e+02, 1.776340e-15, 7.498060e-17, 4.999954e-01
114, 5.702150e+02, 1.776335e-15, 7.463371e-17, 4.999939e-01
115, 5.752125e+02, 1.776352e-15, 7.429219e-17, 4.999986e-01
116, 5.802100e+02, 1.776346e-15, 7.399353e-17, 4.999969e-01
117, 5.852075e+02, 1.776315e-15, 7.366777e-17, 4.999882e-01
118, 5.902050e+02, 1.776356e-15, 7.334881e-17, 4.999997e-01
119, 5.952025e+02, 1.776342e-15, 7.302636e-17, 4.999958e-01
120, 6.002000e+02, 1.776353e-15, 7.271880e-17, 4.999990e-01
121, 6.051975e+02, 1.776353e-15, 7.243126e-17, 4.999990e-01
122, 6.101950e+02, 1.776351e-15, 7.212164e-17, 4.999982e-01
123, 6.151925e+02, 1.776350e-15, 7.183238e-17, 4.999982e-01
124, 6.201900e+02, 1.776334e-15, 7.155240e-17, 4.999937e-01
125, 6.251875e+02, 1.776347e-15, 7.126693e-17, 4.999973e-01
126, 6.301850e+02, 1.776357e-15, 7.097957e-17, 4.999999e-01
127, 6.351825e+02, 1.776338e-15, 7.069449e-17, 4.999947e-01
128, 6.401800e+02, 1.776329e-15, 7.040082e-17, 4.999923e-01
129, 6.451775e+02, 1.776321e-15, 7.013838e-17, 4.999900e-01
130, 6.501750e+02, 1.776349e-15, 6.985857e-17, 4.999977e-01
131, 6.551725e+02, 1.776346e-15, 6.959416e-17, 4.999970e-01
132, 6.601700e+02, 1.776324e-15, 6.933409e-17, 4.999907e-01
133, 6.651675e+02, 1.776283e-15, 6.907296e-17, 4.999791e-01
134, 6.701650e+02, 1.776309e-15, 6.881901e-17, 4.999865e-01
135, 6.751625e+02, 1.776348e-15, 6.855031e-17, 4.999976e-01
136, 6.801600e+02, 1.776313e-15, 6.829669e-17, 4.999876e-01
137, 6.851575e+02, 1.776335e-15, 6.805345e-17, 4.999937e-01
138, 6.901550e+02, 1.776318e-15, 6.779636e-17, 4.999889e-01
139, 6.951525e+02, 1.776307e-15, 6.756320e-17, 4.999860e-01
140, 7.001500e+02, 1.776352e-15, 6.731568e-17, 4.999986e-01
141, 7.051475e+02, 1.776295e-15, 6.707610e-17, 4.999825e-01
142, 7.101450e+02, 1.776356e-15, 6.682094e-17, 4.999998e-01
143, 7.151425e+02, 1.776346e-15, 6.658881e-17, 4.999969e-01
144, 7.201400e+02, 1.776350e-15, 6.635654e-17, 4.999980e-01
145, 7.251375e+02, 1.776285e-15, 6.614127e-17, 4.999797e-01
146, 7.301350e+02, 1.776327e-15, 6.590575e-17, 4.999917e-01
147, 7.351325e+02, 1.776308e-15, 6.569160e-17, 4.999864e-01
148, 7.401300e+02, 1.776328e-15, 6.546931e-17, 4.999919e-01
149, 7.451275e+02, 1.776338e-15, 6.523690e-17, 4.999948e-01
150, 7.501250e+02, 1.776310e-15, 6.502404e-17, 4.999868e-01
151, 7.551225e+02, 1.776357e-15, 6.478746e-17, 4.999999e-01
152, 7.601200e+02, 1.776313e-15, 6.458621e-17, 4.999876e-01
153, 7.651175e+02, 1.776356e-15, 6.435352e-17, 4.999996e-01
154, 7.701150e+02, 1.776313e-15, 6.416776e-17, 4.999876e-01
155, 7.751125e+02, 1.776325e-15, 6.396509e-17, 4.999910e-01
156, 7.801100e+02, 1.776352e-15, 6.374226e-17, 4.999987e-01
157, 7.851075e+02, 1.776351e-15, 6.354273e-17, 4.999982e-01
158, 7.901050e+02, 1.776347e-15, 6.332360e-17, 4.999972e-01
159, 7.951025e+02, 1.776355e-15, 6.313019e-17, 4.999994e-01
160, 8.001000e+02, 1.776347e-15, 6.294808e-17, 4.999973e-01
161, 8.050975e+02, 1.776337e-15, 6.274195e-17, 4.999943e-01
162, 8.100950e+02, 1.776348e-15, 6.253375e-17, 4.999974e-01
163, 8.150925e+02, 1.776342e-15, 6.234452e-17, 4.999957e-01
164, 8.200900e+02, 1.776344e-15, 6.216335e-17, 4.999963e-01
165, 8.250875e+02, 1.776338e-15, 6.198939e-17, 4.999946e-01
166, 8.300850e+02, 1.776336e-15, 6.178962e-17, 4.999940e-01
167, 8.350825e+02, 1.776353e-15, 6.159375e-17, 4.999990e-01
168, 8.400800e+02, 1.776325e-15, 6.142359e-17, 4.999909e-01
169, 8.450775e+02, 1.776344e-15, 6.123724e-17, 4.999964e-01
170, 8.500750e+02, 1.776345e-15, 6.105756e-17, 4.999967e-01
171, 8.550725e+02, 1.776352e-15, 6.088668e-17, 4.999987e-01
172, 8.600700e+02, 1.776340e-15, 6.070056e-17, 4.999954e-01
173, 8.650675e+02, 1.776334e-15, 6.052800e-17, 4.999935e-01
174, 8.700650e+02, 1.776343e-15, 6.035457e-17, 4.999962e-01
175, 8.750625e+02, 1.776312e-15, 6.017500e-17, 4.999874e-01
176, 8.800600e+02, 1.776329e-15, 5.999457e-17, 4.999923e-01
177, 8.850575e+02, 1.776351e-15, 5.982903e-17, 4.999984e-01
178, 8.900550e+02, 1.776336e-15, 5.965299e-17, 4.999942e-01
179, 8.950525e+02, 1.776355e-15, 5.949429e-17, 4.999995e-01
180, 9.000500e+02, 1.776350e-15, 5.932915e-17, 4.999981e-01
181, 9.050475e+02, 1.776348e-15, 5.914615e-17, 4.999975e-01
182, 9.100450e+02, 1.776321e-15, 5.900384e-17, 4.999900e-01
183, 9.150425e+02, 1.776345e-15, 5.884711e-17, 4.999966e-01
184, 9.200400e+02, 1.776344e-15, 5.866696e-17, 4.999964e-01
185, 9.250375e+02, 1.776344e-15, 5.852629e-17, 4.999962e-01
186, 9.300350e+02, 1.776352e-15, 5.836801e-17, 4.999987e-01
187, 9.350325e+02, 1.776330e-15, 5.819824e-17, 4.999923e-01
188, 9.400300e+02, 1.776356e-15, 5.804196e-17, 4.999997e-01
189, 9.450275e+02, 1.776354e-15, 5.788884e-17, 4.999992e-01
190, 9.500250e+02, 1.776336e-15, 5.774471e-17, 4.999942e-01
191, 9.550225e+02, 1.776351e-15, 5.758821e-17, 4.999985e-01
192, 9.600200e+02, 1.776356e-15, 5.742730e-17, 4.999996e-01
193, 9.650175e+02, 1.776355e-15, 5.729008e-17, 4.999995e-01
194, 9.700150e+02, 1.776355e-15, 5.713963e-17, 4.999994e-01
195, 9.750125e+02, 1.776318e-15, 5.698630e-17, 4.999890e-01
196, 9.800100e+02, 1.776340e-15, 5.684610e-17, 4.999951e-01
197, 9.850075e+02, 1.776300e-15, 5.669614e-17, 4.999839e-01
198, 9.900050e+02, 1.776356e-15, 5.655585e-17, 4.999998e-01
199, 9.950025e+02, 1.776357e-15, 5.642537e-17, 5.000000e-01
200, 1.000000e+03, 1.776344e-15, 5.627724e-17, 4.999963e-01
